G04 #@! TF.GenerationSoftware,KiCad,Pcbnew,5.1.6+dfsg1-1~bpo10+1*
G04 #@! TF.CreationDate,2020-10-16T21:04:19+02:00*
G04 #@! TF.ProjectId,PCB,5043422e-6b69-4636-9164-5f7063625858,rev?*
G04 #@! TF.SameCoordinates,Original*
G04 #@! TF.FileFunction,Paste,Top*
G04 #@! TF.FilePolarity,Positive*
%FSLAX46Y46*%
G04 Gerber Fmt 4.6, Leading zero omitted, Abs format (unit mm)*
G04 Created by KiCad (PCBNEW 5.1.6+dfsg1-1~bpo10+1) date 2020-10-16 21:04:19*
%MOMM*%
%LPD*%
G01*
G04 APERTURE LIST*
%ADD10R,0.900000X0.800000*%
%ADD11R,1.700000X2.000000*%
%ADD12R,2.000000X0.500000*%
%ADD13R,1.060000X0.650000*%
%ADD14R,0.650000X1.060000*%
G04 APERTURE END LIST*
G36*
G01*
X84650000Y-98500000D02*
X85750000Y-98500000D01*
G75*
G02*
X86000000Y-98750000I0J-250000D01*
G01*
X86000000Y-101250000D01*
G75*
G02*
X85750000Y-101500000I-250000J0D01*
G01*
X84650000Y-101500000D01*
G75*
G02*
X84400000Y-101250000I0J250000D01*
G01*
X84400000Y-98750000D01*
G75*
G02*
X84650000Y-98500000I250000J0D01*
G01*
G37*
G36*
G01*
X84650000Y-94100000D02*
X85750000Y-94100000D01*
G75*
G02*
X86000000Y-94350000I0J-250000D01*
G01*
X86000000Y-96850000D01*
G75*
G02*
X85750000Y-97100000I-250000J0D01*
G01*
X84650000Y-97100000D01*
G75*
G02*
X84400000Y-96850000I0J250000D01*
G01*
X84400000Y-94350000D01*
G75*
G02*
X84650000Y-94100000I250000J0D01*
G01*
G37*
G36*
G01*
X90550000Y-98500000D02*
X91650000Y-98500000D01*
G75*
G02*
X91900000Y-98750000I0J-250000D01*
G01*
X91900000Y-101250000D01*
G75*
G02*
X91650000Y-101500000I-250000J0D01*
G01*
X90550000Y-101500000D01*
G75*
G02*
X90300000Y-101250000I0J250000D01*
G01*
X90300000Y-98750000D01*
G75*
G02*
X90550000Y-98500000I250000J0D01*
G01*
G37*
G36*
G01*
X90550000Y-94100000D02*
X91650000Y-94100000D01*
G75*
G02*
X91900000Y-94350000I0J-250000D01*
G01*
X91900000Y-96850000D01*
G75*
G02*
X91650000Y-97100000I-250000J0D01*
G01*
X90550000Y-97100000D01*
G75*
G02*
X90300000Y-96850000I0J250000D01*
G01*
X90300000Y-94350000D01*
G75*
G02*
X90550000Y-94100000I250000J0D01*
G01*
G37*
G36*
G01*
X78443750Y-84550000D02*
X78956250Y-84550000D01*
G75*
G02*
X79175000Y-84768750I0J-218750D01*
G01*
X79175000Y-85206250D01*
G75*
G02*
X78956250Y-85425000I-218750J0D01*
G01*
X78443750Y-85425000D01*
G75*
G02*
X78225000Y-85206250I0J218750D01*
G01*
X78225000Y-84768750D01*
G75*
G02*
X78443750Y-84550000I218750J0D01*
G01*
G37*
G36*
G01*
X78443750Y-82975000D02*
X78956250Y-82975000D01*
G75*
G02*
X79175000Y-83193750I0J-218750D01*
G01*
X79175000Y-83631250D01*
G75*
G02*
X78956250Y-83850000I-218750J0D01*
G01*
X78443750Y-83850000D01*
G75*
G02*
X78225000Y-83631250I0J218750D01*
G01*
X78225000Y-83193750D01*
G75*
G02*
X78443750Y-82975000I218750J0D01*
G01*
G37*
G36*
G01*
X81443750Y-84550000D02*
X81956250Y-84550000D01*
G75*
G02*
X82175000Y-84768750I0J-218750D01*
G01*
X82175000Y-85206250D01*
G75*
G02*
X81956250Y-85425000I-218750J0D01*
G01*
X81443750Y-85425000D01*
G75*
G02*
X81225000Y-85206250I0J218750D01*
G01*
X81225000Y-84768750D01*
G75*
G02*
X81443750Y-84550000I218750J0D01*
G01*
G37*
G36*
G01*
X81443750Y-82975000D02*
X81956250Y-82975000D01*
G75*
G02*
X82175000Y-83193750I0J-218750D01*
G01*
X82175000Y-83631250D01*
G75*
G02*
X81956250Y-83850000I-218750J0D01*
G01*
X81443750Y-83850000D01*
G75*
G02*
X81225000Y-83631250I0J218750D01*
G01*
X81225000Y-83193750D01*
G75*
G02*
X81443750Y-82975000I218750J0D01*
G01*
G37*
G36*
G01*
X82825000Y-86975000D02*
X82825000Y-86775000D01*
G75*
G02*
X82925000Y-86675000I100000J0D01*
G01*
X84200000Y-86675000D01*
G75*
G02*
X84300000Y-86775000I0J-100000D01*
G01*
X84300000Y-86975000D01*
G75*
G02*
X84200000Y-87075000I-100000J0D01*
G01*
X82925000Y-87075000D01*
G75*
G02*
X82825000Y-86975000I0J100000D01*
G01*
G37*
G36*
G01*
X82825000Y-87625000D02*
X82825000Y-87425000D01*
G75*
G02*
X82925000Y-87325000I100000J0D01*
G01*
X84200000Y-87325000D01*
G75*
G02*
X84300000Y-87425000I0J-100000D01*
G01*
X84300000Y-87625000D01*
G75*
G02*
X84200000Y-87725000I-100000J0D01*
G01*
X82925000Y-87725000D01*
G75*
G02*
X82825000Y-87625000I0J100000D01*
G01*
G37*
G36*
G01*
X82825000Y-88275000D02*
X82825000Y-88075000D01*
G75*
G02*
X82925000Y-87975000I100000J0D01*
G01*
X84200000Y-87975000D01*
G75*
G02*
X84300000Y-88075000I0J-100000D01*
G01*
X84300000Y-88275000D01*
G75*
G02*
X84200000Y-88375000I-100000J0D01*
G01*
X82925000Y-88375000D01*
G75*
G02*
X82825000Y-88275000I0J100000D01*
G01*
G37*
G36*
G01*
X82825000Y-88925000D02*
X82825000Y-88725000D01*
G75*
G02*
X82925000Y-88625000I100000J0D01*
G01*
X84200000Y-88625000D01*
G75*
G02*
X84300000Y-88725000I0J-100000D01*
G01*
X84300000Y-88925000D01*
G75*
G02*
X84200000Y-89025000I-100000J0D01*
G01*
X82925000Y-89025000D01*
G75*
G02*
X82825000Y-88925000I0J100000D01*
G01*
G37*
G36*
G01*
X82825000Y-89575000D02*
X82825000Y-89375000D01*
G75*
G02*
X82925000Y-89275000I100000J0D01*
G01*
X84200000Y-89275000D01*
G75*
G02*
X84300000Y-89375000I0J-100000D01*
G01*
X84300000Y-89575000D01*
G75*
G02*
X84200000Y-89675000I-100000J0D01*
G01*
X82925000Y-89675000D01*
G75*
G02*
X82825000Y-89575000I0J100000D01*
G01*
G37*
G36*
G01*
X82825000Y-90225000D02*
X82825000Y-90025000D01*
G75*
G02*
X82925000Y-89925000I100000J0D01*
G01*
X84200000Y-89925000D01*
G75*
G02*
X84300000Y-90025000I0J-100000D01*
G01*
X84300000Y-90225000D01*
G75*
G02*
X84200000Y-90325000I-100000J0D01*
G01*
X82925000Y-90325000D01*
G75*
G02*
X82825000Y-90225000I0J100000D01*
G01*
G37*
G36*
G01*
X82825000Y-90875000D02*
X82825000Y-90675000D01*
G75*
G02*
X82925000Y-90575000I100000J0D01*
G01*
X84200000Y-90575000D01*
G75*
G02*
X84300000Y-90675000I0J-100000D01*
G01*
X84300000Y-90875000D01*
G75*
G02*
X84200000Y-90975000I-100000J0D01*
G01*
X82925000Y-90975000D01*
G75*
G02*
X82825000Y-90875000I0J100000D01*
G01*
G37*
G36*
G01*
X82825000Y-91525000D02*
X82825000Y-91325000D01*
G75*
G02*
X82925000Y-91225000I100000J0D01*
G01*
X84200000Y-91225000D01*
G75*
G02*
X84300000Y-91325000I0J-100000D01*
G01*
X84300000Y-91525000D01*
G75*
G02*
X84200000Y-91625000I-100000J0D01*
G01*
X82925000Y-91625000D01*
G75*
G02*
X82825000Y-91525000I0J100000D01*
G01*
G37*
G36*
G01*
X82825000Y-92175000D02*
X82825000Y-91975000D01*
G75*
G02*
X82925000Y-91875000I100000J0D01*
G01*
X84200000Y-91875000D01*
G75*
G02*
X84300000Y-91975000I0J-100000D01*
G01*
X84300000Y-92175000D01*
G75*
G02*
X84200000Y-92275000I-100000J0D01*
G01*
X82925000Y-92275000D01*
G75*
G02*
X82825000Y-92175000I0J100000D01*
G01*
G37*
G36*
G01*
X82825000Y-92825000D02*
X82825000Y-92625000D01*
G75*
G02*
X82925000Y-92525000I100000J0D01*
G01*
X84200000Y-92525000D01*
G75*
G02*
X84300000Y-92625000I0J-100000D01*
G01*
X84300000Y-92825000D01*
G75*
G02*
X84200000Y-92925000I-100000J0D01*
G01*
X82925000Y-92925000D01*
G75*
G02*
X82825000Y-92825000I0J100000D01*
G01*
G37*
G36*
G01*
X77100000Y-92825000D02*
X77100000Y-92625000D01*
G75*
G02*
X77200000Y-92525000I100000J0D01*
G01*
X78475000Y-92525000D01*
G75*
G02*
X78575000Y-92625000I0J-100000D01*
G01*
X78575000Y-92825000D01*
G75*
G02*
X78475000Y-92925000I-100000J0D01*
G01*
X77200000Y-92925000D01*
G75*
G02*
X77100000Y-92825000I0J100000D01*
G01*
G37*
G36*
G01*
X77100000Y-92175000D02*
X77100000Y-91975000D01*
G75*
G02*
X77200000Y-91875000I100000J0D01*
G01*
X78475000Y-91875000D01*
G75*
G02*
X78575000Y-91975000I0J-100000D01*
G01*
X78575000Y-92175000D01*
G75*
G02*
X78475000Y-92275000I-100000J0D01*
G01*
X77200000Y-92275000D01*
G75*
G02*
X77100000Y-92175000I0J100000D01*
G01*
G37*
G36*
G01*
X77100000Y-91525000D02*
X77100000Y-91325000D01*
G75*
G02*
X77200000Y-91225000I100000J0D01*
G01*
X78475000Y-91225000D01*
G75*
G02*
X78575000Y-91325000I0J-100000D01*
G01*
X78575000Y-91525000D01*
G75*
G02*
X78475000Y-91625000I-100000J0D01*
G01*
X77200000Y-91625000D01*
G75*
G02*
X77100000Y-91525000I0J100000D01*
G01*
G37*
G36*
G01*
X77100000Y-90875000D02*
X77100000Y-90675000D01*
G75*
G02*
X77200000Y-90575000I100000J0D01*
G01*
X78475000Y-90575000D01*
G75*
G02*
X78575000Y-90675000I0J-100000D01*
G01*
X78575000Y-90875000D01*
G75*
G02*
X78475000Y-90975000I-100000J0D01*
G01*
X77200000Y-90975000D01*
G75*
G02*
X77100000Y-90875000I0J100000D01*
G01*
G37*
G36*
G01*
X77100000Y-90225000D02*
X77100000Y-90025000D01*
G75*
G02*
X77200000Y-89925000I100000J0D01*
G01*
X78475000Y-89925000D01*
G75*
G02*
X78575000Y-90025000I0J-100000D01*
G01*
X78575000Y-90225000D01*
G75*
G02*
X78475000Y-90325000I-100000J0D01*
G01*
X77200000Y-90325000D01*
G75*
G02*
X77100000Y-90225000I0J100000D01*
G01*
G37*
G36*
G01*
X77100000Y-89575000D02*
X77100000Y-89375000D01*
G75*
G02*
X77200000Y-89275000I100000J0D01*
G01*
X78475000Y-89275000D01*
G75*
G02*
X78575000Y-89375000I0J-100000D01*
G01*
X78575000Y-89575000D01*
G75*
G02*
X78475000Y-89675000I-100000J0D01*
G01*
X77200000Y-89675000D01*
G75*
G02*
X77100000Y-89575000I0J100000D01*
G01*
G37*
G36*
G01*
X77100000Y-88925000D02*
X77100000Y-88725000D01*
G75*
G02*
X77200000Y-88625000I100000J0D01*
G01*
X78475000Y-88625000D01*
G75*
G02*
X78575000Y-88725000I0J-100000D01*
G01*
X78575000Y-88925000D01*
G75*
G02*
X78475000Y-89025000I-100000J0D01*
G01*
X77200000Y-89025000D01*
G75*
G02*
X77100000Y-88925000I0J100000D01*
G01*
G37*
G36*
G01*
X77100000Y-88275000D02*
X77100000Y-88075000D01*
G75*
G02*
X77200000Y-87975000I100000J0D01*
G01*
X78475000Y-87975000D01*
G75*
G02*
X78575000Y-88075000I0J-100000D01*
G01*
X78575000Y-88275000D01*
G75*
G02*
X78475000Y-88375000I-100000J0D01*
G01*
X77200000Y-88375000D01*
G75*
G02*
X77100000Y-88275000I0J100000D01*
G01*
G37*
G36*
G01*
X77100000Y-87625000D02*
X77100000Y-87425000D01*
G75*
G02*
X77200000Y-87325000I100000J0D01*
G01*
X78475000Y-87325000D01*
G75*
G02*
X78575000Y-87425000I0J-100000D01*
G01*
X78575000Y-87625000D01*
G75*
G02*
X78475000Y-87725000I-100000J0D01*
G01*
X77200000Y-87725000D01*
G75*
G02*
X77100000Y-87625000I0J100000D01*
G01*
G37*
G36*
G01*
X77100000Y-86975000D02*
X77100000Y-86775000D01*
G75*
G02*
X77200000Y-86675000I100000J0D01*
G01*
X78475000Y-86675000D01*
G75*
G02*
X78575000Y-86775000I0J-100000D01*
G01*
X78575000Y-86975000D01*
G75*
G02*
X78475000Y-87075000I-100000J0D01*
G01*
X77200000Y-87075000D01*
G75*
G02*
X77100000Y-86975000I0J100000D01*
G01*
G37*
D10*
X77500000Y-95400000D03*
X79500000Y-94450000D03*
X79500000Y-96350000D03*
G36*
G01*
X82943750Y-84550000D02*
X83456250Y-84550000D01*
G75*
G02*
X83675000Y-84768750I0J-218750D01*
G01*
X83675000Y-85206250D01*
G75*
G02*
X83456250Y-85425000I-218750J0D01*
G01*
X82943750Y-85425000D01*
G75*
G02*
X82725000Y-85206250I0J218750D01*
G01*
X82725000Y-84768750D01*
G75*
G02*
X82943750Y-84550000I218750J0D01*
G01*
G37*
G36*
G01*
X82943750Y-82975000D02*
X83456250Y-82975000D01*
G75*
G02*
X83675000Y-83193750I0J-218750D01*
G01*
X83675000Y-83631250D01*
G75*
G02*
X83456250Y-83850000I-218750J0D01*
G01*
X82943750Y-83850000D01*
G75*
G02*
X82725000Y-83631250I0J218750D01*
G01*
X82725000Y-83193750D01*
G75*
G02*
X82943750Y-82975000I218750J0D01*
G01*
G37*
G36*
G01*
X75443750Y-100050000D02*
X75956250Y-100050000D01*
G75*
G02*
X76175000Y-100268750I0J-218750D01*
G01*
X76175000Y-100706250D01*
G75*
G02*
X75956250Y-100925000I-218750J0D01*
G01*
X75443750Y-100925000D01*
G75*
G02*
X75225000Y-100706250I0J218750D01*
G01*
X75225000Y-100268750D01*
G75*
G02*
X75443750Y-100050000I218750J0D01*
G01*
G37*
G36*
G01*
X75443750Y-98475000D02*
X75956250Y-98475000D01*
G75*
G02*
X76175000Y-98693750I0J-218750D01*
G01*
X76175000Y-99131250D01*
G75*
G02*
X75956250Y-99350000I-218750J0D01*
G01*
X75443750Y-99350000D01*
G75*
G02*
X75225000Y-99131250I0J218750D01*
G01*
X75225000Y-98693750D01*
G75*
G02*
X75443750Y-98475000I218750J0D01*
G01*
G37*
G36*
G01*
X77456250Y-83850000D02*
X76943750Y-83850000D01*
G75*
G02*
X76725000Y-83631250I0J218750D01*
G01*
X76725000Y-83193750D01*
G75*
G02*
X76943750Y-82975000I218750J0D01*
G01*
X77456250Y-82975000D01*
G75*
G02*
X77675000Y-83193750I0J-218750D01*
G01*
X77675000Y-83631250D01*
G75*
G02*
X77456250Y-83850000I-218750J0D01*
G01*
G37*
G36*
G01*
X77456250Y-85425000D02*
X76943750Y-85425000D01*
G75*
G02*
X76725000Y-85206250I0J218750D01*
G01*
X76725000Y-84768750D01*
G75*
G02*
X76943750Y-84550000I218750J0D01*
G01*
X77456250Y-84550000D01*
G75*
G02*
X77675000Y-84768750I0J-218750D01*
G01*
X77675000Y-85206250D01*
G75*
G02*
X77456250Y-85425000I-218750J0D01*
G01*
G37*
G36*
G01*
X80456250Y-83850000D02*
X79943750Y-83850000D01*
G75*
G02*
X79725000Y-83631250I0J218750D01*
G01*
X79725000Y-83193750D01*
G75*
G02*
X79943750Y-82975000I218750J0D01*
G01*
X80456250Y-82975000D01*
G75*
G02*
X80675000Y-83193750I0J-218750D01*
G01*
X80675000Y-83631250D01*
G75*
G02*
X80456250Y-83850000I-218750J0D01*
G01*
G37*
G36*
G01*
X80456250Y-85425000D02*
X79943750Y-85425000D01*
G75*
G02*
X79725000Y-85206250I0J218750D01*
G01*
X79725000Y-84768750D01*
G75*
G02*
X79943750Y-84550000I218750J0D01*
G01*
X80456250Y-84550000D01*
G75*
G02*
X80675000Y-84768750I0J-218750D01*
G01*
X80675000Y-85206250D01*
G75*
G02*
X80456250Y-85425000I-218750J0D01*
G01*
G37*
G36*
G01*
X80943750Y-95650000D02*
X81456250Y-95650000D01*
G75*
G02*
X81675000Y-95868750I0J-218750D01*
G01*
X81675000Y-96306250D01*
G75*
G02*
X81456250Y-96525000I-218750J0D01*
G01*
X80943750Y-96525000D01*
G75*
G02*
X80725000Y-96306250I0J218750D01*
G01*
X80725000Y-95868750D01*
G75*
G02*
X80943750Y-95650000I218750J0D01*
G01*
G37*
G36*
G01*
X80943750Y-94075000D02*
X81456250Y-94075000D01*
G75*
G02*
X81675000Y-94293750I0J-218750D01*
G01*
X81675000Y-94731250D01*
G75*
G02*
X81456250Y-94950000I-218750J0D01*
G01*
X80943750Y-94950000D01*
G75*
G02*
X80725000Y-94731250I0J218750D01*
G01*
X80725000Y-94293750D01*
G75*
G02*
X80943750Y-94075000I218750J0D01*
G01*
G37*
G36*
G01*
X76356250Y-87450000D02*
X75843750Y-87450000D01*
G75*
G02*
X75625000Y-87231250I0J218750D01*
G01*
X75625000Y-86793750D01*
G75*
G02*
X75843750Y-86575000I218750J0D01*
G01*
X76356250Y-86575000D01*
G75*
G02*
X76575000Y-86793750I0J-218750D01*
G01*
X76575000Y-87231250D01*
G75*
G02*
X76356250Y-87450000I-218750J0D01*
G01*
G37*
G36*
G01*
X76356250Y-89025000D02*
X75843750Y-89025000D01*
G75*
G02*
X75625000Y-88806250I0J218750D01*
G01*
X75625000Y-88368750D01*
G75*
G02*
X75843750Y-88150000I218750J0D01*
G01*
X76356250Y-88150000D01*
G75*
G02*
X76575000Y-88368750I0J-218750D01*
G01*
X76575000Y-88806250D01*
G75*
G02*
X76356250Y-89025000I-218750J0D01*
G01*
G37*
G36*
G01*
X86750000Y-89756250D02*
X86750000Y-89243750D01*
G75*
G02*
X86968750Y-89025000I218750J0D01*
G01*
X87406250Y-89025000D01*
G75*
G02*
X87625000Y-89243750I0J-218750D01*
G01*
X87625000Y-89756250D01*
G75*
G02*
X87406250Y-89975000I-218750J0D01*
G01*
X86968750Y-89975000D01*
G75*
G02*
X86750000Y-89756250I0J218750D01*
G01*
G37*
G36*
G01*
X85175000Y-89756250D02*
X85175000Y-89243750D01*
G75*
G02*
X85393750Y-89025000I218750J0D01*
G01*
X85831250Y-89025000D01*
G75*
G02*
X86050000Y-89243750I0J-218750D01*
G01*
X86050000Y-89756250D01*
G75*
G02*
X85831250Y-89975000I-218750J0D01*
G01*
X85393750Y-89975000D01*
G75*
G02*
X85175000Y-89756250I0J218750D01*
G01*
G37*
G36*
G01*
X75443750Y-95650000D02*
X75956250Y-95650000D01*
G75*
G02*
X76175000Y-95868750I0J-218750D01*
G01*
X76175000Y-96306250D01*
G75*
G02*
X75956250Y-96525000I-218750J0D01*
G01*
X75443750Y-96525000D01*
G75*
G02*
X75225000Y-96306250I0J218750D01*
G01*
X75225000Y-95868750D01*
G75*
G02*
X75443750Y-95650000I218750J0D01*
G01*
G37*
G36*
G01*
X75443750Y-94075000D02*
X75956250Y-94075000D01*
G75*
G02*
X76175000Y-94293750I0J-218750D01*
G01*
X76175000Y-94731250D01*
G75*
G02*
X75956250Y-94950000I-218750J0D01*
G01*
X75443750Y-94950000D01*
G75*
G02*
X75225000Y-94731250I0J218750D01*
G01*
X75225000Y-94293750D01*
G75*
G02*
X75443750Y-94075000I218750J0D01*
G01*
G37*
G36*
G01*
X65456250Y-84550000D02*
X64943750Y-84550000D01*
G75*
G02*
X64725000Y-84331250I0J218750D01*
G01*
X64725000Y-83893750D01*
G75*
G02*
X64943750Y-83675000I218750J0D01*
G01*
X65456250Y-83675000D01*
G75*
G02*
X65675000Y-83893750I0J-218750D01*
G01*
X65675000Y-84331250D01*
G75*
G02*
X65456250Y-84550000I-218750J0D01*
G01*
G37*
G36*
G01*
X65456250Y-86125000D02*
X64943750Y-86125000D01*
G75*
G02*
X64725000Y-85906250I0J218750D01*
G01*
X64725000Y-85468750D01*
G75*
G02*
X64943750Y-85250000I218750J0D01*
G01*
X65456250Y-85250000D01*
G75*
G02*
X65675000Y-85468750I0J-218750D01*
G01*
X65675000Y-85906250D01*
G75*
G02*
X65456250Y-86125000I-218750J0D01*
G01*
G37*
G36*
G01*
X57250000Y-95343750D02*
X57250000Y-95856250D01*
G75*
G02*
X57031250Y-96075000I-218750J0D01*
G01*
X56593750Y-96075000D01*
G75*
G02*
X56375000Y-95856250I0J218750D01*
G01*
X56375000Y-95343750D01*
G75*
G02*
X56593750Y-95125000I218750J0D01*
G01*
X57031250Y-95125000D01*
G75*
G02*
X57250000Y-95343750I0J-218750D01*
G01*
G37*
G36*
G01*
X58825000Y-95343750D02*
X58825000Y-95856250D01*
G75*
G02*
X58606250Y-96075000I-218750J0D01*
G01*
X58168750Y-96075000D01*
G75*
G02*
X57950000Y-95856250I0J218750D01*
G01*
X57950000Y-95343750D01*
G75*
G02*
X58168750Y-95125000I218750J0D01*
G01*
X58606250Y-95125000D01*
G75*
G02*
X58825000Y-95343750I0J-218750D01*
G01*
G37*
G36*
G01*
X63243750Y-95950000D02*
X63756250Y-95950000D01*
G75*
G02*
X63975000Y-96168750I0J-218750D01*
G01*
X63975000Y-96606250D01*
G75*
G02*
X63756250Y-96825000I-218750J0D01*
G01*
X63243750Y-96825000D01*
G75*
G02*
X63025000Y-96606250I0J218750D01*
G01*
X63025000Y-96168750D01*
G75*
G02*
X63243750Y-95950000I218750J0D01*
G01*
G37*
G36*
G01*
X63243750Y-94375000D02*
X63756250Y-94375000D01*
G75*
G02*
X63975000Y-94593750I0J-218750D01*
G01*
X63975000Y-95031250D01*
G75*
G02*
X63756250Y-95250000I-218750J0D01*
G01*
X63243750Y-95250000D01*
G75*
G02*
X63025000Y-95031250I0J218750D01*
G01*
X63025000Y-94593750D01*
G75*
G02*
X63243750Y-94375000I218750J0D01*
G01*
G37*
G36*
G01*
X61643750Y-100550000D02*
X62156250Y-100550000D01*
G75*
G02*
X62375000Y-100768750I0J-218750D01*
G01*
X62375000Y-101206250D01*
G75*
G02*
X62156250Y-101425000I-218750J0D01*
G01*
X61643750Y-101425000D01*
G75*
G02*
X61425000Y-101206250I0J218750D01*
G01*
X61425000Y-100768750D01*
G75*
G02*
X61643750Y-100550000I218750J0D01*
G01*
G37*
G36*
G01*
X61643750Y-98975000D02*
X62156250Y-98975000D01*
G75*
G02*
X62375000Y-99193750I0J-218750D01*
G01*
X62375000Y-99631250D01*
G75*
G02*
X62156250Y-99850000I-218750J0D01*
G01*
X61643750Y-99850000D01*
G75*
G02*
X61425000Y-99631250I0J218750D01*
G01*
X61425000Y-99193750D01*
G75*
G02*
X61643750Y-98975000I218750J0D01*
G01*
G37*
G36*
G01*
X59743750Y-100550000D02*
X60256250Y-100550000D01*
G75*
G02*
X60475000Y-100768750I0J-218750D01*
G01*
X60475000Y-101206250D01*
G75*
G02*
X60256250Y-101425000I-218750J0D01*
G01*
X59743750Y-101425000D01*
G75*
G02*
X59525000Y-101206250I0J218750D01*
G01*
X59525000Y-100768750D01*
G75*
G02*
X59743750Y-100550000I218750J0D01*
G01*
G37*
G36*
G01*
X59743750Y-98975000D02*
X60256250Y-98975000D01*
G75*
G02*
X60475000Y-99193750I0J-218750D01*
G01*
X60475000Y-99631250D01*
G75*
G02*
X60256250Y-99850000I-218750J0D01*
G01*
X59743750Y-99850000D01*
G75*
G02*
X59525000Y-99631250I0J218750D01*
G01*
X59525000Y-99193750D01*
G75*
G02*
X59743750Y-98975000I218750J0D01*
G01*
G37*
G36*
G01*
X63756250Y-98250000D02*
X63243750Y-98250000D01*
G75*
G02*
X63025000Y-98031250I0J218750D01*
G01*
X63025000Y-97593750D01*
G75*
G02*
X63243750Y-97375000I218750J0D01*
G01*
X63756250Y-97375000D01*
G75*
G02*
X63975000Y-97593750I0J-218750D01*
G01*
X63975000Y-98031250D01*
G75*
G02*
X63756250Y-98250000I-218750J0D01*
G01*
G37*
G36*
G01*
X63756250Y-99825000D02*
X63243750Y-99825000D01*
G75*
G02*
X63025000Y-99606250I0J218750D01*
G01*
X63025000Y-99168750D01*
G75*
G02*
X63243750Y-98950000I218750J0D01*
G01*
X63756250Y-98950000D01*
G75*
G02*
X63975000Y-99168750I0J-218750D01*
G01*
X63975000Y-99606250D01*
G75*
G02*
X63756250Y-99825000I-218750J0D01*
G01*
G37*
D11*
X101550000Y-89650000D03*
X96100000Y-89650000D03*
X101550000Y-98550000D03*
X96100000Y-98550000D03*
D12*
X96000000Y-92500000D03*
X96000000Y-93300000D03*
X96000000Y-94100000D03*
X96000000Y-94900000D03*
X96000000Y-95700000D03*
G36*
G01*
X57425000Y-98725000D02*
X56175000Y-98725000D01*
G75*
G02*
X55925000Y-98475000I0J250000D01*
G01*
X55925000Y-97725000D01*
G75*
G02*
X56175000Y-97475000I250000J0D01*
G01*
X57425000Y-97475000D01*
G75*
G02*
X57675000Y-97725000I0J-250000D01*
G01*
X57675000Y-98475000D01*
G75*
G02*
X57425000Y-98725000I-250000J0D01*
G01*
G37*
G36*
G01*
X57425000Y-101525000D02*
X56175000Y-101525000D01*
G75*
G02*
X55925000Y-101275000I0J250000D01*
G01*
X55925000Y-100525000D01*
G75*
G02*
X56175000Y-100275000I250000J0D01*
G01*
X57425000Y-100275000D01*
G75*
G02*
X57675000Y-100525000I0J-250000D01*
G01*
X57675000Y-101275000D01*
G75*
G02*
X57425000Y-101525000I-250000J0D01*
G01*
G37*
D13*
X79600000Y-98850000D03*
X79600000Y-100750000D03*
X77400000Y-100750000D03*
X77400000Y-99800000D03*
X77400000Y-98850000D03*
D14*
X59950000Y-95600000D03*
X61850000Y-95600000D03*
X61850000Y-97800000D03*
X60900000Y-97800000D03*
X59950000Y-97800000D03*
G36*
G01*
X57950000Y-81556250D02*
X57950000Y-81043750D01*
G75*
G02*
X58168750Y-80825000I218750J0D01*
G01*
X58606250Y-80825000D01*
G75*
G02*
X58825000Y-81043750I0J-218750D01*
G01*
X58825000Y-81556250D01*
G75*
G02*
X58606250Y-81775000I-218750J0D01*
G01*
X58168750Y-81775000D01*
G75*
G02*
X57950000Y-81556250I0J218750D01*
G01*
G37*
G36*
G01*
X56375000Y-81556250D02*
X56375000Y-81043750D01*
G75*
G02*
X56593750Y-80825000I218750J0D01*
G01*
X57031250Y-80825000D01*
G75*
G02*
X57250000Y-81043750I0J-218750D01*
G01*
X57250000Y-81556250D01*
G75*
G02*
X57031250Y-81775000I-218750J0D01*
G01*
X56593750Y-81775000D01*
G75*
G02*
X56375000Y-81556250I0J218750D01*
G01*
G37*
G36*
G01*
X60495000Y-77925000D02*
X60795000Y-77925000D01*
G75*
G02*
X60945000Y-78075000I0J-150000D01*
G01*
X60945000Y-79825000D01*
G75*
G02*
X60795000Y-79975000I-150000J0D01*
G01*
X60495000Y-79975000D01*
G75*
G02*
X60345000Y-79825000I0J150000D01*
G01*
X60345000Y-78075000D01*
G75*
G02*
X60495000Y-77925000I150000J0D01*
G01*
G37*
G36*
G01*
X59225000Y-77925000D02*
X59525000Y-77925000D01*
G75*
G02*
X59675000Y-78075000I0J-150000D01*
G01*
X59675000Y-79825000D01*
G75*
G02*
X59525000Y-79975000I-150000J0D01*
G01*
X59225000Y-79975000D01*
G75*
G02*
X59075000Y-79825000I0J150000D01*
G01*
X59075000Y-78075000D01*
G75*
G02*
X59225000Y-77925000I150000J0D01*
G01*
G37*
G36*
G01*
X57955000Y-77925000D02*
X58255000Y-77925000D01*
G75*
G02*
X58405000Y-78075000I0J-150000D01*
G01*
X58405000Y-79825000D01*
G75*
G02*
X58255000Y-79975000I-150000J0D01*
G01*
X57955000Y-79975000D01*
G75*
G02*
X57805000Y-79825000I0J150000D01*
G01*
X57805000Y-78075000D01*
G75*
G02*
X57955000Y-77925000I150000J0D01*
G01*
G37*
G36*
G01*
X56685000Y-77925000D02*
X56985000Y-77925000D01*
G75*
G02*
X57135000Y-78075000I0J-150000D01*
G01*
X57135000Y-79825000D01*
G75*
G02*
X56985000Y-79975000I-150000J0D01*
G01*
X56685000Y-79975000D01*
G75*
G02*
X56535000Y-79825000I0J150000D01*
G01*
X56535000Y-78075000D01*
G75*
G02*
X56685000Y-77925000I150000J0D01*
G01*
G37*
G36*
G01*
X55415000Y-77925000D02*
X55715000Y-77925000D01*
G75*
G02*
X55865000Y-78075000I0J-150000D01*
G01*
X55865000Y-79825000D01*
G75*
G02*
X55715000Y-79975000I-150000J0D01*
G01*
X55415000Y-79975000D01*
G75*
G02*
X55265000Y-79825000I0J150000D01*
G01*
X55265000Y-78075000D01*
G75*
G02*
X55415000Y-77925000I150000J0D01*
G01*
G37*
G36*
G01*
X54145000Y-77925000D02*
X54445000Y-77925000D01*
G75*
G02*
X54595000Y-78075000I0J-150000D01*
G01*
X54595000Y-79825000D01*
G75*
G02*
X54445000Y-79975000I-150000J0D01*
G01*
X54145000Y-79975000D01*
G75*
G02*
X53995000Y-79825000I0J150000D01*
G01*
X53995000Y-78075000D01*
G75*
G02*
X54145000Y-77925000I150000J0D01*
G01*
G37*
G36*
G01*
X52875000Y-77925000D02*
X53175000Y-77925000D01*
G75*
G02*
X53325000Y-78075000I0J-150000D01*
G01*
X53325000Y-79825000D01*
G75*
G02*
X53175000Y-79975000I-150000J0D01*
G01*
X52875000Y-79975000D01*
G75*
G02*
X52725000Y-79825000I0J150000D01*
G01*
X52725000Y-78075000D01*
G75*
G02*
X52875000Y-77925000I150000J0D01*
G01*
G37*
G36*
G01*
X51605000Y-77925000D02*
X51905000Y-77925000D01*
G75*
G02*
X52055000Y-78075000I0J-150000D01*
G01*
X52055000Y-79825000D01*
G75*
G02*
X51905000Y-79975000I-150000J0D01*
G01*
X51605000Y-79975000D01*
G75*
G02*
X51455000Y-79825000I0J150000D01*
G01*
X51455000Y-78075000D01*
G75*
G02*
X51605000Y-77925000I150000J0D01*
G01*
G37*
G36*
G01*
X51605000Y-68625000D02*
X51905000Y-68625000D01*
G75*
G02*
X52055000Y-68775000I0J-150000D01*
G01*
X52055000Y-70525000D01*
G75*
G02*
X51905000Y-70675000I-150000J0D01*
G01*
X51605000Y-70675000D01*
G75*
G02*
X51455000Y-70525000I0J150000D01*
G01*
X51455000Y-68775000D01*
G75*
G02*
X51605000Y-68625000I150000J0D01*
G01*
G37*
G36*
G01*
X52875000Y-68625000D02*
X53175000Y-68625000D01*
G75*
G02*
X53325000Y-68775000I0J-150000D01*
G01*
X53325000Y-70525000D01*
G75*
G02*
X53175000Y-70675000I-150000J0D01*
G01*
X52875000Y-70675000D01*
G75*
G02*
X52725000Y-70525000I0J150000D01*
G01*
X52725000Y-68775000D01*
G75*
G02*
X52875000Y-68625000I150000J0D01*
G01*
G37*
G36*
G01*
X54145000Y-68625000D02*
X54445000Y-68625000D01*
G75*
G02*
X54595000Y-68775000I0J-150000D01*
G01*
X54595000Y-70525000D01*
G75*
G02*
X54445000Y-70675000I-150000J0D01*
G01*
X54145000Y-70675000D01*
G75*
G02*
X53995000Y-70525000I0J150000D01*
G01*
X53995000Y-68775000D01*
G75*
G02*
X54145000Y-68625000I150000J0D01*
G01*
G37*
G36*
G01*
X55415000Y-68625000D02*
X55715000Y-68625000D01*
G75*
G02*
X55865000Y-68775000I0J-150000D01*
G01*
X55865000Y-70525000D01*
G75*
G02*
X55715000Y-70675000I-150000J0D01*
G01*
X55415000Y-70675000D01*
G75*
G02*
X55265000Y-70525000I0J150000D01*
G01*
X55265000Y-68775000D01*
G75*
G02*
X55415000Y-68625000I150000J0D01*
G01*
G37*
G36*
G01*
X56685000Y-68625000D02*
X56985000Y-68625000D01*
G75*
G02*
X57135000Y-68775000I0J-150000D01*
G01*
X57135000Y-70525000D01*
G75*
G02*
X56985000Y-70675000I-150000J0D01*
G01*
X56685000Y-70675000D01*
G75*
G02*
X56535000Y-70525000I0J150000D01*
G01*
X56535000Y-68775000D01*
G75*
G02*
X56685000Y-68625000I150000J0D01*
G01*
G37*
G36*
G01*
X57955000Y-68625000D02*
X58255000Y-68625000D01*
G75*
G02*
X58405000Y-68775000I0J-150000D01*
G01*
X58405000Y-70525000D01*
G75*
G02*
X58255000Y-70675000I-150000J0D01*
G01*
X57955000Y-70675000D01*
G75*
G02*
X57805000Y-70525000I0J150000D01*
G01*
X57805000Y-68775000D01*
G75*
G02*
X57955000Y-68625000I150000J0D01*
G01*
G37*
G36*
G01*
X59225000Y-68625000D02*
X59525000Y-68625000D01*
G75*
G02*
X59675000Y-68775000I0J-150000D01*
G01*
X59675000Y-70525000D01*
G75*
G02*
X59525000Y-70675000I-150000J0D01*
G01*
X59225000Y-70675000D01*
G75*
G02*
X59075000Y-70525000I0J150000D01*
G01*
X59075000Y-68775000D01*
G75*
G02*
X59225000Y-68625000I150000J0D01*
G01*
G37*
G36*
G01*
X60495000Y-68625000D02*
X60795000Y-68625000D01*
G75*
G02*
X60945000Y-68775000I0J-150000D01*
G01*
X60945000Y-70525000D01*
G75*
G02*
X60795000Y-70675000I-150000J0D01*
G01*
X60495000Y-70675000D01*
G75*
G02*
X60345000Y-70525000I0J150000D01*
G01*
X60345000Y-68775000D01*
G75*
G02*
X60495000Y-68625000I150000J0D01*
G01*
G37*
G36*
G01*
X38375000Y-81556250D02*
X38375000Y-81043750D01*
G75*
G02*
X38593750Y-80825000I218750J0D01*
G01*
X39031250Y-80825000D01*
G75*
G02*
X39250000Y-81043750I0J-218750D01*
G01*
X39250000Y-81556250D01*
G75*
G02*
X39031250Y-81775000I-218750J0D01*
G01*
X38593750Y-81775000D01*
G75*
G02*
X38375000Y-81556250I0J218750D01*
G01*
G37*
G36*
G01*
X39950000Y-81556250D02*
X39950000Y-81043750D01*
G75*
G02*
X40168750Y-80825000I218750J0D01*
G01*
X40606250Y-80825000D01*
G75*
G02*
X40825000Y-81043750I0J-218750D01*
G01*
X40825000Y-81556250D01*
G75*
G02*
X40606250Y-81775000I-218750J0D01*
G01*
X40168750Y-81775000D01*
G75*
G02*
X39950000Y-81556250I0J218750D01*
G01*
G37*
G36*
G01*
X42495000Y-68625000D02*
X42795000Y-68625000D01*
G75*
G02*
X42945000Y-68775000I0J-150000D01*
G01*
X42945000Y-70525000D01*
G75*
G02*
X42795000Y-70675000I-150000J0D01*
G01*
X42495000Y-70675000D01*
G75*
G02*
X42345000Y-70525000I0J150000D01*
G01*
X42345000Y-68775000D01*
G75*
G02*
X42495000Y-68625000I150000J0D01*
G01*
G37*
G36*
G01*
X41225000Y-68625000D02*
X41525000Y-68625000D01*
G75*
G02*
X41675000Y-68775000I0J-150000D01*
G01*
X41675000Y-70525000D01*
G75*
G02*
X41525000Y-70675000I-150000J0D01*
G01*
X41225000Y-70675000D01*
G75*
G02*
X41075000Y-70525000I0J150000D01*
G01*
X41075000Y-68775000D01*
G75*
G02*
X41225000Y-68625000I150000J0D01*
G01*
G37*
G36*
G01*
X39955000Y-68625000D02*
X40255000Y-68625000D01*
G75*
G02*
X40405000Y-68775000I0J-150000D01*
G01*
X40405000Y-70525000D01*
G75*
G02*
X40255000Y-70675000I-150000J0D01*
G01*
X39955000Y-70675000D01*
G75*
G02*
X39805000Y-70525000I0J150000D01*
G01*
X39805000Y-68775000D01*
G75*
G02*
X39955000Y-68625000I150000J0D01*
G01*
G37*
G36*
G01*
X38685000Y-68625000D02*
X38985000Y-68625000D01*
G75*
G02*
X39135000Y-68775000I0J-150000D01*
G01*
X39135000Y-70525000D01*
G75*
G02*
X38985000Y-70675000I-150000J0D01*
G01*
X38685000Y-70675000D01*
G75*
G02*
X38535000Y-70525000I0J150000D01*
G01*
X38535000Y-68775000D01*
G75*
G02*
X38685000Y-68625000I150000J0D01*
G01*
G37*
G36*
G01*
X37415000Y-68625000D02*
X37715000Y-68625000D01*
G75*
G02*
X37865000Y-68775000I0J-150000D01*
G01*
X37865000Y-70525000D01*
G75*
G02*
X37715000Y-70675000I-150000J0D01*
G01*
X37415000Y-70675000D01*
G75*
G02*
X37265000Y-70525000I0J150000D01*
G01*
X37265000Y-68775000D01*
G75*
G02*
X37415000Y-68625000I150000J0D01*
G01*
G37*
G36*
G01*
X36145000Y-68625000D02*
X36445000Y-68625000D01*
G75*
G02*
X36595000Y-68775000I0J-150000D01*
G01*
X36595000Y-70525000D01*
G75*
G02*
X36445000Y-70675000I-150000J0D01*
G01*
X36145000Y-70675000D01*
G75*
G02*
X35995000Y-70525000I0J150000D01*
G01*
X35995000Y-68775000D01*
G75*
G02*
X36145000Y-68625000I150000J0D01*
G01*
G37*
G36*
G01*
X34875000Y-68625000D02*
X35175000Y-68625000D01*
G75*
G02*
X35325000Y-68775000I0J-150000D01*
G01*
X35325000Y-70525000D01*
G75*
G02*
X35175000Y-70675000I-150000J0D01*
G01*
X34875000Y-70675000D01*
G75*
G02*
X34725000Y-70525000I0J150000D01*
G01*
X34725000Y-68775000D01*
G75*
G02*
X34875000Y-68625000I150000J0D01*
G01*
G37*
G36*
G01*
X33605000Y-68625000D02*
X33905000Y-68625000D01*
G75*
G02*
X34055000Y-68775000I0J-150000D01*
G01*
X34055000Y-70525000D01*
G75*
G02*
X33905000Y-70675000I-150000J0D01*
G01*
X33605000Y-70675000D01*
G75*
G02*
X33455000Y-70525000I0J150000D01*
G01*
X33455000Y-68775000D01*
G75*
G02*
X33605000Y-68625000I150000J0D01*
G01*
G37*
G36*
G01*
X33605000Y-77925000D02*
X33905000Y-77925000D01*
G75*
G02*
X34055000Y-78075000I0J-150000D01*
G01*
X34055000Y-79825000D01*
G75*
G02*
X33905000Y-79975000I-150000J0D01*
G01*
X33605000Y-79975000D01*
G75*
G02*
X33455000Y-79825000I0J150000D01*
G01*
X33455000Y-78075000D01*
G75*
G02*
X33605000Y-77925000I150000J0D01*
G01*
G37*
G36*
G01*
X34875000Y-77925000D02*
X35175000Y-77925000D01*
G75*
G02*
X35325000Y-78075000I0J-150000D01*
G01*
X35325000Y-79825000D01*
G75*
G02*
X35175000Y-79975000I-150000J0D01*
G01*
X34875000Y-79975000D01*
G75*
G02*
X34725000Y-79825000I0J150000D01*
G01*
X34725000Y-78075000D01*
G75*
G02*
X34875000Y-77925000I150000J0D01*
G01*
G37*
G36*
G01*
X36145000Y-77925000D02*
X36445000Y-77925000D01*
G75*
G02*
X36595000Y-78075000I0J-150000D01*
G01*
X36595000Y-79825000D01*
G75*
G02*
X36445000Y-79975000I-150000J0D01*
G01*
X36145000Y-79975000D01*
G75*
G02*
X35995000Y-79825000I0J150000D01*
G01*
X35995000Y-78075000D01*
G75*
G02*
X36145000Y-77925000I150000J0D01*
G01*
G37*
G36*
G01*
X37415000Y-77925000D02*
X37715000Y-77925000D01*
G75*
G02*
X37865000Y-78075000I0J-150000D01*
G01*
X37865000Y-79825000D01*
G75*
G02*
X37715000Y-79975000I-150000J0D01*
G01*
X37415000Y-79975000D01*
G75*
G02*
X37265000Y-79825000I0J150000D01*
G01*
X37265000Y-78075000D01*
G75*
G02*
X37415000Y-77925000I150000J0D01*
G01*
G37*
G36*
G01*
X38685000Y-77925000D02*
X38985000Y-77925000D01*
G75*
G02*
X39135000Y-78075000I0J-150000D01*
G01*
X39135000Y-79825000D01*
G75*
G02*
X38985000Y-79975000I-150000J0D01*
G01*
X38685000Y-79975000D01*
G75*
G02*
X38535000Y-79825000I0J150000D01*
G01*
X38535000Y-78075000D01*
G75*
G02*
X38685000Y-77925000I150000J0D01*
G01*
G37*
G36*
G01*
X39955000Y-77925000D02*
X40255000Y-77925000D01*
G75*
G02*
X40405000Y-78075000I0J-150000D01*
G01*
X40405000Y-79825000D01*
G75*
G02*
X40255000Y-79975000I-150000J0D01*
G01*
X39955000Y-79975000D01*
G75*
G02*
X39805000Y-79825000I0J150000D01*
G01*
X39805000Y-78075000D01*
G75*
G02*
X39955000Y-77925000I150000J0D01*
G01*
G37*
G36*
G01*
X41225000Y-77925000D02*
X41525000Y-77925000D01*
G75*
G02*
X41675000Y-78075000I0J-150000D01*
G01*
X41675000Y-79825000D01*
G75*
G02*
X41525000Y-79975000I-150000J0D01*
G01*
X41225000Y-79975000D01*
G75*
G02*
X41075000Y-79825000I0J150000D01*
G01*
X41075000Y-78075000D01*
G75*
G02*
X41225000Y-77925000I150000J0D01*
G01*
G37*
G36*
G01*
X42495000Y-77925000D02*
X42795000Y-77925000D01*
G75*
G02*
X42945000Y-78075000I0J-150000D01*
G01*
X42945000Y-79825000D01*
G75*
G02*
X42795000Y-79975000I-150000J0D01*
G01*
X42495000Y-79975000D01*
G75*
G02*
X42345000Y-79825000I0J150000D01*
G01*
X42345000Y-78075000D01*
G75*
G02*
X42495000Y-77925000I150000J0D01*
G01*
G37*
G36*
G01*
X54150000Y-81556250D02*
X54150000Y-81043750D01*
G75*
G02*
X54368750Y-80825000I218750J0D01*
G01*
X54806250Y-80825000D01*
G75*
G02*
X55025000Y-81043750I0J-218750D01*
G01*
X55025000Y-81556250D01*
G75*
G02*
X54806250Y-81775000I-218750J0D01*
G01*
X54368750Y-81775000D01*
G75*
G02*
X54150000Y-81556250I0J218750D01*
G01*
G37*
G36*
G01*
X52575000Y-81556250D02*
X52575000Y-81043750D01*
G75*
G02*
X52793750Y-80825000I218750J0D01*
G01*
X53231250Y-80825000D01*
G75*
G02*
X53450000Y-81043750I0J-218750D01*
G01*
X53450000Y-81556250D01*
G75*
G02*
X53231250Y-81775000I-218750J0D01*
G01*
X52793750Y-81775000D01*
G75*
G02*
X52575000Y-81556250I0J218750D01*
G01*
G37*
G36*
G01*
X75950000Y-81556250D02*
X75950000Y-81043750D01*
G75*
G02*
X76168750Y-80825000I218750J0D01*
G01*
X76606250Y-80825000D01*
G75*
G02*
X76825000Y-81043750I0J-218750D01*
G01*
X76825000Y-81556250D01*
G75*
G02*
X76606250Y-81775000I-218750J0D01*
G01*
X76168750Y-81775000D01*
G75*
G02*
X75950000Y-81556250I0J218750D01*
G01*
G37*
G36*
G01*
X74375000Y-81556250D02*
X74375000Y-81043750D01*
G75*
G02*
X74593750Y-80825000I218750J0D01*
G01*
X75031250Y-80825000D01*
G75*
G02*
X75250000Y-81043750I0J-218750D01*
G01*
X75250000Y-81556250D01*
G75*
G02*
X75031250Y-81775000I-218750J0D01*
G01*
X74593750Y-81775000D01*
G75*
G02*
X74375000Y-81556250I0J218750D01*
G01*
G37*
G36*
G01*
X92375000Y-81556250D02*
X92375000Y-81043750D01*
G75*
G02*
X92593750Y-80825000I218750J0D01*
G01*
X93031250Y-80825000D01*
G75*
G02*
X93250000Y-81043750I0J-218750D01*
G01*
X93250000Y-81556250D01*
G75*
G02*
X93031250Y-81775000I-218750J0D01*
G01*
X92593750Y-81775000D01*
G75*
G02*
X92375000Y-81556250I0J218750D01*
G01*
G37*
G36*
G01*
X93950000Y-81556250D02*
X93950000Y-81043750D01*
G75*
G02*
X94168750Y-80825000I218750J0D01*
G01*
X94606250Y-80825000D01*
G75*
G02*
X94825000Y-81043750I0J-218750D01*
G01*
X94825000Y-81556250D01*
G75*
G02*
X94606250Y-81775000I-218750J0D01*
G01*
X94168750Y-81775000D01*
G75*
G02*
X93950000Y-81556250I0J218750D01*
G01*
G37*
G36*
G01*
X88575000Y-81556250D02*
X88575000Y-81043750D01*
G75*
G02*
X88793750Y-80825000I218750J0D01*
G01*
X89231250Y-80825000D01*
G75*
G02*
X89450000Y-81043750I0J-218750D01*
G01*
X89450000Y-81556250D01*
G75*
G02*
X89231250Y-81775000I-218750J0D01*
G01*
X88793750Y-81775000D01*
G75*
G02*
X88575000Y-81556250I0J218750D01*
G01*
G37*
G36*
G01*
X90150000Y-81556250D02*
X90150000Y-81043750D01*
G75*
G02*
X90368750Y-80825000I218750J0D01*
G01*
X90806250Y-80825000D01*
G75*
G02*
X91025000Y-81043750I0J-218750D01*
G01*
X91025000Y-81556250D01*
G75*
G02*
X90806250Y-81775000I-218750J0D01*
G01*
X90368750Y-81775000D01*
G75*
G02*
X90150000Y-81556250I0J218750D01*
G01*
G37*
G36*
G01*
X96495000Y-68625000D02*
X96795000Y-68625000D01*
G75*
G02*
X96945000Y-68775000I0J-150000D01*
G01*
X96945000Y-70525000D01*
G75*
G02*
X96795000Y-70675000I-150000J0D01*
G01*
X96495000Y-70675000D01*
G75*
G02*
X96345000Y-70525000I0J150000D01*
G01*
X96345000Y-68775000D01*
G75*
G02*
X96495000Y-68625000I150000J0D01*
G01*
G37*
G36*
G01*
X95225000Y-68625000D02*
X95525000Y-68625000D01*
G75*
G02*
X95675000Y-68775000I0J-150000D01*
G01*
X95675000Y-70525000D01*
G75*
G02*
X95525000Y-70675000I-150000J0D01*
G01*
X95225000Y-70675000D01*
G75*
G02*
X95075000Y-70525000I0J150000D01*
G01*
X95075000Y-68775000D01*
G75*
G02*
X95225000Y-68625000I150000J0D01*
G01*
G37*
G36*
G01*
X93955000Y-68625000D02*
X94255000Y-68625000D01*
G75*
G02*
X94405000Y-68775000I0J-150000D01*
G01*
X94405000Y-70525000D01*
G75*
G02*
X94255000Y-70675000I-150000J0D01*
G01*
X93955000Y-70675000D01*
G75*
G02*
X93805000Y-70525000I0J150000D01*
G01*
X93805000Y-68775000D01*
G75*
G02*
X93955000Y-68625000I150000J0D01*
G01*
G37*
G36*
G01*
X92685000Y-68625000D02*
X92985000Y-68625000D01*
G75*
G02*
X93135000Y-68775000I0J-150000D01*
G01*
X93135000Y-70525000D01*
G75*
G02*
X92985000Y-70675000I-150000J0D01*
G01*
X92685000Y-70675000D01*
G75*
G02*
X92535000Y-70525000I0J150000D01*
G01*
X92535000Y-68775000D01*
G75*
G02*
X92685000Y-68625000I150000J0D01*
G01*
G37*
G36*
G01*
X91415000Y-68625000D02*
X91715000Y-68625000D01*
G75*
G02*
X91865000Y-68775000I0J-150000D01*
G01*
X91865000Y-70525000D01*
G75*
G02*
X91715000Y-70675000I-150000J0D01*
G01*
X91415000Y-70675000D01*
G75*
G02*
X91265000Y-70525000I0J150000D01*
G01*
X91265000Y-68775000D01*
G75*
G02*
X91415000Y-68625000I150000J0D01*
G01*
G37*
G36*
G01*
X90145000Y-68625000D02*
X90445000Y-68625000D01*
G75*
G02*
X90595000Y-68775000I0J-150000D01*
G01*
X90595000Y-70525000D01*
G75*
G02*
X90445000Y-70675000I-150000J0D01*
G01*
X90145000Y-70675000D01*
G75*
G02*
X89995000Y-70525000I0J150000D01*
G01*
X89995000Y-68775000D01*
G75*
G02*
X90145000Y-68625000I150000J0D01*
G01*
G37*
G36*
G01*
X88875000Y-68625000D02*
X89175000Y-68625000D01*
G75*
G02*
X89325000Y-68775000I0J-150000D01*
G01*
X89325000Y-70525000D01*
G75*
G02*
X89175000Y-70675000I-150000J0D01*
G01*
X88875000Y-70675000D01*
G75*
G02*
X88725000Y-70525000I0J150000D01*
G01*
X88725000Y-68775000D01*
G75*
G02*
X88875000Y-68625000I150000J0D01*
G01*
G37*
G36*
G01*
X87605000Y-68625000D02*
X87905000Y-68625000D01*
G75*
G02*
X88055000Y-68775000I0J-150000D01*
G01*
X88055000Y-70525000D01*
G75*
G02*
X87905000Y-70675000I-150000J0D01*
G01*
X87605000Y-70675000D01*
G75*
G02*
X87455000Y-70525000I0J150000D01*
G01*
X87455000Y-68775000D01*
G75*
G02*
X87605000Y-68625000I150000J0D01*
G01*
G37*
G36*
G01*
X87605000Y-77925000D02*
X87905000Y-77925000D01*
G75*
G02*
X88055000Y-78075000I0J-150000D01*
G01*
X88055000Y-79825000D01*
G75*
G02*
X87905000Y-79975000I-150000J0D01*
G01*
X87605000Y-79975000D01*
G75*
G02*
X87455000Y-79825000I0J150000D01*
G01*
X87455000Y-78075000D01*
G75*
G02*
X87605000Y-77925000I150000J0D01*
G01*
G37*
G36*
G01*
X88875000Y-77925000D02*
X89175000Y-77925000D01*
G75*
G02*
X89325000Y-78075000I0J-150000D01*
G01*
X89325000Y-79825000D01*
G75*
G02*
X89175000Y-79975000I-150000J0D01*
G01*
X88875000Y-79975000D01*
G75*
G02*
X88725000Y-79825000I0J150000D01*
G01*
X88725000Y-78075000D01*
G75*
G02*
X88875000Y-77925000I150000J0D01*
G01*
G37*
G36*
G01*
X90145000Y-77925000D02*
X90445000Y-77925000D01*
G75*
G02*
X90595000Y-78075000I0J-150000D01*
G01*
X90595000Y-79825000D01*
G75*
G02*
X90445000Y-79975000I-150000J0D01*
G01*
X90145000Y-79975000D01*
G75*
G02*
X89995000Y-79825000I0J150000D01*
G01*
X89995000Y-78075000D01*
G75*
G02*
X90145000Y-77925000I150000J0D01*
G01*
G37*
G36*
G01*
X91415000Y-77925000D02*
X91715000Y-77925000D01*
G75*
G02*
X91865000Y-78075000I0J-150000D01*
G01*
X91865000Y-79825000D01*
G75*
G02*
X91715000Y-79975000I-150000J0D01*
G01*
X91415000Y-79975000D01*
G75*
G02*
X91265000Y-79825000I0J150000D01*
G01*
X91265000Y-78075000D01*
G75*
G02*
X91415000Y-77925000I150000J0D01*
G01*
G37*
G36*
G01*
X92685000Y-77925000D02*
X92985000Y-77925000D01*
G75*
G02*
X93135000Y-78075000I0J-150000D01*
G01*
X93135000Y-79825000D01*
G75*
G02*
X92985000Y-79975000I-150000J0D01*
G01*
X92685000Y-79975000D01*
G75*
G02*
X92535000Y-79825000I0J150000D01*
G01*
X92535000Y-78075000D01*
G75*
G02*
X92685000Y-77925000I150000J0D01*
G01*
G37*
G36*
G01*
X93955000Y-77925000D02*
X94255000Y-77925000D01*
G75*
G02*
X94405000Y-78075000I0J-150000D01*
G01*
X94405000Y-79825000D01*
G75*
G02*
X94255000Y-79975000I-150000J0D01*
G01*
X93955000Y-79975000D01*
G75*
G02*
X93805000Y-79825000I0J150000D01*
G01*
X93805000Y-78075000D01*
G75*
G02*
X93955000Y-77925000I150000J0D01*
G01*
G37*
G36*
G01*
X95225000Y-77925000D02*
X95525000Y-77925000D01*
G75*
G02*
X95675000Y-78075000I0J-150000D01*
G01*
X95675000Y-79825000D01*
G75*
G02*
X95525000Y-79975000I-150000J0D01*
G01*
X95225000Y-79975000D01*
G75*
G02*
X95075000Y-79825000I0J150000D01*
G01*
X95075000Y-78075000D01*
G75*
G02*
X95225000Y-77925000I150000J0D01*
G01*
G37*
G36*
G01*
X96495000Y-77925000D02*
X96795000Y-77925000D01*
G75*
G02*
X96945000Y-78075000I0J-150000D01*
G01*
X96945000Y-79825000D01*
G75*
G02*
X96795000Y-79975000I-150000J0D01*
G01*
X96495000Y-79975000D01*
G75*
G02*
X96345000Y-79825000I0J150000D01*
G01*
X96345000Y-78075000D01*
G75*
G02*
X96495000Y-77925000I150000J0D01*
G01*
G37*
G36*
G01*
X72150000Y-81556250D02*
X72150000Y-81043750D01*
G75*
G02*
X72368750Y-80825000I218750J0D01*
G01*
X72806250Y-80825000D01*
G75*
G02*
X73025000Y-81043750I0J-218750D01*
G01*
X73025000Y-81556250D01*
G75*
G02*
X72806250Y-81775000I-218750J0D01*
G01*
X72368750Y-81775000D01*
G75*
G02*
X72150000Y-81556250I0J218750D01*
G01*
G37*
G36*
G01*
X70575000Y-81556250D02*
X70575000Y-81043750D01*
G75*
G02*
X70793750Y-80825000I218750J0D01*
G01*
X71231250Y-80825000D01*
G75*
G02*
X71450000Y-81043750I0J-218750D01*
G01*
X71450000Y-81556250D01*
G75*
G02*
X71231250Y-81775000I-218750J0D01*
G01*
X70793750Y-81775000D01*
G75*
G02*
X70575000Y-81556250I0J218750D01*
G01*
G37*
G36*
G01*
X34575000Y-81556250D02*
X34575000Y-81043750D01*
G75*
G02*
X34793750Y-80825000I218750J0D01*
G01*
X35231250Y-80825000D01*
G75*
G02*
X35450000Y-81043750I0J-218750D01*
G01*
X35450000Y-81556250D01*
G75*
G02*
X35231250Y-81775000I-218750J0D01*
G01*
X34793750Y-81775000D01*
G75*
G02*
X34575000Y-81556250I0J218750D01*
G01*
G37*
G36*
G01*
X36150000Y-81556250D02*
X36150000Y-81043750D01*
G75*
G02*
X36368750Y-80825000I218750J0D01*
G01*
X36806250Y-80825000D01*
G75*
G02*
X37025000Y-81043750I0J-218750D01*
G01*
X37025000Y-81556250D01*
G75*
G02*
X36806250Y-81775000I-218750J0D01*
G01*
X36368750Y-81775000D01*
G75*
G02*
X36150000Y-81556250I0J218750D01*
G01*
G37*
G36*
G01*
X78495000Y-77925000D02*
X78795000Y-77925000D01*
G75*
G02*
X78945000Y-78075000I0J-150000D01*
G01*
X78945000Y-79825000D01*
G75*
G02*
X78795000Y-79975000I-150000J0D01*
G01*
X78495000Y-79975000D01*
G75*
G02*
X78345000Y-79825000I0J150000D01*
G01*
X78345000Y-78075000D01*
G75*
G02*
X78495000Y-77925000I150000J0D01*
G01*
G37*
G36*
G01*
X77225000Y-77925000D02*
X77525000Y-77925000D01*
G75*
G02*
X77675000Y-78075000I0J-150000D01*
G01*
X77675000Y-79825000D01*
G75*
G02*
X77525000Y-79975000I-150000J0D01*
G01*
X77225000Y-79975000D01*
G75*
G02*
X77075000Y-79825000I0J150000D01*
G01*
X77075000Y-78075000D01*
G75*
G02*
X77225000Y-77925000I150000J0D01*
G01*
G37*
G36*
G01*
X75955000Y-77925000D02*
X76255000Y-77925000D01*
G75*
G02*
X76405000Y-78075000I0J-150000D01*
G01*
X76405000Y-79825000D01*
G75*
G02*
X76255000Y-79975000I-150000J0D01*
G01*
X75955000Y-79975000D01*
G75*
G02*
X75805000Y-79825000I0J150000D01*
G01*
X75805000Y-78075000D01*
G75*
G02*
X75955000Y-77925000I150000J0D01*
G01*
G37*
G36*
G01*
X74685000Y-77925000D02*
X74985000Y-77925000D01*
G75*
G02*
X75135000Y-78075000I0J-150000D01*
G01*
X75135000Y-79825000D01*
G75*
G02*
X74985000Y-79975000I-150000J0D01*
G01*
X74685000Y-79975000D01*
G75*
G02*
X74535000Y-79825000I0J150000D01*
G01*
X74535000Y-78075000D01*
G75*
G02*
X74685000Y-77925000I150000J0D01*
G01*
G37*
G36*
G01*
X73415000Y-77925000D02*
X73715000Y-77925000D01*
G75*
G02*
X73865000Y-78075000I0J-150000D01*
G01*
X73865000Y-79825000D01*
G75*
G02*
X73715000Y-79975000I-150000J0D01*
G01*
X73415000Y-79975000D01*
G75*
G02*
X73265000Y-79825000I0J150000D01*
G01*
X73265000Y-78075000D01*
G75*
G02*
X73415000Y-77925000I150000J0D01*
G01*
G37*
G36*
G01*
X72145000Y-77925000D02*
X72445000Y-77925000D01*
G75*
G02*
X72595000Y-78075000I0J-150000D01*
G01*
X72595000Y-79825000D01*
G75*
G02*
X72445000Y-79975000I-150000J0D01*
G01*
X72145000Y-79975000D01*
G75*
G02*
X71995000Y-79825000I0J150000D01*
G01*
X71995000Y-78075000D01*
G75*
G02*
X72145000Y-77925000I150000J0D01*
G01*
G37*
G36*
G01*
X70875000Y-77925000D02*
X71175000Y-77925000D01*
G75*
G02*
X71325000Y-78075000I0J-150000D01*
G01*
X71325000Y-79825000D01*
G75*
G02*
X71175000Y-79975000I-150000J0D01*
G01*
X70875000Y-79975000D01*
G75*
G02*
X70725000Y-79825000I0J150000D01*
G01*
X70725000Y-78075000D01*
G75*
G02*
X70875000Y-77925000I150000J0D01*
G01*
G37*
G36*
G01*
X69605000Y-77925000D02*
X69905000Y-77925000D01*
G75*
G02*
X70055000Y-78075000I0J-150000D01*
G01*
X70055000Y-79825000D01*
G75*
G02*
X69905000Y-79975000I-150000J0D01*
G01*
X69605000Y-79975000D01*
G75*
G02*
X69455000Y-79825000I0J150000D01*
G01*
X69455000Y-78075000D01*
G75*
G02*
X69605000Y-77925000I150000J0D01*
G01*
G37*
G36*
G01*
X69605000Y-68625000D02*
X69905000Y-68625000D01*
G75*
G02*
X70055000Y-68775000I0J-150000D01*
G01*
X70055000Y-70525000D01*
G75*
G02*
X69905000Y-70675000I-150000J0D01*
G01*
X69605000Y-70675000D01*
G75*
G02*
X69455000Y-70525000I0J150000D01*
G01*
X69455000Y-68775000D01*
G75*
G02*
X69605000Y-68625000I150000J0D01*
G01*
G37*
G36*
G01*
X70875000Y-68625000D02*
X71175000Y-68625000D01*
G75*
G02*
X71325000Y-68775000I0J-150000D01*
G01*
X71325000Y-70525000D01*
G75*
G02*
X71175000Y-70675000I-150000J0D01*
G01*
X70875000Y-70675000D01*
G75*
G02*
X70725000Y-70525000I0J150000D01*
G01*
X70725000Y-68775000D01*
G75*
G02*
X70875000Y-68625000I150000J0D01*
G01*
G37*
G36*
G01*
X72145000Y-68625000D02*
X72445000Y-68625000D01*
G75*
G02*
X72595000Y-68775000I0J-150000D01*
G01*
X72595000Y-70525000D01*
G75*
G02*
X72445000Y-70675000I-150000J0D01*
G01*
X72145000Y-70675000D01*
G75*
G02*
X71995000Y-70525000I0J150000D01*
G01*
X71995000Y-68775000D01*
G75*
G02*
X72145000Y-68625000I150000J0D01*
G01*
G37*
G36*
G01*
X73415000Y-68625000D02*
X73715000Y-68625000D01*
G75*
G02*
X73865000Y-68775000I0J-150000D01*
G01*
X73865000Y-70525000D01*
G75*
G02*
X73715000Y-70675000I-150000J0D01*
G01*
X73415000Y-70675000D01*
G75*
G02*
X73265000Y-70525000I0J150000D01*
G01*
X73265000Y-68775000D01*
G75*
G02*
X73415000Y-68625000I150000J0D01*
G01*
G37*
G36*
G01*
X74685000Y-68625000D02*
X74985000Y-68625000D01*
G75*
G02*
X75135000Y-68775000I0J-150000D01*
G01*
X75135000Y-70525000D01*
G75*
G02*
X74985000Y-70675000I-150000J0D01*
G01*
X74685000Y-70675000D01*
G75*
G02*
X74535000Y-70525000I0J150000D01*
G01*
X74535000Y-68775000D01*
G75*
G02*
X74685000Y-68625000I150000J0D01*
G01*
G37*
G36*
G01*
X75955000Y-68625000D02*
X76255000Y-68625000D01*
G75*
G02*
X76405000Y-68775000I0J-150000D01*
G01*
X76405000Y-70525000D01*
G75*
G02*
X76255000Y-70675000I-150000J0D01*
G01*
X75955000Y-70675000D01*
G75*
G02*
X75805000Y-70525000I0J150000D01*
G01*
X75805000Y-68775000D01*
G75*
G02*
X75955000Y-68625000I150000J0D01*
G01*
G37*
G36*
G01*
X77225000Y-68625000D02*
X77525000Y-68625000D01*
G75*
G02*
X77675000Y-68775000I0J-150000D01*
G01*
X77675000Y-70525000D01*
G75*
G02*
X77525000Y-70675000I-150000J0D01*
G01*
X77225000Y-70675000D01*
G75*
G02*
X77075000Y-70525000I0J150000D01*
G01*
X77075000Y-68775000D01*
G75*
G02*
X77225000Y-68625000I150000J0D01*
G01*
G37*
G36*
G01*
X78495000Y-68625000D02*
X78795000Y-68625000D01*
G75*
G02*
X78945000Y-68775000I0J-150000D01*
G01*
X78945000Y-70525000D01*
G75*
G02*
X78795000Y-70675000I-150000J0D01*
G01*
X78495000Y-70675000D01*
G75*
G02*
X78345000Y-70525000I0J150000D01*
G01*
X78345000Y-68775000D01*
G75*
G02*
X78495000Y-68625000I150000J0D01*
G01*
G37*
G36*
G01*
X111950000Y-81556250D02*
X111950000Y-81043750D01*
G75*
G02*
X112168750Y-80825000I218750J0D01*
G01*
X112606250Y-80825000D01*
G75*
G02*
X112825000Y-81043750I0J-218750D01*
G01*
X112825000Y-81556250D01*
G75*
G02*
X112606250Y-81775000I-218750J0D01*
G01*
X112168750Y-81775000D01*
G75*
G02*
X111950000Y-81556250I0J218750D01*
G01*
G37*
G36*
G01*
X110375000Y-81556250D02*
X110375000Y-81043750D01*
G75*
G02*
X110593750Y-80825000I218750J0D01*
G01*
X111031250Y-80825000D01*
G75*
G02*
X111250000Y-81043750I0J-218750D01*
G01*
X111250000Y-81556250D01*
G75*
G02*
X111031250Y-81775000I-218750J0D01*
G01*
X110593750Y-81775000D01*
G75*
G02*
X110375000Y-81556250I0J218750D01*
G01*
G37*
G36*
G01*
X128375000Y-81556250D02*
X128375000Y-81043750D01*
G75*
G02*
X128593750Y-80825000I218750J0D01*
G01*
X129031250Y-80825000D01*
G75*
G02*
X129250000Y-81043750I0J-218750D01*
G01*
X129250000Y-81556250D01*
G75*
G02*
X129031250Y-81775000I-218750J0D01*
G01*
X128593750Y-81775000D01*
G75*
G02*
X128375000Y-81556250I0J218750D01*
G01*
G37*
G36*
G01*
X129950000Y-81556250D02*
X129950000Y-81043750D01*
G75*
G02*
X130168750Y-80825000I218750J0D01*
G01*
X130606250Y-80825000D01*
G75*
G02*
X130825000Y-81043750I0J-218750D01*
G01*
X130825000Y-81556250D01*
G75*
G02*
X130606250Y-81775000I-218750J0D01*
G01*
X130168750Y-81775000D01*
G75*
G02*
X129950000Y-81556250I0J218750D01*
G01*
G37*
G36*
G01*
X124575000Y-81556250D02*
X124575000Y-81043750D01*
G75*
G02*
X124793750Y-80825000I218750J0D01*
G01*
X125231250Y-80825000D01*
G75*
G02*
X125450000Y-81043750I0J-218750D01*
G01*
X125450000Y-81556250D01*
G75*
G02*
X125231250Y-81775000I-218750J0D01*
G01*
X124793750Y-81775000D01*
G75*
G02*
X124575000Y-81556250I0J218750D01*
G01*
G37*
G36*
G01*
X126150000Y-81556250D02*
X126150000Y-81043750D01*
G75*
G02*
X126368750Y-80825000I218750J0D01*
G01*
X126806250Y-80825000D01*
G75*
G02*
X127025000Y-81043750I0J-218750D01*
G01*
X127025000Y-81556250D01*
G75*
G02*
X126806250Y-81775000I-218750J0D01*
G01*
X126368750Y-81775000D01*
G75*
G02*
X126150000Y-81556250I0J218750D01*
G01*
G37*
G36*
G01*
X132495000Y-68625000D02*
X132795000Y-68625000D01*
G75*
G02*
X132945000Y-68775000I0J-150000D01*
G01*
X132945000Y-70525000D01*
G75*
G02*
X132795000Y-70675000I-150000J0D01*
G01*
X132495000Y-70675000D01*
G75*
G02*
X132345000Y-70525000I0J150000D01*
G01*
X132345000Y-68775000D01*
G75*
G02*
X132495000Y-68625000I150000J0D01*
G01*
G37*
G36*
G01*
X131225000Y-68625000D02*
X131525000Y-68625000D01*
G75*
G02*
X131675000Y-68775000I0J-150000D01*
G01*
X131675000Y-70525000D01*
G75*
G02*
X131525000Y-70675000I-150000J0D01*
G01*
X131225000Y-70675000D01*
G75*
G02*
X131075000Y-70525000I0J150000D01*
G01*
X131075000Y-68775000D01*
G75*
G02*
X131225000Y-68625000I150000J0D01*
G01*
G37*
G36*
G01*
X129955000Y-68625000D02*
X130255000Y-68625000D01*
G75*
G02*
X130405000Y-68775000I0J-150000D01*
G01*
X130405000Y-70525000D01*
G75*
G02*
X130255000Y-70675000I-150000J0D01*
G01*
X129955000Y-70675000D01*
G75*
G02*
X129805000Y-70525000I0J150000D01*
G01*
X129805000Y-68775000D01*
G75*
G02*
X129955000Y-68625000I150000J0D01*
G01*
G37*
G36*
G01*
X128685000Y-68625000D02*
X128985000Y-68625000D01*
G75*
G02*
X129135000Y-68775000I0J-150000D01*
G01*
X129135000Y-70525000D01*
G75*
G02*
X128985000Y-70675000I-150000J0D01*
G01*
X128685000Y-70675000D01*
G75*
G02*
X128535000Y-70525000I0J150000D01*
G01*
X128535000Y-68775000D01*
G75*
G02*
X128685000Y-68625000I150000J0D01*
G01*
G37*
G36*
G01*
X127415000Y-68625000D02*
X127715000Y-68625000D01*
G75*
G02*
X127865000Y-68775000I0J-150000D01*
G01*
X127865000Y-70525000D01*
G75*
G02*
X127715000Y-70675000I-150000J0D01*
G01*
X127415000Y-70675000D01*
G75*
G02*
X127265000Y-70525000I0J150000D01*
G01*
X127265000Y-68775000D01*
G75*
G02*
X127415000Y-68625000I150000J0D01*
G01*
G37*
G36*
G01*
X126145000Y-68625000D02*
X126445000Y-68625000D01*
G75*
G02*
X126595000Y-68775000I0J-150000D01*
G01*
X126595000Y-70525000D01*
G75*
G02*
X126445000Y-70675000I-150000J0D01*
G01*
X126145000Y-70675000D01*
G75*
G02*
X125995000Y-70525000I0J150000D01*
G01*
X125995000Y-68775000D01*
G75*
G02*
X126145000Y-68625000I150000J0D01*
G01*
G37*
G36*
G01*
X124875000Y-68625000D02*
X125175000Y-68625000D01*
G75*
G02*
X125325000Y-68775000I0J-150000D01*
G01*
X125325000Y-70525000D01*
G75*
G02*
X125175000Y-70675000I-150000J0D01*
G01*
X124875000Y-70675000D01*
G75*
G02*
X124725000Y-70525000I0J150000D01*
G01*
X124725000Y-68775000D01*
G75*
G02*
X124875000Y-68625000I150000J0D01*
G01*
G37*
G36*
G01*
X123605000Y-68625000D02*
X123905000Y-68625000D01*
G75*
G02*
X124055000Y-68775000I0J-150000D01*
G01*
X124055000Y-70525000D01*
G75*
G02*
X123905000Y-70675000I-150000J0D01*
G01*
X123605000Y-70675000D01*
G75*
G02*
X123455000Y-70525000I0J150000D01*
G01*
X123455000Y-68775000D01*
G75*
G02*
X123605000Y-68625000I150000J0D01*
G01*
G37*
G36*
G01*
X123605000Y-77925000D02*
X123905000Y-77925000D01*
G75*
G02*
X124055000Y-78075000I0J-150000D01*
G01*
X124055000Y-79825000D01*
G75*
G02*
X123905000Y-79975000I-150000J0D01*
G01*
X123605000Y-79975000D01*
G75*
G02*
X123455000Y-79825000I0J150000D01*
G01*
X123455000Y-78075000D01*
G75*
G02*
X123605000Y-77925000I150000J0D01*
G01*
G37*
G36*
G01*
X124875000Y-77925000D02*
X125175000Y-77925000D01*
G75*
G02*
X125325000Y-78075000I0J-150000D01*
G01*
X125325000Y-79825000D01*
G75*
G02*
X125175000Y-79975000I-150000J0D01*
G01*
X124875000Y-79975000D01*
G75*
G02*
X124725000Y-79825000I0J150000D01*
G01*
X124725000Y-78075000D01*
G75*
G02*
X124875000Y-77925000I150000J0D01*
G01*
G37*
G36*
G01*
X126145000Y-77925000D02*
X126445000Y-77925000D01*
G75*
G02*
X126595000Y-78075000I0J-150000D01*
G01*
X126595000Y-79825000D01*
G75*
G02*
X126445000Y-79975000I-150000J0D01*
G01*
X126145000Y-79975000D01*
G75*
G02*
X125995000Y-79825000I0J150000D01*
G01*
X125995000Y-78075000D01*
G75*
G02*
X126145000Y-77925000I150000J0D01*
G01*
G37*
G36*
G01*
X127415000Y-77925000D02*
X127715000Y-77925000D01*
G75*
G02*
X127865000Y-78075000I0J-150000D01*
G01*
X127865000Y-79825000D01*
G75*
G02*
X127715000Y-79975000I-150000J0D01*
G01*
X127415000Y-79975000D01*
G75*
G02*
X127265000Y-79825000I0J150000D01*
G01*
X127265000Y-78075000D01*
G75*
G02*
X127415000Y-77925000I150000J0D01*
G01*
G37*
G36*
G01*
X128685000Y-77925000D02*
X128985000Y-77925000D01*
G75*
G02*
X129135000Y-78075000I0J-150000D01*
G01*
X129135000Y-79825000D01*
G75*
G02*
X128985000Y-79975000I-150000J0D01*
G01*
X128685000Y-79975000D01*
G75*
G02*
X128535000Y-79825000I0J150000D01*
G01*
X128535000Y-78075000D01*
G75*
G02*
X128685000Y-77925000I150000J0D01*
G01*
G37*
G36*
G01*
X129955000Y-77925000D02*
X130255000Y-77925000D01*
G75*
G02*
X130405000Y-78075000I0J-150000D01*
G01*
X130405000Y-79825000D01*
G75*
G02*
X130255000Y-79975000I-150000J0D01*
G01*
X129955000Y-79975000D01*
G75*
G02*
X129805000Y-79825000I0J150000D01*
G01*
X129805000Y-78075000D01*
G75*
G02*
X129955000Y-77925000I150000J0D01*
G01*
G37*
G36*
G01*
X131225000Y-77925000D02*
X131525000Y-77925000D01*
G75*
G02*
X131675000Y-78075000I0J-150000D01*
G01*
X131675000Y-79825000D01*
G75*
G02*
X131525000Y-79975000I-150000J0D01*
G01*
X131225000Y-79975000D01*
G75*
G02*
X131075000Y-79825000I0J150000D01*
G01*
X131075000Y-78075000D01*
G75*
G02*
X131225000Y-77925000I150000J0D01*
G01*
G37*
G36*
G01*
X132495000Y-77925000D02*
X132795000Y-77925000D01*
G75*
G02*
X132945000Y-78075000I0J-150000D01*
G01*
X132945000Y-79825000D01*
G75*
G02*
X132795000Y-79975000I-150000J0D01*
G01*
X132495000Y-79975000D01*
G75*
G02*
X132345000Y-79825000I0J150000D01*
G01*
X132345000Y-78075000D01*
G75*
G02*
X132495000Y-77925000I150000J0D01*
G01*
G37*
G36*
G01*
X108150000Y-81556250D02*
X108150000Y-81043750D01*
G75*
G02*
X108368750Y-80825000I218750J0D01*
G01*
X108806250Y-80825000D01*
G75*
G02*
X109025000Y-81043750I0J-218750D01*
G01*
X109025000Y-81556250D01*
G75*
G02*
X108806250Y-81775000I-218750J0D01*
G01*
X108368750Y-81775000D01*
G75*
G02*
X108150000Y-81556250I0J218750D01*
G01*
G37*
G36*
G01*
X106575000Y-81556250D02*
X106575000Y-81043750D01*
G75*
G02*
X106793750Y-80825000I218750J0D01*
G01*
X107231250Y-80825000D01*
G75*
G02*
X107450000Y-81043750I0J-218750D01*
G01*
X107450000Y-81556250D01*
G75*
G02*
X107231250Y-81775000I-218750J0D01*
G01*
X106793750Y-81775000D01*
G75*
G02*
X106575000Y-81556250I0J218750D01*
G01*
G37*
G36*
G01*
X114495000Y-77925000D02*
X114795000Y-77925000D01*
G75*
G02*
X114945000Y-78075000I0J-150000D01*
G01*
X114945000Y-79825000D01*
G75*
G02*
X114795000Y-79975000I-150000J0D01*
G01*
X114495000Y-79975000D01*
G75*
G02*
X114345000Y-79825000I0J150000D01*
G01*
X114345000Y-78075000D01*
G75*
G02*
X114495000Y-77925000I150000J0D01*
G01*
G37*
G36*
G01*
X113225000Y-77925000D02*
X113525000Y-77925000D01*
G75*
G02*
X113675000Y-78075000I0J-150000D01*
G01*
X113675000Y-79825000D01*
G75*
G02*
X113525000Y-79975000I-150000J0D01*
G01*
X113225000Y-79975000D01*
G75*
G02*
X113075000Y-79825000I0J150000D01*
G01*
X113075000Y-78075000D01*
G75*
G02*
X113225000Y-77925000I150000J0D01*
G01*
G37*
G36*
G01*
X111955000Y-77925000D02*
X112255000Y-77925000D01*
G75*
G02*
X112405000Y-78075000I0J-150000D01*
G01*
X112405000Y-79825000D01*
G75*
G02*
X112255000Y-79975000I-150000J0D01*
G01*
X111955000Y-79975000D01*
G75*
G02*
X111805000Y-79825000I0J150000D01*
G01*
X111805000Y-78075000D01*
G75*
G02*
X111955000Y-77925000I150000J0D01*
G01*
G37*
G36*
G01*
X110685000Y-77925000D02*
X110985000Y-77925000D01*
G75*
G02*
X111135000Y-78075000I0J-150000D01*
G01*
X111135000Y-79825000D01*
G75*
G02*
X110985000Y-79975000I-150000J0D01*
G01*
X110685000Y-79975000D01*
G75*
G02*
X110535000Y-79825000I0J150000D01*
G01*
X110535000Y-78075000D01*
G75*
G02*
X110685000Y-77925000I150000J0D01*
G01*
G37*
G36*
G01*
X109415000Y-77925000D02*
X109715000Y-77925000D01*
G75*
G02*
X109865000Y-78075000I0J-150000D01*
G01*
X109865000Y-79825000D01*
G75*
G02*
X109715000Y-79975000I-150000J0D01*
G01*
X109415000Y-79975000D01*
G75*
G02*
X109265000Y-79825000I0J150000D01*
G01*
X109265000Y-78075000D01*
G75*
G02*
X109415000Y-77925000I150000J0D01*
G01*
G37*
G36*
G01*
X108145000Y-77925000D02*
X108445000Y-77925000D01*
G75*
G02*
X108595000Y-78075000I0J-150000D01*
G01*
X108595000Y-79825000D01*
G75*
G02*
X108445000Y-79975000I-150000J0D01*
G01*
X108145000Y-79975000D01*
G75*
G02*
X107995000Y-79825000I0J150000D01*
G01*
X107995000Y-78075000D01*
G75*
G02*
X108145000Y-77925000I150000J0D01*
G01*
G37*
G36*
G01*
X106875000Y-77925000D02*
X107175000Y-77925000D01*
G75*
G02*
X107325000Y-78075000I0J-150000D01*
G01*
X107325000Y-79825000D01*
G75*
G02*
X107175000Y-79975000I-150000J0D01*
G01*
X106875000Y-79975000D01*
G75*
G02*
X106725000Y-79825000I0J150000D01*
G01*
X106725000Y-78075000D01*
G75*
G02*
X106875000Y-77925000I150000J0D01*
G01*
G37*
G36*
G01*
X105605000Y-77925000D02*
X105905000Y-77925000D01*
G75*
G02*
X106055000Y-78075000I0J-150000D01*
G01*
X106055000Y-79825000D01*
G75*
G02*
X105905000Y-79975000I-150000J0D01*
G01*
X105605000Y-79975000D01*
G75*
G02*
X105455000Y-79825000I0J150000D01*
G01*
X105455000Y-78075000D01*
G75*
G02*
X105605000Y-77925000I150000J0D01*
G01*
G37*
G36*
G01*
X105605000Y-68625000D02*
X105905000Y-68625000D01*
G75*
G02*
X106055000Y-68775000I0J-150000D01*
G01*
X106055000Y-70525000D01*
G75*
G02*
X105905000Y-70675000I-150000J0D01*
G01*
X105605000Y-70675000D01*
G75*
G02*
X105455000Y-70525000I0J150000D01*
G01*
X105455000Y-68775000D01*
G75*
G02*
X105605000Y-68625000I150000J0D01*
G01*
G37*
G36*
G01*
X106875000Y-68625000D02*
X107175000Y-68625000D01*
G75*
G02*
X107325000Y-68775000I0J-150000D01*
G01*
X107325000Y-70525000D01*
G75*
G02*
X107175000Y-70675000I-150000J0D01*
G01*
X106875000Y-70675000D01*
G75*
G02*
X106725000Y-70525000I0J150000D01*
G01*
X106725000Y-68775000D01*
G75*
G02*
X106875000Y-68625000I150000J0D01*
G01*
G37*
G36*
G01*
X108145000Y-68625000D02*
X108445000Y-68625000D01*
G75*
G02*
X108595000Y-68775000I0J-150000D01*
G01*
X108595000Y-70525000D01*
G75*
G02*
X108445000Y-70675000I-150000J0D01*
G01*
X108145000Y-70675000D01*
G75*
G02*
X107995000Y-70525000I0J150000D01*
G01*
X107995000Y-68775000D01*
G75*
G02*
X108145000Y-68625000I150000J0D01*
G01*
G37*
G36*
G01*
X109415000Y-68625000D02*
X109715000Y-68625000D01*
G75*
G02*
X109865000Y-68775000I0J-150000D01*
G01*
X109865000Y-70525000D01*
G75*
G02*
X109715000Y-70675000I-150000J0D01*
G01*
X109415000Y-70675000D01*
G75*
G02*
X109265000Y-70525000I0J150000D01*
G01*
X109265000Y-68775000D01*
G75*
G02*
X109415000Y-68625000I150000J0D01*
G01*
G37*
G36*
G01*
X110685000Y-68625000D02*
X110985000Y-68625000D01*
G75*
G02*
X111135000Y-68775000I0J-150000D01*
G01*
X111135000Y-70525000D01*
G75*
G02*
X110985000Y-70675000I-150000J0D01*
G01*
X110685000Y-70675000D01*
G75*
G02*
X110535000Y-70525000I0J150000D01*
G01*
X110535000Y-68775000D01*
G75*
G02*
X110685000Y-68625000I150000J0D01*
G01*
G37*
G36*
G01*
X111955000Y-68625000D02*
X112255000Y-68625000D01*
G75*
G02*
X112405000Y-68775000I0J-150000D01*
G01*
X112405000Y-70525000D01*
G75*
G02*
X112255000Y-70675000I-150000J0D01*
G01*
X111955000Y-70675000D01*
G75*
G02*
X111805000Y-70525000I0J150000D01*
G01*
X111805000Y-68775000D01*
G75*
G02*
X111955000Y-68625000I150000J0D01*
G01*
G37*
G36*
G01*
X113225000Y-68625000D02*
X113525000Y-68625000D01*
G75*
G02*
X113675000Y-68775000I0J-150000D01*
G01*
X113675000Y-70525000D01*
G75*
G02*
X113525000Y-70675000I-150000J0D01*
G01*
X113225000Y-70675000D01*
G75*
G02*
X113075000Y-70525000I0J150000D01*
G01*
X113075000Y-68775000D01*
G75*
G02*
X113225000Y-68625000I150000J0D01*
G01*
G37*
G36*
G01*
X114495000Y-68625000D02*
X114795000Y-68625000D01*
G75*
G02*
X114945000Y-68775000I0J-150000D01*
G01*
X114945000Y-70525000D01*
G75*
G02*
X114795000Y-70675000I-150000J0D01*
G01*
X114495000Y-70675000D01*
G75*
G02*
X114345000Y-70525000I0J150000D01*
G01*
X114345000Y-68775000D01*
G75*
G02*
X114495000Y-68625000I150000J0D01*
G01*
G37*
G36*
G01*
X146375000Y-81556250D02*
X146375000Y-81043750D01*
G75*
G02*
X146593750Y-80825000I218750J0D01*
G01*
X147031250Y-80825000D01*
G75*
G02*
X147250000Y-81043750I0J-218750D01*
G01*
X147250000Y-81556250D01*
G75*
G02*
X147031250Y-81775000I-218750J0D01*
G01*
X146593750Y-81775000D01*
G75*
G02*
X146375000Y-81556250I0J218750D01*
G01*
G37*
G36*
G01*
X147950000Y-81556250D02*
X147950000Y-81043750D01*
G75*
G02*
X148168750Y-80825000I218750J0D01*
G01*
X148606250Y-80825000D01*
G75*
G02*
X148825000Y-81043750I0J-218750D01*
G01*
X148825000Y-81556250D01*
G75*
G02*
X148606250Y-81775000I-218750J0D01*
G01*
X148168750Y-81775000D01*
G75*
G02*
X147950000Y-81556250I0J218750D01*
G01*
G37*
G36*
G01*
X142575000Y-81556250D02*
X142575000Y-81043750D01*
G75*
G02*
X142793750Y-80825000I218750J0D01*
G01*
X143231250Y-80825000D01*
G75*
G02*
X143450000Y-81043750I0J-218750D01*
G01*
X143450000Y-81556250D01*
G75*
G02*
X143231250Y-81775000I-218750J0D01*
G01*
X142793750Y-81775000D01*
G75*
G02*
X142575000Y-81556250I0J218750D01*
G01*
G37*
G36*
G01*
X144150000Y-81556250D02*
X144150000Y-81043750D01*
G75*
G02*
X144368750Y-80825000I218750J0D01*
G01*
X144806250Y-80825000D01*
G75*
G02*
X145025000Y-81043750I0J-218750D01*
G01*
X145025000Y-81556250D01*
G75*
G02*
X144806250Y-81775000I-218750J0D01*
G01*
X144368750Y-81775000D01*
G75*
G02*
X144150000Y-81556250I0J218750D01*
G01*
G37*
G36*
G01*
X150495000Y-68625000D02*
X150795000Y-68625000D01*
G75*
G02*
X150945000Y-68775000I0J-150000D01*
G01*
X150945000Y-70525000D01*
G75*
G02*
X150795000Y-70675000I-150000J0D01*
G01*
X150495000Y-70675000D01*
G75*
G02*
X150345000Y-70525000I0J150000D01*
G01*
X150345000Y-68775000D01*
G75*
G02*
X150495000Y-68625000I150000J0D01*
G01*
G37*
G36*
G01*
X149225000Y-68625000D02*
X149525000Y-68625000D01*
G75*
G02*
X149675000Y-68775000I0J-150000D01*
G01*
X149675000Y-70525000D01*
G75*
G02*
X149525000Y-70675000I-150000J0D01*
G01*
X149225000Y-70675000D01*
G75*
G02*
X149075000Y-70525000I0J150000D01*
G01*
X149075000Y-68775000D01*
G75*
G02*
X149225000Y-68625000I150000J0D01*
G01*
G37*
G36*
G01*
X147955000Y-68625000D02*
X148255000Y-68625000D01*
G75*
G02*
X148405000Y-68775000I0J-150000D01*
G01*
X148405000Y-70525000D01*
G75*
G02*
X148255000Y-70675000I-150000J0D01*
G01*
X147955000Y-70675000D01*
G75*
G02*
X147805000Y-70525000I0J150000D01*
G01*
X147805000Y-68775000D01*
G75*
G02*
X147955000Y-68625000I150000J0D01*
G01*
G37*
G36*
G01*
X146685000Y-68625000D02*
X146985000Y-68625000D01*
G75*
G02*
X147135000Y-68775000I0J-150000D01*
G01*
X147135000Y-70525000D01*
G75*
G02*
X146985000Y-70675000I-150000J0D01*
G01*
X146685000Y-70675000D01*
G75*
G02*
X146535000Y-70525000I0J150000D01*
G01*
X146535000Y-68775000D01*
G75*
G02*
X146685000Y-68625000I150000J0D01*
G01*
G37*
G36*
G01*
X145415000Y-68625000D02*
X145715000Y-68625000D01*
G75*
G02*
X145865000Y-68775000I0J-150000D01*
G01*
X145865000Y-70525000D01*
G75*
G02*
X145715000Y-70675000I-150000J0D01*
G01*
X145415000Y-70675000D01*
G75*
G02*
X145265000Y-70525000I0J150000D01*
G01*
X145265000Y-68775000D01*
G75*
G02*
X145415000Y-68625000I150000J0D01*
G01*
G37*
G36*
G01*
X144145000Y-68625000D02*
X144445000Y-68625000D01*
G75*
G02*
X144595000Y-68775000I0J-150000D01*
G01*
X144595000Y-70525000D01*
G75*
G02*
X144445000Y-70675000I-150000J0D01*
G01*
X144145000Y-70675000D01*
G75*
G02*
X143995000Y-70525000I0J150000D01*
G01*
X143995000Y-68775000D01*
G75*
G02*
X144145000Y-68625000I150000J0D01*
G01*
G37*
G36*
G01*
X142875000Y-68625000D02*
X143175000Y-68625000D01*
G75*
G02*
X143325000Y-68775000I0J-150000D01*
G01*
X143325000Y-70525000D01*
G75*
G02*
X143175000Y-70675000I-150000J0D01*
G01*
X142875000Y-70675000D01*
G75*
G02*
X142725000Y-70525000I0J150000D01*
G01*
X142725000Y-68775000D01*
G75*
G02*
X142875000Y-68625000I150000J0D01*
G01*
G37*
G36*
G01*
X141605000Y-68625000D02*
X141905000Y-68625000D01*
G75*
G02*
X142055000Y-68775000I0J-150000D01*
G01*
X142055000Y-70525000D01*
G75*
G02*
X141905000Y-70675000I-150000J0D01*
G01*
X141605000Y-70675000D01*
G75*
G02*
X141455000Y-70525000I0J150000D01*
G01*
X141455000Y-68775000D01*
G75*
G02*
X141605000Y-68625000I150000J0D01*
G01*
G37*
G36*
G01*
X141605000Y-77925000D02*
X141905000Y-77925000D01*
G75*
G02*
X142055000Y-78075000I0J-150000D01*
G01*
X142055000Y-79825000D01*
G75*
G02*
X141905000Y-79975000I-150000J0D01*
G01*
X141605000Y-79975000D01*
G75*
G02*
X141455000Y-79825000I0J150000D01*
G01*
X141455000Y-78075000D01*
G75*
G02*
X141605000Y-77925000I150000J0D01*
G01*
G37*
G36*
G01*
X142875000Y-77925000D02*
X143175000Y-77925000D01*
G75*
G02*
X143325000Y-78075000I0J-150000D01*
G01*
X143325000Y-79825000D01*
G75*
G02*
X143175000Y-79975000I-150000J0D01*
G01*
X142875000Y-79975000D01*
G75*
G02*
X142725000Y-79825000I0J150000D01*
G01*
X142725000Y-78075000D01*
G75*
G02*
X142875000Y-77925000I150000J0D01*
G01*
G37*
G36*
G01*
X144145000Y-77925000D02*
X144445000Y-77925000D01*
G75*
G02*
X144595000Y-78075000I0J-150000D01*
G01*
X144595000Y-79825000D01*
G75*
G02*
X144445000Y-79975000I-150000J0D01*
G01*
X144145000Y-79975000D01*
G75*
G02*
X143995000Y-79825000I0J150000D01*
G01*
X143995000Y-78075000D01*
G75*
G02*
X144145000Y-77925000I150000J0D01*
G01*
G37*
G36*
G01*
X145415000Y-77925000D02*
X145715000Y-77925000D01*
G75*
G02*
X145865000Y-78075000I0J-150000D01*
G01*
X145865000Y-79825000D01*
G75*
G02*
X145715000Y-79975000I-150000J0D01*
G01*
X145415000Y-79975000D01*
G75*
G02*
X145265000Y-79825000I0J150000D01*
G01*
X145265000Y-78075000D01*
G75*
G02*
X145415000Y-77925000I150000J0D01*
G01*
G37*
G36*
G01*
X146685000Y-77925000D02*
X146985000Y-77925000D01*
G75*
G02*
X147135000Y-78075000I0J-150000D01*
G01*
X147135000Y-79825000D01*
G75*
G02*
X146985000Y-79975000I-150000J0D01*
G01*
X146685000Y-79975000D01*
G75*
G02*
X146535000Y-79825000I0J150000D01*
G01*
X146535000Y-78075000D01*
G75*
G02*
X146685000Y-77925000I150000J0D01*
G01*
G37*
G36*
G01*
X147955000Y-77925000D02*
X148255000Y-77925000D01*
G75*
G02*
X148405000Y-78075000I0J-150000D01*
G01*
X148405000Y-79825000D01*
G75*
G02*
X148255000Y-79975000I-150000J0D01*
G01*
X147955000Y-79975000D01*
G75*
G02*
X147805000Y-79825000I0J150000D01*
G01*
X147805000Y-78075000D01*
G75*
G02*
X147955000Y-77925000I150000J0D01*
G01*
G37*
G36*
G01*
X149225000Y-77925000D02*
X149525000Y-77925000D01*
G75*
G02*
X149675000Y-78075000I0J-150000D01*
G01*
X149675000Y-79825000D01*
G75*
G02*
X149525000Y-79975000I-150000J0D01*
G01*
X149225000Y-79975000D01*
G75*
G02*
X149075000Y-79825000I0J150000D01*
G01*
X149075000Y-78075000D01*
G75*
G02*
X149225000Y-77925000I150000J0D01*
G01*
G37*
G36*
G01*
X150495000Y-77925000D02*
X150795000Y-77925000D01*
G75*
G02*
X150945000Y-78075000I0J-150000D01*
G01*
X150945000Y-79825000D01*
G75*
G02*
X150795000Y-79975000I-150000J0D01*
G01*
X150495000Y-79975000D01*
G75*
G02*
X150345000Y-79825000I0J150000D01*
G01*
X150345000Y-78075000D01*
G75*
G02*
X150495000Y-77925000I150000J0D01*
G01*
G37*
G36*
G01*
X165950000Y-81556250D02*
X165950000Y-81043750D01*
G75*
G02*
X166168750Y-80825000I218750J0D01*
G01*
X166606250Y-80825000D01*
G75*
G02*
X166825000Y-81043750I0J-218750D01*
G01*
X166825000Y-81556250D01*
G75*
G02*
X166606250Y-81775000I-218750J0D01*
G01*
X166168750Y-81775000D01*
G75*
G02*
X165950000Y-81556250I0J218750D01*
G01*
G37*
G36*
G01*
X164375000Y-81556250D02*
X164375000Y-81043750D01*
G75*
G02*
X164593750Y-80825000I218750J0D01*
G01*
X165031250Y-80825000D01*
G75*
G02*
X165250000Y-81043750I0J-218750D01*
G01*
X165250000Y-81556250D01*
G75*
G02*
X165031250Y-81775000I-218750J0D01*
G01*
X164593750Y-81775000D01*
G75*
G02*
X164375000Y-81556250I0J218750D01*
G01*
G37*
G36*
G01*
X162150000Y-81556250D02*
X162150000Y-81043750D01*
G75*
G02*
X162368750Y-80825000I218750J0D01*
G01*
X162806250Y-80825000D01*
G75*
G02*
X163025000Y-81043750I0J-218750D01*
G01*
X163025000Y-81556250D01*
G75*
G02*
X162806250Y-81775000I-218750J0D01*
G01*
X162368750Y-81775000D01*
G75*
G02*
X162150000Y-81556250I0J218750D01*
G01*
G37*
G36*
G01*
X160575000Y-81556250D02*
X160575000Y-81043750D01*
G75*
G02*
X160793750Y-80825000I218750J0D01*
G01*
X161231250Y-80825000D01*
G75*
G02*
X161450000Y-81043750I0J-218750D01*
G01*
X161450000Y-81556250D01*
G75*
G02*
X161231250Y-81775000I-218750J0D01*
G01*
X160793750Y-81775000D01*
G75*
G02*
X160575000Y-81556250I0J218750D01*
G01*
G37*
G36*
G01*
X47775000Y-97475000D02*
X49025000Y-97475000D01*
G75*
G02*
X49275000Y-97725000I0J-250000D01*
G01*
X49275000Y-98475000D01*
G75*
G02*
X49025000Y-98725000I-250000J0D01*
G01*
X47775000Y-98725000D01*
G75*
G02*
X47525000Y-98475000I0J250000D01*
G01*
X47525000Y-97725000D01*
G75*
G02*
X47775000Y-97475000I250000J0D01*
G01*
G37*
G36*
G01*
X47775000Y-100275000D02*
X49025000Y-100275000D01*
G75*
G02*
X49275000Y-100525000I0J-250000D01*
G01*
X49275000Y-101275000D01*
G75*
G02*
X49025000Y-101525000I-250000J0D01*
G01*
X47775000Y-101525000D01*
G75*
G02*
X47525000Y-101275000I0J250000D01*
G01*
X47525000Y-100525000D01*
G75*
G02*
X47775000Y-100275000I250000J0D01*
G01*
G37*
G36*
G01*
X51825000Y-98725000D02*
X50575000Y-98725000D01*
G75*
G02*
X50325000Y-98475000I0J250000D01*
G01*
X50325000Y-97725000D01*
G75*
G02*
X50575000Y-97475000I250000J0D01*
G01*
X51825000Y-97475000D01*
G75*
G02*
X52075000Y-97725000I0J-250000D01*
G01*
X52075000Y-98475000D01*
G75*
G02*
X51825000Y-98725000I-250000J0D01*
G01*
G37*
G36*
G01*
X51825000Y-101525000D02*
X50575000Y-101525000D01*
G75*
G02*
X50325000Y-101275000I0J250000D01*
G01*
X50325000Y-100525000D01*
G75*
G02*
X50575000Y-100275000I250000J0D01*
G01*
X51825000Y-100275000D01*
G75*
G02*
X52075000Y-100525000I0J-250000D01*
G01*
X52075000Y-101275000D01*
G75*
G02*
X51825000Y-101525000I-250000J0D01*
G01*
G37*
G36*
G01*
X53375000Y-97475000D02*
X54625000Y-97475000D01*
G75*
G02*
X54875000Y-97725000I0J-250000D01*
G01*
X54875000Y-98475000D01*
G75*
G02*
X54625000Y-98725000I-250000J0D01*
G01*
X53375000Y-98725000D01*
G75*
G02*
X53125000Y-98475000I0J250000D01*
G01*
X53125000Y-97725000D01*
G75*
G02*
X53375000Y-97475000I250000J0D01*
G01*
G37*
G36*
G01*
X53375000Y-100275000D02*
X54625000Y-100275000D01*
G75*
G02*
X54875000Y-100525000I0J-250000D01*
G01*
X54875000Y-101275000D01*
G75*
G02*
X54625000Y-101525000I-250000J0D01*
G01*
X53375000Y-101525000D01*
G75*
G02*
X53125000Y-101275000I0J250000D01*
G01*
X53125000Y-100525000D01*
G75*
G02*
X53375000Y-100275000I250000J0D01*
G01*
G37*
G36*
G01*
X46225000Y-98725000D02*
X44975000Y-98725000D01*
G75*
G02*
X44725000Y-98475000I0J250000D01*
G01*
X44725000Y-97725000D01*
G75*
G02*
X44975000Y-97475000I250000J0D01*
G01*
X46225000Y-97475000D01*
G75*
G02*
X46475000Y-97725000I0J-250000D01*
G01*
X46475000Y-98475000D01*
G75*
G02*
X46225000Y-98725000I-250000J0D01*
G01*
G37*
G36*
G01*
X46225000Y-101525000D02*
X44975000Y-101525000D01*
G75*
G02*
X44725000Y-101275000I0J250000D01*
G01*
X44725000Y-100525000D01*
G75*
G02*
X44975000Y-100275000I250000J0D01*
G01*
X46225000Y-100275000D01*
G75*
G02*
X46475000Y-100525000I0J-250000D01*
G01*
X46475000Y-101275000D01*
G75*
G02*
X46225000Y-101525000I-250000J0D01*
G01*
G37*
G36*
G01*
X44775000Y-96125000D02*
X44775000Y-94875000D01*
G75*
G02*
X45025000Y-94625000I250000J0D01*
G01*
X45775000Y-94625000D01*
G75*
G02*
X46025000Y-94875000I0J-250000D01*
G01*
X46025000Y-96125000D01*
G75*
G02*
X45775000Y-96375000I-250000J0D01*
G01*
X45025000Y-96375000D01*
G75*
G02*
X44775000Y-96125000I0J250000D01*
G01*
G37*
G36*
G01*
X47575000Y-96125000D02*
X47575000Y-94875000D01*
G75*
G02*
X47825000Y-94625000I250000J0D01*
G01*
X48575000Y-94625000D01*
G75*
G02*
X48825000Y-94875000I0J-250000D01*
G01*
X48825000Y-96125000D01*
G75*
G02*
X48575000Y-96375000I-250000J0D01*
G01*
X47825000Y-96375000D01*
G75*
G02*
X47575000Y-96125000I0J250000D01*
G01*
G37*
G36*
G01*
X46025000Y-92075000D02*
X46025000Y-93325000D01*
G75*
G02*
X45775000Y-93575000I-250000J0D01*
G01*
X45025000Y-93575000D01*
G75*
G02*
X44775000Y-93325000I0J250000D01*
G01*
X44775000Y-92075000D01*
G75*
G02*
X45025000Y-91825000I250000J0D01*
G01*
X45775000Y-91825000D01*
G75*
G02*
X46025000Y-92075000I0J-250000D01*
G01*
G37*
G36*
G01*
X48825000Y-92075000D02*
X48825000Y-93325000D01*
G75*
G02*
X48575000Y-93575000I-250000J0D01*
G01*
X47825000Y-93575000D01*
G75*
G02*
X47575000Y-93325000I0J250000D01*
G01*
X47575000Y-92075000D01*
G75*
G02*
X47825000Y-91825000I250000J0D01*
G01*
X48575000Y-91825000D01*
G75*
G02*
X48825000Y-92075000I0J-250000D01*
G01*
G37*
G36*
G01*
X168495000Y-77925000D02*
X168795000Y-77925000D01*
G75*
G02*
X168945000Y-78075000I0J-150000D01*
G01*
X168945000Y-79825000D01*
G75*
G02*
X168795000Y-79975000I-150000J0D01*
G01*
X168495000Y-79975000D01*
G75*
G02*
X168345000Y-79825000I0J150000D01*
G01*
X168345000Y-78075000D01*
G75*
G02*
X168495000Y-77925000I150000J0D01*
G01*
G37*
G36*
G01*
X167225000Y-77925000D02*
X167525000Y-77925000D01*
G75*
G02*
X167675000Y-78075000I0J-150000D01*
G01*
X167675000Y-79825000D01*
G75*
G02*
X167525000Y-79975000I-150000J0D01*
G01*
X167225000Y-79975000D01*
G75*
G02*
X167075000Y-79825000I0J150000D01*
G01*
X167075000Y-78075000D01*
G75*
G02*
X167225000Y-77925000I150000J0D01*
G01*
G37*
G36*
G01*
X165955000Y-77925000D02*
X166255000Y-77925000D01*
G75*
G02*
X166405000Y-78075000I0J-150000D01*
G01*
X166405000Y-79825000D01*
G75*
G02*
X166255000Y-79975000I-150000J0D01*
G01*
X165955000Y-79975000D01*
G75*
G02*
X165805000Y-79825000I0J150000D01*
G01*
X165805000Y-78075000D01*
G75*
G02*
X165955000Y-77925000I150000J0D01*
G01*
G37*
G36*
G01*
X164685000Y-77925000D02*
X164985000Y-77925000D01*
G75*
G02*
X165135000Y-78075000I0J-150000D01*
G01*
X165135000Y-79825000D01*
G75*
G02*
X164985000Y-79975000I-150000J0D01*
G01*
X164685000Y-79975000D01*
G75*
G02*
X164535000Y-79825000I0J150000D01*
G01*
X164535000Y-78075000D01*
G75*
G02*
X164685000Y-77925000I150000J0D01*
G01*
G37*
G36*
G01*
X163415000Y-77925000D02*
X163715000Y-77925000D01*
G75*
G02*
X163865000Y-78075000I0J-150000D01*
G01*
X163865000Y-79825000D01*
G75*
G02*
X163715000Y-79975000I-150000J0D01*
G01*
X163415000Y-79975000D01*
G75*
G02*
X163265000Y-79825000I0J150000D01*
G01*
X163265000Y-78075000D01*
G75*
G02*
X163415000Y-77925000I150000J0D01*
G01*
G37*
G36*
G01*
X162145000Y-77925000D02*
X162445000Y-77925000D01*
G75*
G02*
X162595000Y-78075000I0J-150000D01*
G01*
X162595000Y-79825000D01*
G75*
G02*
X162445000Y-79975000I-150000J0D01*
G01*
X162145000Y-79975000D01*
G75*
G02*
X161995000Y-79825000I0J150000D01*
G01*
X161995000Y-78075000D01*
G75*
G02*
X162145000Y-77925000I150000J0D01*
G01*
G37*
G36*
G01*
X160875000Y-77925000D02*
X161175000Y-77925000D01*
G75*
G02*
X161325000Y-78075000I0J-150000D01*
G01*
X161325000Y-79825000D01*
G75*
G02*
X161175000Y-79975000I-150000J0D01*
G01*
X160875000Y-79975000D01*
G75*
G02*
X160725000Y-79825000I0J150000D01*
G01*
X160725000Y-78075000D01*
G75*
G02*
X160875000Y-77925000I150000J0D01*
G01*
G37*
G36*
G01*
X159605000Y-77925000D02*
X159905000Y-77925000D01*
G75*
G02*
X160055000Y-78075000I0J-150000D01*
G01*
X160055000Y-79825000D01*
G75*
G02*
X159905000Y-79975000I-150000J0D01*
G01*
X159605000Y-79975000D01*
G75*
G02*
X159455000Y-79825000I0J150000D01*
G01*
X159455000Y-78075000D01*
G75*
G02*
X159605000Y-77925000I150000J0D01*
G01*
G37*
G36*
G01*
X159605000Y-68625000D02*
X159905000Y-68625000D01*
G75*
G02*
X160055000Y-68775000I0J-150000D01*
G01*
X160055000Y-70525000D01*
G75*
G02*
X159905000Y-70675000I-150000J0D01*
G01*
X159605000Y-70675000D01*
G75*
G02*
X159455000Y-70525000I0J150000D01*
G01*
X159455000Y-68775000D01*
G75*
G02*
X159605000Y-68625000I150000J0D01*
G01*
G37*
G36*
G01*
X160875000Y-68625000D02*
X161175000Y-68625000D01*
G75*
G02*
X161325000Y-68775000I0J-150000D01*
G01*
X161325000Y-70525000D01*
G75*
G02*
X161175000Y-70675000I-150000J0D01*
G01*
X160875000Y-70675000D01*
G75*
G02*
X160725000Y-70525000I0J150000D01*
G01*
X160725000Y-68775000D01*
G75*
G02*
X160875000Y-68625000I150000J0D01*
G01*
G37*
G36*
G01*
X162145000Y-68625000D02*
X162445000Y-68625000D01*
G75*
G02*
X162595000Y-68775000I0J-150000D01*
G01*
X162595000Y-70525000D01*
G75*
G02*
X162445000Y-70675000I-150000J0D01*
G01*
X162145000Y-70675000D01*
G75*
G02*
X161995000Y-70525000I0J150000D01*
G01*
X161995000Y-68775000D01*
G75*
G02*
X162145000Y-68625000I150000J0D01*
G01*
G37*
G36*
G01*
X163415000Y-68625000D02*
X163715000Y-68625000D01*
G75*
G02*
X163865000Y-68775000I0J-150000D01*
G01*
X163865000Y-70525000D01*
G75*
G02*
X163715000Y-70675000I-150000J0D01*
G01*
X163415000Y-70675000D01*
G75*
G02*
X163265000Y-70525000I0J150000D01*
G01*
X163265000Y-68775000D01*
G75*
G02*
X163415000Y-68625000I150000J0D01*
G01*
G37*
G36*
G01*
X164685000Y-68625000D02*
X164985000Y-68625000D01*
G75*
G02*
X165135000Y-68775000I0J-150000D01*
G01*
X165135000Y-70525000D01*
G75*
G02*
X164985000Y-70675000I-150000J0D01*
G01*
X164685000Y-70675000D01*
G75*
G02*
X164535000Y-70525000I0J150000D01*
G01*
X164535000Y-68775000D01*
G75*
G02*
X164685000Y-68625000I150000J0D01*
G01*
G37*
G36*
G01*
X165955000Y-68625000D02*
X166255000Y-68625000D01*
G75*
G02*
X166405000Y-68775000I0J-150000D01*
G01*
X166405000Y-70525000D01*
G75*
G02*
X166255000Y-70675000I-150000J0D01*
G01*
X165955000Y-70675000D01*
G75*
G02*
X165805000Y-70525000I0J150000D01*
G01*
X165805000Y-68775000D01*
G75*
G02*
X165955000Y-68625000I150000J0D01*
G01*
G37*
G36*
G01*
X167225000Y-68625000D02*
X167525000Y-68625000D01*
G75*
G02*
X167675000Y-68775000I0J-150000D01*
G01*
X167675000Y-70525000D01*
G75*
G02*
X167525000Y-70675000I-150000J0D01*
G01*
X167225000Y-70675000D01*
G75*
G02*
X167075000Y-70525000I0J150000D01*
G01*
X167075000Y-68775000D01*
G75*
G02*
X167225000Y-68625000I150000J0D01*
G01*
G37*
G36*
G01*
X168495000Y-68625000D02*
X168795000Y-68625000D01*
G75*
G02*
X168945000Y-68775000I0J-150000D01*
G01*
X168945000Y-70525000D01*
G75*
G02*
X168795000Y-70675000I-150000J0D01*
G01*
X168495000Y-70675000D01*
G75*
G02*
X168345000Y-70525000I0J150000D01*
G01*
X168345000Y-68775000D01*
G75*
G02*
X168495000Y-68625000I150000J0D01*
G01*
G37*
M02*
