G04 #@! TF.GenerationSoftware,KiCad,Pcbnew,5.1.6+dfsg1-1~bpo10+1*
G04 #@! TF.CreationDate,2020-10-16T21:04:19+02:00*
G04 #@! TF.ProjectId,PCB,5043422e-6b69-4636-9164-5f7063625858,rev?*
G04 #@! TF.SameCoordinates,Original*
G04 #@! TF.FileFunction,Soldermask,Bot*
G04 #@! TF.FilePolarity,Negative*
%FSLAX46Y46*%
G04 Gerber Fmt 4.6, Leading zero omitted, Abs format (unit mm)*
G04 Created by KiCad (PCBNEW 5.1.6+dfsg1-1~bpo10+1) date 2020-10-16 21:04:19*
%MOMM*%
%LPD*%
G01*
G04 APERTURE LIST*
%ADD10C,0.100000*%
G04 APERTURE END LIST*
D10*
G36*
X61900000Y-46600000D02*
G01*
X56100000Y-46600000D01*
X56100000Y-33100000D01*
X61900000Y-33100000D01*
X61900000Y-46600000D01*
G37*
X61900000Y-46600000D02*
X56100000Y-46600000D01*
X56100000Y-33100000D01*
X61900000Y-33100000D01*
X61900000Y-46600000D01*
G36*
X79900000Y-46600000D02*
G01*
X74100000Y-46600000D01*
X74100000Y-33100000D01*
X79900000Y-33100000D01*
X79900000Y-46600000D01*
G37*
X79900000Y-46600000D02*
X74100000Y-46600000D01*
X74100000Y-33100000D01*
X79900000Y-33100000D01*
X79900000Y-46600000D01*
G36*
X97900000Y-46600000D02*
G01*
X92100000Y-46600000D01*
X92100000Y-33100000D01*
X97900000Y-33100000D01*
X97900000Y-46600000D01*
G37*
X97900000Y-46600000D02*
X92100000Y-46600000D01*
X92100000Y-33100000D01*
X97900000Y-33100000D01*
X97900000Y-46600000D01*
G36*
X115900000Y-46600000D02*
G01*
X110100000Y-46600000D01*
X110100000Y-33100000D01*
X115900000Y-33100000D01*
X115900000Y-46600000D01*
G37*
X115900000Y-46600000D02*
X110100000Y-46600000D01*
X110100000Y-33100000D01*
X115900000Y-33100000D01*
X115900000Y-46600000D01*
G36*
X133900000Y-46600000D02*
G01*
X128100000Y-46600000D01*
X128100000Y-33100000D01*
X133900000Y-33100000D01*
X133900000Y-46600000D01*
G37*
X133900000Y-46600000D02*
X128100000Y-46600000D01*
X128100000Y-33100000D01*
X133900000Y-33100000D01*
X133900000Y-46600000D01*
G36*
X151900000Y-46600000D02*
G01*
X146100000Y-46600000D01*
X146100000Y-33100000D01*
X151900000Y-33100000D01*
X151900000Y-46600000D01*
G37*
X151900000Y-46600000D02*
X146100000Y-46600000D01*
X146100000Y-33100000D01*
X151900000Y-33100000D01*
X151900000Y-46600000D01*
G36*
X43900000Y-46600000D02*
G01*
X38100000Y-46600000D01*
X38100000Y-33100000D01*
X43900000Y-33100000D01*
X43900000Y-46600000D01*
G37*
X43900000Y-46600000D02*
X38100000Y-46600000D01*
X38100000Y-33100000D01*
X43900000Y-33100000D01*
X43900000Y-46600000D01*
G36*
X169900000Y-46600000D02*
G01*
X164100000Y-46600000D01*
X164100000Y-33100000D01*
X169900000Y-33100000D01*
X169900000Y-46600000D01*
G37*
X169900000Y-46600000D02*
X164100000Y-46600000D01*
X164100000Y-33100000D01*
X169900000Y-33100000D01*
X169900000Y-46600000D01*
G36*
X73268228Y-99301703D02*
G01*
X73423100Y-99365853D01*
X73562481Y-99458985D01*
X73681015Y-99577519D01*
X73774147Y-99716900D01*
X73838297Y-99871772D01*
X73871000Y-100036184D01*
X73871000Y-100203816D01*
X73838297Y-100368228D01*
X73774147Y-100523100D01*
X73681015Y-100662481D01*
X73562481Y-100781015D01*
X73423100Y-100874147D01*
X73268228Y-100938297D01*
X73103816Y-100971000D01*
X72936184Y-100971000D01*
X72771772Y-100938297D01*
X72616900Y-100874147D01*
X72477519Y-100781015D01*
X72358985Y-100662481D01*
X72265853Y-100523100D01*
X72201703Y-100368228D01*
X72169000Y-100203816D01*
X72169000Y-100036184D01*
X72201703Y-99871772D01*
X72265853Y-99716900D01*
X72358985Y-99577519D01*
X72477519Y-99458985D01*
X72616900Y-99365853D01*
X72771772Y-99301703D01*
X72936184Y-99269000D01*
X73103816Y-99269000D01*
X73268228Y-99301703D01*
G37*
G36*
X65648228Y-99301703D02*
G01*
X65803100Y-99365853D01*
X65942481Y-99458985D01*
X66061015Y-99577519D01*
X66154147Y-99716900D01*
X66218297Y-99871772D01*
X66251000Y-100036184D01*
X66251000Y-100203816D01*
X66218297Y-100368228D01*
X66154147Y-100523100D01*
X66061015Y-100662481D01*
X65942481Y-100781015D01*
X65803100Y-100874147D01*
X65648228Y-100938297D01*
X65483816Y-100971000D01*
X65316184Y-100971000D01*
X65151772Y-100938297D01*
X64996900Y-100874147D01*
X64857519Y-100781015D01*
X64738985Y-100662481D01*
X64645853Y-100523100D01*
X64581703Y-100368228D01*
X64549000Y-100203816D01*
X64549000Y-100036184D01*
X64581703Y-99871772D01*
X64645853Y-99716900D01*
X64738985Y-99577519D01*
X64857519Y-99458985D01*
X64996900Y-99365853D01*
X65151772Y-99301703D01*
X65316184Y-99269000D01*
X65483816Y-99269000D01*
X65648228Y-99301703D01*
G37*
G36*
X73268228Y-96761703D02*
G01*
X73423100Y-96825853D01*
X73562481Y-96918985D01*
X73681015Y-97037519D01*
X73774147Y-97176900D01*
X73838297Y-97331772D01*
X73871000Y-97496184D01*
X73871000Y-97663816D01*
X73838297Y-97828228D01*
X73774147Y-97983100D01*
X73681015Y-98122481D01*
X73562481Y-98241015D01*
X73423100Y-98334147D01*
X73268228Y-98398297D01*
X73103816Y-98431000D01*
X72936184Y-98431000D01*
X72771772Y-98398297D01*
X72616900Y-98334147D01*
X72477519Y-98241015D01*
X72358985Y-98122481D01*
X72265853Y-97983100D01*
X72201703Y-97828228D01*
X72169000Y-97663816D01*
X72169000Y-97496184D01*
X72201703Y-97331772D01*
X72265853Y-97176900D01*
X72358985Y-97037519D01*
X72477519Y-96918985D01*
X72616900Y-96825853D01*
X72771772Y-96761703D01*
X72936184Y-96729000D01*
X73103816Y-96729000D01*
X73268228Y-96761703D01*
G37*
G36*
X65648228Y-96761703D02*
G01*
X65803100Y-96825853D01*
X65942481Y-96918985D01*
X66061015Y-97037519D01*
X66154147Y-97176900D01*
X66218297Y-97331772D01*
X66251000Y-97496184D01*
X66251000Y-97663816D01*
X66218297Y-97828228D01*
X66154147Y-97983100D01*
X66061015Y-98122481D01*
X65942481Y-98241015D01*
X65803100Y-98334147D01*
X65648228Y-98398297D01*
X65483816Y-98431000D01*
X65316184Y-98431000D01*
X65151772Y-98398297D01*
X64996900Y-98334147D01*
X64857519Y-98241015D01*
X64738985Y-98122481D01*
X64645853Y-97983100D01*
X64581703Y-97828228D01*
X64549000Y-97663816D01*
X64549000Y-97496184D01*
X64581703Y-97331772D01*
X64645853Y-97176900D01*
X64738985Y-97037519D01*
X64857519Y-96918985D01*
X64996900Y-96825853D01*
X65151772Y-96761703D01*
X65316184Y-96729000D01*
X65483816Y-96729000D01*
X65648228Y-96761703D01*
G37*
G36*
X98860721Y-95770174D02*
G01*
X98960995Y-95811709D01*
X98960996Y-95811710D01*
X99051242Y-95872010D01*
X99127990Y-95948758D01*
X99127991Y-95948760D01*
X99188291Y-96039005D01*
X99229826Y-96139279D01*
X99251000Y-96245730D01*
X99251000Y-96354270D01*
X99229826Y-96460721D01*
X99188291Y-96560995D01*
X99188290Y-96560996D01*
X99127990Y-96651242D01*
X99051242Y-96727990D01*
X99049730Y-96729000D01*
X98960995Y-96788291D01*
X98860721Y-96829826D01*
X98754270Y-96851000D01*
X98645730Y-96851000D01*
X98539279Y-96829826D01*
X98439005Y-96788291D01*
X98350270Y-96729000D01*
X98348758Y-96727990D01*
X98272010Y-96651242D01*
X98211710Y-96560996D01*
X98211709Y-96560995D01*
X98170174Y-96460721D01*
X98149000Y-96354270D01*
X98149000Y-96245730D01*
X98170174Y-96139279D01*
X98211709Y-96039005D01*
X98272009Y-95948760D01*
X98272010Y-95948758D01*
X98348758Y-95872010D01*
X98439004Y-95811710D01*
X98439005Y-95811709D01*
X98539279Y-95770174D01*
X98645730Y-95749000D01*
X98754270Y-95749000D01*
X98860721Y-95770174D01*
G37*
G36*
X40006031Y-93564207D02*
G01*
X40180344Y-93617085D01*
X40204148Y-93624306D01*
X40270030Y-93659521D01*
X40386729Y-93721897D01*
X40546765Y-93853235D01*
X40678103Y-94013271D01*
X40678104Y-94013273D01*
X40775694Y-94195851D01*
X40775694Y-94195852D01*
X40775695Y-94195854D01*
X40835793Y-94393968D01*
X40851000Y-94548370D01*
X40851000Y-95651630D01*
X40835793Y-95806032D01*
X40810018Y-95891000D01*
X40775694Y-96004149D01*
X40757063Y-96039005D01*
X40678103Y-96186729D01*
X40546765Y-96346765D01*
X40386729Y-96478103D01*
X40300975Y-96523939D01*
X40204149Y-96575694D01*
X40204146Y-96575695D01*
X40006032Y-96635793D01*
X39800000Y-96656085D01*
X39593969Y-96635793D01*
X39395855Y-96575695D01*
X39395852Y-96575694D01*
X39299026Y-96523939D01*
X39213272Y-96478103D01*
X39053236Y-96346765D01*
X38921898Y-96186729D01*
X38896536Y-96139279D01*
X38824305Y-96004147D01*
X38764207Y-95806030D01*
X38749000Y-95651631D01*
X38749000Y-94548370D01*
X38764207Y-94393971D01*
X38764207Y-94393969D01*
X38824305Y-94195855D01*
X38824306Y-94195852D01*
X38859521Y-94129970D01*
X38921897Y-94013271D01*
X39053235Y-93853235D01*
X39213271Y-93721897D01*
X39299025Y-93676061D01*
X39395851Y-93624306D01*
X39419655Y-93617085D01*
X39593968Y-93564207D01*
X39800000Y-93543915D01*
X40006031Y-93564207D01*
G37*
G36*
X35851000Y-96651000D02*
G01*
X33749000Y-96651000D01*
X33749000Y-93549000D01*
X35851000Y-93549000D01*
X35851000Y-96651000D01*
G37*
G36*
X65648228Y-94221703D02*
G01*
X65803100Y-94285853D01*
X65942481Y-94378985D01*
X66061015Y-94497519D01*
X66154147Y-94636900D01*
X66218297Y-94791772D01*
X66251000Y-94956184D01*
X66251000Y-95123816D01*
X66218297Y-95288228D01*
X66154147Y-95443100D01*
X66061015Y-95582481D01*
X65942481Y-95701015D01*
X65803100Y-95794147D01*
X65648228Y-95858297D01*
X65483816Y-95891000D01*
X65316184Y-95891000D01*
X65151772Y-95858297D01*
X64996900Y-95794147D01*
X64857519Y-95701015D01*
X64738985Y-95582481D01*
X64645853Y-95443100D01*
X64581703Y-95288228D01*
X64549000Y-95123816D01*
X64549000Y-94956184D01*
X64581703Y-94791772D01*
X64645853Y-94636900D01*
X64738985Y-94497519D01*
X64857519Y-94378985D01*
X64996900Y-94285853D01*
X65151772Y-94221703D01*
X65316184Y-94189000D01*
X65483816Y-94189000D01*
X65648228Y-94221703D01*
G37*
G36*
X73268228Y-94221703D02*
G01*
X73423100Y-94285853D01*
X73562481Y-94378985D01*
X73681015Y-94497519D01*
X73774147Y-94636900D01*
X73838297Y-94791772D01*
X73871000Y-94956184D01*
X73871000Y-95123816D01*
X73838297Y-95288228D01*
X73774147Y-95443100D01*
X73681015Y-95582481D01*
X73562481Y-95701015D01*
X73423100Y-95794147D01*
X73268228Y-95858297D01*
X73103816Y-95891000D01*
X72936184Y-95891000D01*
X72771772Y-95858297D01*
X72616900Y-95794147D01*
X72477519Y-95701015D01*
X72358985Y-95582481D01*
X72265853Y-95443100D01*
X72201703Y-95288228D01*
X72169000Y-95123816D01*
X72169000Y-94956184D01*
X72201703Y-94791772D01*
X72265853Y-94636900D01*
X72358985Y-94497519D01*
X72477519Y-94378985D01*
X72616900Y-94285853D01*
X72771772Y-94221703D01*
X72936184Y-94189000D01*
X73103816Y-94189000D01*
X73268228Y-94221703D01*
G37*
G36*
X58038210Y-91678489D02*
G01*
X58124950Y-91704802D01*
X58204889Y-91747530D01*
X58274962Y-91805038D01*
X58332470Y-91875111D01*
X58375198Y-91955050D01*
X58401511Y-92041790D01*
X58411000Y-92138140D01*
X58411000Y-93301860D01*
X58401511Y-93398210D01*
X58375198Y-93484950D01*
X58332470Y-93564889D01*
X58274962Y-93634962D01*
X58204889Y-93692470D01*
X58124950Y-93735198D01*
X58038210Y-93761511D01*
X57941860Y-93771000D01*
X56778140Y-93771000D01*
X56681790Y-93761511D01*
X56595050Y-93735198D01*
X56515111Y-93692470D01*
X56445038Y-93634962D01*
X56387530Y-93564889D01*
X56344802Y-93484950D01*
X56318489Y-93398210D01*
X56309000Y-93301860D01*
X56309000Y-92138140D01*
X56318489Y-92041790D01*
X56344802Y-91955050D01*
X56387530Y-91875111D01*
X56445038Y-91805038D01*
X56515111Y-91747530D01*
X56595050Y-91704802D01*
X56681790Y-91678489D01*
X56778140Y-91669000D01*
X57941860Y-91669000D01*
X58038210Y-91678489D01*
G37*
G36*
X52958210Y-91678489D02*
G01*
X53044950Y-91704802D01*
X53124889Y-91747530D01*
X53194962Y-91805038D01*
X53252470Y-91875111D01*
X53295198Y-91955050D01*
X53321511Y-92041790D01*
X53331000Y-92138140D01*
X53331000Y-93301860D01*
X53321511Y-93398210D01*
X53295198Y-93484950D01*
X53252470Y-93564889D01*
X53194962Y-93634962D01*
X53124889Y-93692470D01*
X53044950Y-93735198D01*
X52958210Y-93761511D01*
X52861860Y-93771000D01*
X51698140Y-93771000D01*
X51601790Y-93761511D01*
X51515050Y-93735198D01*
X51435111Y-93692470D01*
X51365038Y-93634962D01*
X51307530Y-93564889D01*
X51264802Y-93484950D01*
X51238489Y-93398210D01*
X51229000Y-93301860D01*
X51229000Y-92138140D01*
X51238489Y-92041790D01*
X51264802Y-91955050D01*
X51307530Y-91875111D01*
X51365038Y-91805038D01*
X51435111Y-91747530D01*
X51515050Y-91704802D01*
X51601790Y-91678489D01*
X51698140Y-91669000D01*
X52861860Y-91669000D01*
X52958210Y-91678489D01*
G37*
G36*
X73268228Y-91681703D02*
G01*
X73423100Y-91745853D01*
X73562481Y-91838985D01*
X73681015Y-91957519D01*
X73774147Y-92096900D01*
X73838297Y-92251772D01*
X73871000Y-92416184D01*
X73871000Y-92583816D01*
X73838297Y-92748228D01*
X73774147Y-92903100D01*
X73681015Y-93042481D01*
X73562481Y-93161015D01*
X73423100Y-93254147D01*
X73268228Y-93318297D01*
X73103816Y-93351000D01*
X72936184Y-93351000D01*
X72771772Y-93318297D01*
X72616900Y-93254147D01*
X72477519Y-93161015D01*
X72358985Y-93042481D01*
X72265853Y-92903100D01*
X72201703Y-92748228D01*
X72169000Y-92583816D01*
X72169000Y-92416184D01*
X72201703Y-92251772D01*
X72265853Y-92096900D01*
X72358985Y-91957519D01*
X72477519Y-91838985D01*
X72616900Y-91745853D01*
X72771772Y-91681703D01*
X72936184Y-91649000D01*
X73103816Y-91649000D01*
X73268228Y-91681703D01*
G37*
G36*
X66251000Y-93351000D02*
G01*
X64549000Y-93351000D01*
X64549000Y-91649000D01*
X66251000Y-91649000D01*
X66251000Y-93351000D01*
G37*
G36*
X98860721Y-91370174D02*
G01*
X98960995Y-91411709D01*
X98960996Y-91411710D01*
X99051242Y-91472010D01*
X99127990Y-91548758D01*
X99158345Y-91594188D01*
X99188291Y-91639005D01*
X99229826Y-91739279D01*
X99251000Y-91845730D01*
X99251000Y-91954270D01*
X99229826Y-92060721D01*
X99188291Y-92160995D01*
X99188290Y-92160996D01*
X99127990Y-92251242D01*
X99051242Y-92327990D01*
X99005812Y-92358345D01*
X98960995Y-92388291D01*
X98860721Y-92429826D01*
X98754270Y-92451000D01*
X98645730Y-92451000D01*
X98539279Y-92429826D01*
X98439005Y-92388291D01*
X98394188Y-92358345D01*
X98348758Y-92327990D01*
X98272010Y-92251242D01*
X98211710Y-92160996D01*
X98211709Y-92160995D01*
X98170174Y-92060721D01*
X98149000Y-91954270D01*
X98149000Y-91845730D01*
X98170174Y-91739279D01*
X98211709Y-91639005D01*
X98241655Y-91594188D01*
X98272010Y-91548758D01*
X98348758Y-91472010D01*
X98439004Y-91411710D01*
X98439005Y-91411709D01*
X98539279Y-91370174D01*
X98645730Y-91349000D01*
X98754270Y-91349000D01*
X98860721Y-91370174D01*
G37*
G36*
X42506031Y-88564207D02*
G01*
X42704145Y-88624305D01*
X42704148Y-88624306D01*
X42770030Y-88659521D01*
X42886729Y-88721897D01*
X43046765Y-88853235D01*
X43178103Y-89013271D01*
X43178104Y-89013273D01*
X43275694Y-89195851D01*
X43275694Y-89195852D01*
X43275695Y-89195854D01*
X43335793Y-89393968D01*
X43351000Y-89548370D01*
X43351000Y-90651630D01*
X43335793Y-90806032D01*
X43275695Y-91004146D01*
X43275694Y-91004149D01*
X43223939Y-91100975D01*
X43178103Y-91186729D01*
X43046765Y-91346765D01*
X42886729Y-91478103D01*
X42800975Y-91523939D01*
X42704149Y-91575694D01*
X42704146Y-91575695D01*
X42506032Y-91635793D01*
X42300000Y-91656085D01*
X42093969Y-91635793D01*
X41895855Y-91575695D01*
X41895852Y-91575694D01*
X41799026Y-91523939D01*
X41713272Y-91478103D01*
X41553236Y-91346765D01*
X41421898Y-91186729D01*
X41399184Y-91144234D01*
X41324305Y-91004147D01*
X41264207Y-90806030D01*
X41249000Y-90651631D01*
X41249000Y-89548370D01*
X41264207Y-89393971D01*
X41264207Y-89393969D01*
X41324305Y-89195855D01*
X41324306Y-89195852D01*
X41359521Y-89129970D01*
X41421897Y-89013271D01*
X41553235Y-88853235D01*
X41713271Y-88721897D01*
X41799025Y-88676061D01*
X41895851Y-88624306D01*
X41895854Y-88624305D01*
X42093968Y-88564207D01*
X42300000Y-88543915D01*
X42506031Y-88564207D01*
G37*
G36*
X38351000Y-91651000D02*
G01*
X36249000Y-91651000D01*
X36249000Y-88549000D01*
X38351000Y-88549000D01*
X38351000Y-91651000D01*
G37*
G36*
X89153512Y-85543927D02*
G01*
X89302812Y-85573624D01*
X89466784Y-85641544D01*
X89614354Y-85740147D01*
X89739853Y-85865646D01*
X89838456Y-86013216D01*
X89906376Y-86177188D01*
X89941000Y-86351259D01*
X89941000Y-86528741D01*
X89906376Y-86702812D01*
X89838456Y-86866784D01*
X89739853Y-87014354D01*
X89614354Y-87139853D01*
X89466784Y-87238456D01*
X89302812Y-87306376D01*
X89153512Y-87336073D01*
X89128742Y-87341000D01*
X88951258Y-87341000D01*
X88926488Y-87336073D01*
X88777188Y-87306376D01*
X88613216Y-87238456D01*
X88465646Y-87139853D01*
X88340147Y-87014354D01*
X88241544Y-86866784D01*
X88173624Y-86702812D01*
X88139000Y-86528741D01*
X88139000Y-86351259D01*
X88173624Y-86177188D01*
X88241544Y-86013216D01*
X88340147Y-85865646D01*
X88465646Y-85740147D01*
X88613216Y-85641544D01*
X88777188Y-85573624D01*
X88926488Y-85543927D01*
X88951258Y-85539000D01*
X89128742Y-85539000D01*
X89153512Y-85543927D01*
G37*
G36*
X86613512Y-85543927D02*
G01*
X86762812Y-85573624D01*
X86926784Y-85641544D01*
X87074354Y-85740147D01*
X87199853Y-85865646D01*
X87298456Y-86013216D01*
X87366376Y-86177188D01*
X87401000Y-86351259D01*
X87401000Y-86528741D01*
X87366376Y-86702812D01*
X87298456Y-86866784D01*
X87199853Y-87014354D01*
X87074354Y-87139853D01*
X86926784Y-87238456D01*
X86762812Y-87306376D01*
X86613512Y-87336073D01*
X86588742Y-87341000D01*
X86411258Y-87341000D01*
X86386488Y-87336073D01*
X86237188Y-87306376D01*
X86073216Y-87238456D01*
X85925646Y-87139853D01*
X85800147Y-87014354D01*
X85701544Y-86866784D01*
X85633624Y-86702812D01*
X85599000Y-86528741D01*
X85599000Y-86351259D01*
X85633624Y-86177188D01*
X85701544Y-86013216D01*
X85800147Y-85865646D01*
X85925646Y-85740147D01*
X86073216Y-85641544D01*
X86237188Y-85573624D01*
X86386488Y-85543927D01*
X86411258Y-85539000D01*
X86588742Y-85539000D01*
X86613512Y-85543927D01*
G37*
G36*
X60578210Y-84058489D02*
G01*
X60664950Y-84084802D01*
X60744889Y-84127530D01*
X60814962Y-84185038D01*
X60872470Y-84255111D01*
X60915198Y-84335050D01*
X60941511Y-84421790D01*
X60951000Y-84518140D01*
X60951000Y-85681860D01*
X60941511Y-85778210D01*
X60915198Y-85864950D01*
X60872470Y-85944889D01*
X60814962Y-86014962D01*
X60744889Y-86072470D01*
X60664950Y-86115198D01*
X60578210Y-86141511D01*
X60481860Y-86151000D01*
X59318140Y-86151000D01*
X59221790Y-86141511D01*
X59135050Y-86115198D01*
X59055111Y-86072470D01*
X58985038Y-86014962D01*
X58927530Y-85944889D01*
X58884802Y-85864950D01*
X58858489Y-85778210D01*
X58849000Y-85681860D01*
X58849000Y-84518140D01*
X58858489Y-84421790D01*
X58884802Y-84335050D01*
X58927530Y-84255111D01*
X58985038Y-84185038D01*
X59055111Y-84127530D01*
X59135050Y-84084802D01*
X59221790Y-84058489D01*
X59318140Y-84049000D01*
X60481860Y-84049000D01*
X60578210Y-84058489D01*
G37*
G36*
X52958210Y-84058489D02*
G01*
X53044950Y-84084802D01*
X53124889Y-84127530D01*
X53194962Y-84185038D01*
X53252470Y-84255111D01*
X53295198Y-84335050D01*
X53321511Y-84421790D01*
X53331000Y-84518140D01*
X53331000Y-85681860D01*
X53321511Y-85778210D01*
X53295198Y-85864950D01*
X53252470Y-85944889D01*
X53194962Y-86014962D01*
X53124889Y-86072470D01*
X53044950Y-86115198D01*
X52958210Y-86141511D01*
X52861860Y-86151000D01*
X51698140Y-86151000D01*
X51601790Y-86141511D01*
X51515050Y-86115198D01*
X51435111Y-86072470D01*
X51365038Y-86014962D01*
X51307530Y-85944889D01*
X51264802Y-85864950D01*
X51238489Y-85778210D01*
X51229000Y-85681860D01*
X51229000Y-84518140D01*
X51238489Y-84421790D01*
X51264802Y-84335050D01*
X51307530Y-84255111D01*
X51365038Y-84185038D01*
X51435111Y-84127530D01*
X51515050Y-84084802D01*
X51601790Y-84058489D01*
X51698140Y-84049000D01*
X52861860Y-84049000D01*
X52958210Y-84058489D01*
G37*
G36*
X89153512Y-83003927D02*
G01*
X89302812Y-83033624D01*
X89466784Y-83101544D01*
X89614354Y-83200147D01*
X89739853Y-83325646D01*
X89838456Y-83473216D01*
X89906376Y-83637188D01*
X89941000Y-83811259D01*
X89941000Y-83988741D01*
X89906376Y-84162812D01*
X89838456Y-84326784D01*
X89739853Y-84474354D01*
X89614354Y-84599853D01*
X89466784Y-84698456D01*
X89302812Y-84766376D01*
X89153512Y-84796073D01*
X89128742Y-84801000D01*
X88951258Y-84801000D01*
X88926488Y-84796073D01*
X88777188Y-84766376D01*
X88613216Y-84698456D01*
X88465646Y-84599853D01*
X88340147Y-84474354D01*
X88241544Y-84326784D01*
X88173624Y-84162812D01*
X88139000Y-83988741D01*
X88139000Y-83811259D01*
X88173624Y-83637188D01*
X88241544Y-83473216D01*
X88340147Y-83325646D01*
X88465646Y-83200147D01*
X88613216Y-83101544D01*
X88777188Y-83033624D01*
X88926488Y-83003927D01*
X88951258Y-82999000D01*
X89128742Y-82999000D01*
X89153512Y-83003927D01*
G37*
G36*
X87401000Y-84801000D02*
G01*
X85599000Y-84801000D01*
X85599000Y-82999000D01*
X87401000Y-82999000D01*
X87401000Y-84801000D01*
G37*
G36*
X44985401Y-52646054D02*
G01*
X45473322Y-52743107D01*
X46392546Y-53123862D01*
X47219825Y-53676632D01*
X47923368Y-54380175D01*
X48476138Y-55207454D01*
X48856893Y-56126678D01*
X49051000Y-57102520D01*
X49051000Y-58097480D01*
X48856893Y-59073322D01*
X48476138Y-59992546D01*
X47923368Y-60819825D01*
X47219825Y-61523368D01*
X46392546Y-62076138D01*
X45473322Y-62456893D01*
X44985401Y-62553947D01*
X44497481Y-62651000D01*
X43502519Y-62651000D01*
X43014599Y-62553947D01*
X42526678Y-62456893D01*
X41607454Y-62076138D01*
X40780175Y-61523368D01*
X40076632Y-60819825D01*
X39523862Y-59992546D01*
X39143107Y-59073322D01*
X38949000Y-58097480D01*
X38949000Y-57102520D01*
X39143107Y-56126678D01*
X39523862Y-55207454D01*
X40076632Y-54380175D01*
X40780175Y-53676632D01*
X41607454Y-53123862D01*
X42526678Y-52743107D01*
X43014599Y-52646054D01*
X43502519Y-52549000D01*
X44497481Y-52549000D01*
X44985401Y-52646054D01*
G37*
G36*
X62985401Y-52646054D02*
G01*
X63473322Y-52743107D01*
X64392546Y-53123862D01*
X65219825Y-53676632D01*
X65923368Y-54380175D01*
X66476138Y-55207454D01*
X66856893Y-56126678D01*
X67051000Y-57102520D01*
X67051000Y-58097480D01*
X66856893Y-59073322D01*
X66476138Y-59992546D01*
X65923368Y-60819825D01*
X65219825Y-61523368D01*
X64392546Y-62076138D01*
X63473322Y-62456893D01*
X62985401Y-62553947D01*
X62497481Y-62651000D01*
X61502519Y-62651000D01*
X61014599Y-62553947D01*
X60526678Y-62456893D01*
X59607454Y-62076138D01*
X58780175Y-61523368D01*
X58076632Y-60819825D01*
X57523862Y-59992546D01*
X57143107Y-59073322D01*
X56949000Y-58097480D01*
X56949000Y-57102520D01*
X57143107Y-56126678D01*
X57523862Y-55207454D01*
X58076632Y-54380175D01*
X58780175Y-53676632D01*
X59607454Y-53123862D01*
X60526678Y-52743107D01*
X61014599Y-52646054D01*
X61502519Y-52549000D01*
X62497481Y-52549000D01*
X62985401Y-52646054D01*
G37*
G36*
X80985401Y-52646054D02*
G01*
X81473322Y-52743107D01*
X82392546Y-53123862D01*
X83219825Y-53676632D01*
X83923368Y-54380175D01*
X84476138Y-55207454D01*
X84856893Y-56126678D01*
X85051000Y-57102520D01*
X85051000Y-58097480D01*
X84856893Y-59073322D01*
X84476138Y-59992546D01*
X83923368Y-60819825D01*
X83219825Y-61523368D01*
X82392546Y-62076138D01*
X81473322Y-62456893D01*
X80985401Y-62553947D01*
X80497481Y-62651000D01*
X79502519Y-62651000D01*
X79014599Y-62553947D01*
X78526678Y-62456893D01*
X77607454Y-62076138D01*
X76780175Y-61523368D01*
X76076632Y-60819825D01*
X75523862Y-59992546D01*
X75143107Y-59073322D01*
X74949000Y-58097480D01*
X74949000Y-57102520D01*
X75143107Y-56126678D01*
X75523862Y-55207454D01*
X76076632Y-54380175D01*
X76780175Y-53676632D01*
X77607454Y-53123862D01*
X78526678Y-52743107D01*
X79014599Y-52646054D01*
X79502519Y-52549000D01*
X80497481Y-52549000D01*
X80985401Y-52646054D01*
G37*
G36*
X98985401Y-52646054D02*
G01*
X99473322Y-52743107D01*
X100392546Y-53123862D01*
X101219825Y-53676632D01*
X101923368Y-54380175D01*
X102476138Y-55207454D01*
X102856893Y-56126678D01*
X103051000Y-57102520D01*
X103051000Y-58097480D01*
X102856893Y-59073322D01*
X102476138Y-59992546D01*
X101923368Y-60819825D01*
X101219825Y-61523368D01*
X100392546Y-62076138D01*
X99473322Y-62456893D01*
X98985401Y-62553947D01*
X98497481Y-62651000D01*
X97502519Y-62651000D01*
X97014599Y-62553947D01*
X96526678Y-62456893D01*
X95607454Y-62076138D01*
X94780175Y-61523368D01*
X94076632Y-60819825D01*
X93523862Y-59992546D01*
X93143107Y-59073322D01*
X92949000Y-58097480D01*
X92949000Y-57102520D01*
X93143107Y-56126678D01*
X93523862Y-55207454D01*
X94076632Y-54380175D01*
X94780175Y-53676632D01*
X95607454Y-53123862D01*
X96526678Y-52743107D01*
X97014599Y-52646054D01*
X97502519Y-52549000D01*
X98497481Y-52549000D01*
X98985401Y-52646054D01*
G37*
G36*
X116985401Y-52646054D02*
G01*
X117473322Y-52743107D01*
X118392546Y-53123862D01*
X119219825Y-53676632D01*
X119923368Y-54380175D01*
X120476138Y-55207454D01*
X120856893Y-56126678D01*
X121051000Y-57102520D01*
X121051000Y-58097480D01*
X120856893Y-59073322D01*
X120476138Y-59992546D01*
X119923368Y-60819825D01*
X119219825Y-61523368D01*
X118392546Y-62076138D01*
X117473322Y-62456893D01*
X116985401Y-62553947D01*
X116497481Y-62651000D01*
X115502519Y-62651000D01*
X115014599Y-62553947D01*
X114526678Y-62456893D01*
X113607454Y-62076138D01*
X112780175Y-61523368D01*
X112076632Y-60819825D01*
X111523862Y-59992546D01*
X111143107Y-59073322D01*
X110949000Y-58097480D01*
X110949000Y-57102520D01*
X111143107Y-56126678D01*
X111523862Y-55207454D01*
X112076632Y-54380175D01*
X112780175Y-53676632D01*
X113607454Y-53123862D01*
X114526678Y-52743107D01*
X115014599Y-52646054D01*
X115502519Y-52549000D01*
X116497481Y-52549000D01*
X116985401Y-52646054D01*
G37*
G36*
X134985401Y-52646054D02*
G01*
X135473322Y-52743107D01*
X136392546Y-53123862D01*
X137219825Y-53676632D01*
X137923368Y-54380175D01*
X138476138Y-55207454D01*
X138856893Y-56126678D01*
X139051000Y-57102520D01*
X139051000Y-58097480D01*
X138856893Y-59073322D01*
X138476138Y-59992546D01*
X137923368Y-60819825D01*
X137219825Y-61523368D01*
X136392546Y-62076138D01*
X135473322Y-62456893D01*
X134985401Y-62553947D01*
X134497481Y-62651000D01*
X133502519Y-62651000D01*
X133014599Y-62553947D01*
X132526678Y-62456893D01*
X131607454Y-62076138D01*
X130780175Y-61523368D01*
X130076632Y-60819825D01*
X129523862Y-59992546D01*
X129143107Y-59073322D01*
X128949000Y-58097480D01*
X128949000Y-57102520D01*
X129143107Y-56126678D01*
X129523862Y-55207454D01*
X130076632Y-54380175D01*
X130780175Y-53676632D01*
X131607454Y-53123862D01*
X132526678Y-52743107D01*
X133014599Y-52646054D01*
X133502519Y-52549000D01*
X134497481Y-52549000D01*
X134985401Y-52646054D01*
G37*
G36*
X152985401Y-52646054D02*
G01*
X153473322Y-52743107D01*
X154392546Y-53123862D01*
X155219825Y-53676632D01*
X155923368Y-54380175D01*
X156476138Y-55207454D01*
X156856893Y-56126678D01*
X157051000Y-57102520D01*
X157051000Y-58097480D01*
X156856893Y-59073322D01*
X156476138Y-59992546D01*
X155923368Y-60819825D01*
X155219825Y-61523368D01*
X154392546Y-62076138D01*
X153473322Y-62456893D01*
X152985401Y-62553947D01*
X152497481Y-62651000D01*
X151502519Y-62651000D01*
X151014599Y-62553947D01*
X150526678Y-62456893D01*
X149607454Y-62076138D01*
X148780175Y-61523368D01*
X148076632Y-60819825D01*
X147523862Y-59992546D01*
X147143107Y-59073322D01*
X146949000Y-58097480D01*
X146949000Y-57102520D01*
X147143107Y-56126678D01*
X147523862Y-55207454D01*
X148076632Y-54380175D01*
X148780175Y-53676632D01*
X149607454Y-53123862D01*
X150526678Y-52743107D01*
X151014599Y-52646054D01*
X151502519Y-52549000D01*
X152497481Y-52549000D01*
X152985401Y-52646054D01*
G37*
G36*
X170985401Y-52646054D02*
G01*
X171473322Y-52743107D01*
X172392546Y-53123862D01*
X173219825Y-53676632D01*
X173923368Y-54380175D01*
X174476138Y-55207454D01*
X174856893Y-56126678D01*
X175051000Y-57102520D01*
X175051000Y-58097480D01*
X174856893Y-59073322D01*
X174476138Y-59992546D01*
X173923368Y-60819825D01*
X173219825Y-61523368D01*
X172392546Y-62076138D01*
X171473322Y-62456893D01*
X170985401Y-62553947D01*
X170497481Y-62651000D01*
X169502519Y-62651000D01*
X169014599Y-62553947D01*
X168526678Y-62456893D01*
X167607454Y-62076138D01*
X166780175Y-61523368D01*
X166076632Y-60819825D01*
X165523862Y-59992546D01*
X165143107Y-59073322D01*
X164949000Y-58097480D01*
X164949000Y-57102520D01*
X165143107Y-56126678D01*
X165523862Y-55207454D01*
X166076632Y-54380175D01*
X166780175Y-53676632D01*
X167607454Y-53123862D01*
X168526678Y-52743107D01*
X169014599Y-52646054D01*
X169502519Y-52549000D01*
X170497481Y-52549000D01*
X170985401Y-52646054D01*
G37*
M02*
