#VRML V2.0 utf8
DEF TXFM_1 Transform {
  center 0 0 0
  rotation 0 0 1 0
  scale 1 1 1
  scaleOrientation 0 0 1 0
  translation 0 0 0
 children [
DEF TXFM_2 Transform {
  center 0 0 0
  rotation 0 0 1 0
  scale 1 1 1
  scaleOrientation 0 0 1 0
  translation 0 0 0
 children [
DEF TXFM_3 Transform {
  center 0 0 0
  rotation 0 0 1 0
  scale 1 1 1
  scaleOrientation 0 0 1 0
  translation 0 0 0
 children [
DEF SHAPE_1 Shape {
 appearance DEF APP_1 Appearance {
  material Material {
   ambientIntensity 0.15548781
   diffuseColor 0.64313728 0.64313728 0.64313728
   emissiveColor 0 0 0
   shininess 0.1
   specularColor 0.12 0.12 0.12
   transparency 0
} }
 geometry DEF FACE_1 IndexedFaceSet {
  coord DEF COORD_1 Coordinate { point [
  0.0019685039 -0.12007874 -0.94488189,0.0019685039 -0.12007874 -0.94488189,
  -0.029897256 -0.11569889 -0.94488189,-0.059399679 -0.10288418 -0.94488189,
  -0.084350704 -0.082585017 -0.94488189,-0.10289983 -0.056306894 -0.94488189,
  -0.11367135 -0.025998742 -0.94488189,-0.11586639 0.0060916236 -0.94488189,
  -0.10932216 0.037584206 -0.94488189,-0.094524003 0.066143345 -0.94488189,
  -0.072569442 0.08965094 -0.94488189,-0.045086743 0.10636354 -0.94488189,
  -0.014114171 0.11504165 -0.94488189,0.018051179 0.11504165 -0.94488189,
  0.049023751 0.10636354 -0.94488189,0.07650645 0.08965094 -0.94488189,
  0.098461011 0.066143345 -0.94488189,0.11325916 0.037584206 -0.94488189,
  0.1198034 0.0060916236 -0.94488189,0.11760836 -0.025998742 -0.94488189,
  0.10683684 -0.056306894 -0.94488189,0.088287712 -0.082585017 -0.94488189,
  0.063336687 -0.10288418 -0.94488189,0.033834264 -0.11569889 -0.94488189,
  0.0019685039 -0.12007874 0.39370079,0.0019685039 -0.12007874 0.39370079,
  0.033834264 -0.11569889 0.39370079,0.063336687 -0.10288418 0.39370079,
  0.088287712 -0.082585017 0.39370079,0.10683684 -0.056306894 0.39370079,
  0.11760836 -0.025998742 0.39370079,0.1198034 0.0060916236 0.39370079,
  0.11325916 0.037584206 0.39370079,0.098461011 0.066143345 0.39370079,
  0.07650645 0.08965094 0.39370079,0.049023751 0.10636354 0.39370079,
  0.018051179 0.11504165 0.39370079,-0.014114171 0.11504165 0.39370079,
  -0.045086743 0.10636354 0.39370079,-0.072569442 0.08965094 0.39370079,
  -0.094524003 0.066143345 0.39370079,-0.10932216 0.037584206 0.39370079,
  -0.11586639 0.0060916236 0.39370079,-0.11367135 -0.025998742 0.39370079,
  -0.10289983 -0.056306894 0.39370079,-0.084350704 -0.082585017 0.39370079,
  -0.059399679 -0.10288418 0.39370079,-0.029897256 -0.11569889 0.39370079] }
 coordIndex [
  20,30,29,-1,20,19,30,-1,21,28,27,-1,21,29,28,-1,21,20,29,-1,0,24,47,-1,22,27,26,-1,22,21,27,-1,
  2,0,47,-1,23,26,25,-1,23,22,26,-1,1,23,25,-1,3,47,46,-1,3,2,47,-1,4,46,45,-1,4,3,46,-1,
  5,45,44,-1,5,4,45,-1,6,44,43,-1,6,5,44,-1,7,43,42,-1,7,6,43,-1,8,42,41,-1,8,7,42,-1,
  9,41,40,-1,9,8,41,-1,10,40,39,-1,10,9,40,-1,11,39,38,-1,11,10,39,-1,12,38,37,-1,12,11,38,-1,
  13,37,36,-1,13,12,37,-1,14,13,36,-1,14,36,35,-1,15,14,35,-1,15,35,34,-1,16,15,34,-1,16,34,33,-1,
  17,16,33,-1,17,33,32,-1,18,17,32,-1,18,32,31,-1,19,18,31,-1,19,31,30,-1]
  normalPerVertex TRUE
  normal DEF NORM_1 Normal { vector [
  -0.13616665 -0.99068595 0,0.13616665 -0.99068595 0,
  -0.26979677 -0.96291729 0,-0.47993476 -0.87730418 0,
  -0.69883131 -0.71528652 0,-0.86589874 -0.50021932 0,
  -0.96874643 -0.24805315 0,-0.99974662 0.022509995 0,
  -0.95660018 0.29140367 0,-0.84250708 0.53868527 0,
  -0.66592908 0.74601505 0,-0.43996217 0.89801631 0,
  -0.18136528 0.9834158 0,0.090682641 0.99587984 0,
  0.35600505 0.93448403 0,0.59492419 0.80378182 0,
  0.78972053 0.61346678 0,0.9259469 0.37765372 0,
  0.99350003 0.11383181 0,0.98736981 -0.15843248 0,
  0.90801089 -0.41894656 0,0.73083596 -0.68255314 0,
  0.47993476 -0.87730418 0,0.22544364 -0.97425621 0,
  -0.13616665 -0.99068595 0,0.13616665 -0.99068595 0,
  0.31358447 -0.94956031 0,0.55814421 -0.82974396 0,
  0.73083596 -0.68255314 0,0.86589874 -0.50021932 0,
  0.96874643 -0.24805315 0,0.99974662 0.022509995 0,
  0.95660018 0.29140367 0,0.84250708 0.53868527 0,
  0.66592908 0.74601505 0,0.43996217 0.89801631 0,
  0.18136528 0.9834158 0,-0.090682641 0.99587984 0,
  -0.35600505 0.93448403 0,-0.59492419 0.80378182 0,
  -0.78972053 0.61346678 0,-0.9259469 0.37765372 0,
  -0.99350003 0.11383181 0,-0.98736981 -0.15843248 0,
  -0.90801089 -0.41894656 0,-0.76130895 -0.6483893 0,
  -0.55814421 -0.82974396 0,-0.26979677 -0.96291729 0] }
}
}
DEF SHAPE_2 Shape {
 appearance USE APP_1
 geometry DEF FACE_2 IndexedFaceSet {
  coord DEF COORD_2 Coordinate { point [
  0.0019685039 -0.12007874 0.39370079,0.033834264 -0.11569889 0.39370079,
  0.063336687 -0.10288418 0.39370079,0.088287712 -0.082585017 0.39370079,
  0.10683684 -0.056306894 0.39370079,0.11760836 -0.025998742 0.39370079,
  0.1198034 0.0060916236 0.39370079,0.11325916 0.037584206 0.39370079,
  0.098461011 0.066143345 0.39370079,0.07650645 0.08965094 0.39370079,
  0.049023751 0.10636354 0.39370079,0.018051179 0.11504165 0.39370079,
  -0.014114171 0.11504165 0.39370079,-0.045086743 0.10636354 0.39370079,
  -0.072569442 0.08965094 0.39370079,-0.094524003 0.066143345 0.39370079,
  -0.10932216 0.037584206 0.39370079,-0.11586639 0.0060916236 0.39370079,
  -0.11367135 -0.025998742 0.39370079,-0.10289983 -0.056306894 0.39370079,
  -0.084350704 -0.082585017 0.39370079,-0.059399679 -0.10288418 0.39370079,
  -0.029897256 -0.11569889 0.39370079] }
 coordIndex [
  5,2,3,-1,5,3,4,-1,22,0,1,-1,7,5,6,-1,21,22,1,-1,8,5,7,-1,20,1,2,-1,20,21,1,-1,
  18,8,9,-1,18,9,10,-1,18,19,20,-1,18,2,5,-1,18,20,2,-1,18,5,8,-1,12,10,11,-1,16,17,18,-1,
  14,12,13,-1,14,15,16,-1,14,18,10,-1,14,10,12,-1,14,16,18,-1]
  normalPerVertex TRUE
  normal DEF NORM_2 Normal { vector [
  0 0 1,0 0 1,
  0 0 1,0 0 1,
  0 0 1,0 0 1,
  0 0 1,0 0 1,
  0 0 1,0 0 1,
  0 0 1,0 0 1,
  0 0 1,0 0 1,
  0 0 1,0 0 1,
  0 0 1,0 0 1,
  0 0 1,0 0 1,
  0 0 1,0 0 1,
  0 0 1] }
}
}
DEF SHAPE_3 Shape {
 appearance USE APP_1
 geometry DEF FACE_3 IndexedFaceSet {
  coord DEF COORD_3 Coordinate { point [
  0.0019685039 -0.12007874 -0.94488189,-0.029897256 -0.11569889 -0.94488189,
  -0.059399679 -0.10288418 -0.94488189,-0.084350704 -0.082585017 -0.94488189,
  -0.10289983 -0.056306894 -0.94488189,-0.11367135 -0.025998742 -0.94488189,
  -0.11586639 0.0060916236 -0.94488189,-0.10932216 0.037584206 -0.94488189,
  -0.094524003 0.066143345 -0.94488189,-0.072569442 0.08965094 -0.94488189,
  -0.045086743 0.10636354 -0.94488189,-0.014114171 0.11504165 -0.94488189,
  0.018051179 0.11504165 -0.94488189,0.049023751 0.10636354 -0.94488189,
  0.07650645 0.08965094 -0.94488189,0.098461011 0.066143345 -0.94488189,
  0.11325916 0.037584206 -0.94488189,0.1198034 0.0060916236 -0.94488189,
  0.11760836 -0.025998742 -0.94488189,0.10683684 -0.056306894 -0.94488189,
  0.088287712 -0.082585017 -0.94488189,0.063336687 -0.10288418 -0.94488189,
  0.033834264 -0.11569889 -0.94488189] }
 coordIndex [
  19,20,21,-1,1,21,22,-1,1,22,0,-1,1,19,21,-1,2,19,1,-1,14,15,16,-1,4,2,3,-1,5,17,18,-1,
  5,18,19,-1,5,19,2,-1,5,2,4,-1,12,13,14,-1,7,5,6,-1,7,16,17,-1,7,14,16,-1,7,17,5,-1,
  10,11,12,-1,10,12,14,-1,9,7,8,-1,9,14,7,-1,9,10,14,-1]
  normalPerVertex TRUE
  normal DEF NORM_3 Normal { vector [
  0 0 -1,0 0 -1,
  0 0 -1,0 0 -1,
  0 0 -1,0 0 -1,
  0 0 -1,0 0 -1,
  0 0 -1,0 0 -1,
  0 0 -1,0 0 -1,
  0 0 -1,0 0 -1,
  0 0 -1,0 0 -1,
  0 0 -1,0 0 -1,
  0 0 -1,0 0 -1,
  0 0 -1,0 0 -1,
  0 0 -1] }
}
}
] }
DEF TXFM_4 Transform {
  center 0 0 0
  rotation 0 0 1 0
  scale 1 1 1
  scaleOrientation 0 0 1 0
  translation 0 0 0
 children [
DEF SHAPE_4 Shape {
 appearance USE APP_1
 geometry DEF FACE_4 IndexedFaceSet {
  coord DEF COORD_4 Coordinate { point [
  0.0019685039 -3.2106299 -0.94488189,0.0019685039 -3.2106299 -0.94488189,
  -0.029897256 -3.2062501 -0.94488189,-0.059399679 -3.1934354 -0.94488189,
  -0.084350704 -3.1731362 -0.94488189,-0.10289983 -3.1468581 -0.94488189,
  -0.11367135 -3.1165499 -0.94488189,-0.11586639 -3.0844596 -0.94488189,
  -0.10932216 -3.052967 -0.94488189,-0.094524003 -3.0244078 -0.94488189,
  -0.072569442 -3.0009002 -0.94488189,-0.045086743 -2.9841876 -0.94488189,
  -0.014114171 -2.9755095 -0.94488189,0.018051179 -2.9755095 -0.94488189,
  0.049023751 -2.9841876 -0.94488189,0.07650645 -3.0009002 -0.94488189,
  0.098461011 -3.0244078 -0.94488189,0.11325916 -3.052967 -0.94488189,
  0.1198034 -3.0844596 -0.94488189,0.11760836 -3.1165499 -0.94488189,
  0.10683684 -3.1468581 -0.94488189,0.088287712 -3.1731362 -0.94488189,
  0.063336687 -3.1934354 -0.94488189,0.033834264 -3.2062501 -0.94488189,
  0.0019685039 -3.2106299 0.39370079,0.0019685039 -3.2106299 0.39370079,
  0.033834264 -3.2062501 0.39370079,0.063336687 -3.1934354 0.39370079,
  0.088287712 -3.1731362 0.39370079,0.10683684 -3.1468581 0.39370079,
  0.11760836 -3.1165499 0.39370079,0.1198034 -3.0844596 0.39370079,
  0.11325916 -3.052967 0.39370079,0.098461011 -3.0244078 0.39370079,
  0.07650645 -3.0009002 0.39370079,0.049023751 -2.9841876 0.39370079,
  0.018051179 -2.9755095 0.39370079,-0.014114171 -2.9755095 0.39370079,
  -0.045086743 -2.9841876 0.39370079,-0.072569442 -3.0009002 0.39370079,
  -0.094524003 -3.0244078 0.39370079,-0.10932216 -3.052967 0.39370079,
  -0.11586639 -3.0844596 0.39370079,-0.11367135 -3.1165499 0.39370079,
  -0.10289983 -3.1468581 0.39370079,-0.084350704 -3.1731362 0.39370079,
  -0.059399679 -3.1934354 0.39370079,-0.029897256 -3.2062501 0.39370079] }
 coordIndex [
  20,19,30,-1,21,29,28,-1,21,20,29,-1,0,24,47,-1,22,27,26,-1,22,28,27,-1,22,21,28,-1,2,47,46,-1,
  2,0,47,-1,23,26,25,-1,23,22,26,-1,1,23,25,-1,3,2,46,-1,4,46,45,-1,4,3,46,-1,5,45,44,-1,
  5,4,45,-1,6,44,43,-1,6,5,44,-1,7,43,42,-1,7,6,43,-1,8,42,41,-1,8,7,42,-1,9,41,40,-1,
  9,8,41,-1,10,40,39,-1,10,9,40,-1,11,39,38,-1,11,10,39,-1,12,38,37,-1,12,11,38,-1,13,37,36,-1,
  13,12,37,-1,14,13,36,-1,14,36,35,-1,15,14,35,-1,15,35,34,-1,16,15,34,-1,16,34,33,-1,17,16,33,-1,
  17,33,32,-1,18,17,32,-1,18,32,31,-1,19,18,31,-1,19,31,30,-1,20,30,29,-1]
  normalPerVertex TRUE
  normal DEF NORM_4 Normal { vector [
  -0.13616665 -0.99068595 0,0.13616665 -0.99068595 0,
  -0.31358447 -0.94956031 0,-0.51958395 -0.8544194 0,
  -0.69883131 -0.71528652 0,-0.86589874 -0.50021932 0,
  -0.96874643 -0.24805315 0,-0.99974662 0.022509995 0,
  -0.95660018 0.29140367 0,-0.84250708 0.53868527 0,
  -0.66592908 0.74601505 0,-0.43996217 0.89801631 0,
  -0.18136528 0.9834158 0,0.090682641 0.99587984 0,
  0.35600505 0.93448403 0,0.59492419 0.80378182 0,
  0.78972053 0.61346678 0,0.9259469 0.37765372 0,
  0.99350003 0.11383181 0,0.98736981 -0.15843248 0,
  0.90801089 -0.41894656 0,0.76130895 -0.6483893 0,
  0.51958395 -0.8544194 0,0.22544364 -0.97425621 0,
  -0.13616665 -0.99068595 0,0.13616665 -0.99068595 0,
  0.31358447 -0.94956031 0,0.51958395 -0.8544194 0,
  0.69883131 -0.71528652 0,0.86589874 -0.50021932 0,
  0.96874643 -0.24805315 0,0.99974662 0.022509995 0,
  0.95660018 0.29140367 0,0.84250708 0.53868527 0,
  0.66592908 0.74601505 0,0.43996217 0.89801631 0,
  0.18136528 0.9834158 0,-0.090682641 0.99587984 0,
  -0.35600505 0.93448403 0,-0.59492419 0.80378182 0,
  -0.78972053 0.61346678 0,-0.9259469 0.37765372 0,
  -0.99350003 0.11383181 0,-0.98736981 -0.15843248 0,
  -0.90801089 -0.41894656 0,-0.76130895 -0.6483893 0,
  -0.51958395 -0.8544194 0,-0.22544364 -0.97425621 0] }
}
}
DEF SHAPE_5 Shape {
 appearance USE APP_1
 geometry DEF FACE_5 IndexedFaceSet {
  coord DEF COORD_5 Coordinate { point [
  0.0019685039 -3.2106299 0.39370079,0.033834264 -3.2062501 0.39370079,
  0.063336687 -3.1934354 0.39370079,0.088287712 -3.1731362 0.39370079,
  0.10683684 -3.1468581 0.39370079,0.11760836 -3.1165499 0.39370079,
  0.1198034 -3.0844596 0.39370079,0.11325916 -3.052967 0.39370079,
  0.098461011 -3.0244078 0.39370079,0.07650645 -3.0009002 0.39370079,
  0.049023751 -2.9841876 0.39370079,0.018051179 -2.9755095 0.39370079,
  -0.014114171 -2.9755095 0.39370079,-0.045086743 -2.9841876 0.39370079,
  -0.072569442 -3.0009002 0.39370079,-0.094524003 -3.0244078 0.39370079,
  -0.10932216 -3.052967 0.39370079,-0.11586639 -3.0844596 0.39370079,
  -0.11367135 -3.1165499 0.39370079,-0.10289983 -3.1468581 0.39370079,
  -0.084350704 -3.1731362 0.39370079,-0.059399679 -3.1934354 0.39370079,
  -0.029897256 -3.2062501 0.39370079] }
 coordIndex [
  0,1,2,-1,0,2,3,-1,0,3,4,-1,0,4,5,-1,7,5,6,-1,21,22,0,-1,8,0,5,-1,8,5,7,-1,
  20,21,0,-1,19,20,0,-1,10,8,9,-1,10,0,8,-1,11,0,10,-1,17,18,19,-1,17,19,0,-1,12,0,11,-1,
  15,16,17,-1,15,17,0,-1,14,12,13,-1,14,0,12,-1,14,15,0,-1]
  normalPerVertex TRUE
  normal DEF NORM_5 Normal { vector [
  0 0 1,0 0 1,
  0 0 1,0 0 1,
  0 0 1,0 0 1,
  0 0 1,0 0 1,
  0 0 1,0 0 1,
  0 0 1,0 0 1,
  0 0 1,0 0 1,
  0 0 1,0 0 1,
  0 0 1,0 0 1,
  0 0 1,0 0 1,
  0 0 1,0 0 1,
  0 0 1] }
}
}
DEF SHAPE_6 Shape {
 appearance USE APP_1
 geometry DEF FACE_6 IndexedFaceSet {
  coord DEF COORD_6 Coordinate { point [
  0.0019685039 -3.2106299 -0.94488189,-0.029897256 -3.2062501 -0.94488189,
  -0.059399679 -3.1934354 -0.94488189,-0.084350704 -3.1731362 -0.94488189,
  -0.10289983 -3.1468581 -0.94488189,-0.11367135 -3.1165499 -0.94488189,
  -0.11586639 -3.0844596 -0.94488189,-0.10932216 -3.052967 -0.94488189,
  -0.094524003 -3.0244078 -0.94488189,-0.072569442 -3.0009002 -0.94488189,
  -0.045086743 -2.9841876 -0.94488189,-0.014114171 -2.9755095 -0.94488189,
  0.018051179 -2.9755095 -0.94488189,0.049023751 -2.9841876 -0.94488189,
  0.07650645 -3.0009002 -0.94488189,0.098461011 -3.0244078 -0.94488189,
  0.11325916 -3.052967 -0.94488189,0.1198034 -3.0844596 -0.94488189,
  0.11760836 -3.1165499 -0.94488189,0.10683684 -3.1468581 -0.94488189,
  0.088287712 -3.1731362 -0.94488189,0.063336687 -3.1934354 -0.94488189,
  0.033834264 -3.2062501 -0.94488189] }
 coordIndex [
  0,18,19,-1,0,19,20,-1,0,20,21,-1,0,21,22,-1,17,18,0,-1,16,17,0,-1,2,0,1,-1,15,16,0,-1,
  3,0,2,-1,4,0,3,-1,5,0,4,-1,12,13,14,-1,12,14,15,-1,12,15,0,-1,11,12,0,-1,10,11,0,-1,
  8,5,6,-1,8,6,7,-1,8,0,5,-1,8,10,0,-1,9,10,8,-1]
  normalPerVertex TRUE
  normal DEF NORM_6 Normal { vector [
  0 0 -1,0 0 -1,
  0 0 -1,0 0 -1,
  0 0 -1,0 0 -1,
  0 0 -1,0 0 -1,
  0 0 -1,0 0 -1,
  0 0 -1,0 0 -1,
  0 0 -1,0 0 -1,
  0 0 -1,0 0 -1,
  0 0 -1,0 0 -1,
  0 0 -1,0 0 -1,
  0 0 -1,0 0 -1,
  0 0 -1] }
}
}
] }
DEF TXFM_5 Transform {
  center 0 0 0
  rotation 0 0 1 0
  scale 1 1 1
  scaleOrientation 0 0 1 0
  translation 0 0 0
 children [
DEF SHAPE_7 Shape {
 appearance DEF APP_2 Appearance {
  material Material {
   ambientIntensity 0.79687494
   diffuseColor 0.1254902 0.1254902 0.1254902
   emissiveColor 0 0 0
   shininess 0.1
   specularColor 0.12 0.12 0.12
   transparency 0
} }
 geometry DEF FACE_7 IndexedFaceSet {
  coord DEF COORD_7 Coordinate { point [
  -1.8582677 -1.5472441 0.68897638,1.5003931 -2.6496063 0.68897638,
  -1.7865442 -2.0588114 0.68897638,-1.5769044 -2.5309305 0.68897638,
  -1.2455142 -2.9271954 0.68897638,-0.81792775 -3.2170492 0.68897638,
  -0.32711725 -3.3781404 0.68897638,0.1890698 -3.3980471 0.68897638,
  0.69082904 -3.2752342 0.68897638,1.1394687 -3.0191721 0.68897638,
  1.7399454 -2.2105049 0.68897638,1.8538407 -1.7234493 0.68897638,
  1.8338441 -1.2236539 0.68897638,1.6814015 -0.74725432 0.68897638,
  1.4075346 -0.32869462 0.68897638,1.0320441 0.0017630068 0.68897638,
  0.58207842 0.22022621 0.68897638,0.090170311 0.31089994 0.68897638,
  -0.40811486 0.2672284 0.68897638,-0.87675068 0.092369089 0.68897638,
  -1.2818544 -0.20103553 0.68897638,-1.5941368 -0.59177208 0.68897638,
  -1.7910195 -1.05159 0.68897638] }
 coordIndex [
  5,4,3,-1,22,2,0,-1,21,2,22,-1,20,3,2,-1,20,5,3,-1,20,2,21,-1,11,1,9,-1,11,10,1,-1,
  12,11,9,-1,16,6,5,-1,16,7,6,-1,16,8,7,-1,16,9,8,-1,16,18,17,-1,16,19,18,-1,16,20,19,-1,
  16,5,20,-1,14,13,12,-1,14,16,15,-1,14,9,16,-1,14,12,9,-1]
  normalPerVertex TRUE
  normal DEF NORM_7 Normal { vector [
  0 0 -1,0 0 -1,
  0 0 -1,0 0 -1,
  0 0 -1,0 0 -1,
  0 0 -1,0 0 -1,
  0 0 -1,0 0 -1,
  0 0 -1,0 0 -1,
  0 0 -1,0 0 -1,
  0 0 -1,0 0 -1,
  0 0 -1,0 0 -1,
  0 0 -1,0 0 -1,
  0 0 -1,0 0 -1,
  0 0 -1] }
}
}
DEF SHAPE_8 Shape {
 appearance USE APP_2
 geometry DEF FACE_8 IndexedFaceSet {
  coord DEF COORD_8 Coordinate { point [
  -1.4964561 -0.44488189 0.29527559,-1.4964561 -2.6496063 0.29527559,
  -1.7655018 -0.96713418 0.29527559,-1.8582677 -1.5472441 0.29527559,
  -1.7655018 -2.127354 0.29527559,-2.0537991 -2.6496063 0.29527559,
  -2.0537991 -0.44488189 0.29527559,-2.2993825 -1.1662373 0.29527559,
  -2.2993825 -1.9282509 0.29527559] }
 coordIndex [
  4,1,5,-1,4,5,8,-1,3,8,7,-1,3,4,8,-1,2,3,7,-1,6,2,7,-1,0,2,6,-1]
  normalPerVertex TRUE
  normal DEF NORM_8 Normal { vector [
  0 0 -1,0 0 -1,
  0 0 -1,0 0 -1,
  0 0 -1,0 0 -1,
  0 0 -1,0 0 -1,
  0 0 -1] }
}
}
DEF SHAPE_9 Shape {
 appearance USE APP_2
 geometry DEF FACE_9 IndexedFaceSet {
  coord DEF COORD_9 Coordinate { point [
  -2.0537991 -2.6496063 0,-1.4964561 -2.6496063 0,
  -2.0537991 -2.6496063 0.29527559,-1.4964561 -2.6496063 0.29527559] }
 coordIndex [
  3,1,0,-1,3,0,2,-1]
  normalPerVertex TRUE
  normal DEF NORM_9 Normal { vector [
  0 1 0,0 1 0,
  0 1 0,0 1 0] }
}
}
DEF SHAPE_10 Shape {
 appearance USE APP_2
 geometry DEF FACE_10 IndexedFaceSet {
  coord DEF COORD_10 Coordinate { point [
  -1.4964561 -0.44488189 0,-2.0537991 -0.44488189 0,
  -1.4964561 -0.44488189 0.29527559,-2.0537991 -0.44488189 0.29527559] }
 coordIndex [
  3,1,0,-1,3,0,2,-1]
  normalPerVertex TRUE
  normal DEF NORM_10 Normal { vector [
  0 -1 0,0 -1 0,
  0 -1 0,0 -1 0] }
}
}
DEF SHAPE_11 Shape {
 appearance USE APP_2
 geometry DEF FACE_11 IndexedFaceSet {
  coord DEF COORD_11 Coordinate { point [
  -1.4964561 -0.44488189 0,-1.4964561 -0.44488189 0.29527559,
  -1.4964561 -2.6496063 0.29527559,-1.7655018 -0.96713418 0.29527559,
  -1.8582677 -1.5472441 0.29527559,-1.7655018 -2.127354 0.29527559,
  -1.4964561 -2.6496063 0,1.5003931 -2.6496063 0,
  -1.1516729 -3.0065557 0,-0.72478289 -3.2596433 0,
  -0.24616875 -3.3908565 0,0.25010576 -3.3908565 0,
  0.7287199 -3.2596433 0,1.1556099 -3.0065557 0,
  1.5003931 -2.6496063 0.29527559,1.5003931 -2.6496063 0.68897638,
  -1.8582677 -1.5472441 0.68897638,-1.7865442 -2.0588114 0.68897638,
  -1.5769044 -2.5309305 0.68897638,-1.2455142 -2.9271954 0.68897638,
  -0.81792775 -3.2170492 0.68897638,-0.32711725 -3.3781404 0.68897638,
  0.1890698 -3.3980471 0.68897638,0.69082904 -3.2752342 0.68897638,
  1.1394687 -3.0191721 0.68897638,1.5003931 -2.6496063 0.68897638,
  1.7399454 -2.2105049 0.68897638,1.8538407 -1.7234493 0.68897638,
  1.8338441 -1.2236539 0.68897638,1.6814015 -0.74725432 0.68897638,
  1.4075346 -0.32869462 0.68897638,1.0320441 0.0017630068 0.68897638,
  0.58207842 0.22022621 0.68897638,0.090170311 0.31089994 0.68897638,
  -0.40811486 0.2672284 0.68897638,-0.87675068 0.092369089 0.68897638,
  -1.2818544 -0.20103553 0.68897638,-1.5941368 -0.59177208 0.68897638,
  -1.7910195 -1.05159 0.68897638,1.5003931 -2.6496063 0.29527559,
  1.5003931 -0.44488189 0.29527559,1.7694388 -2.127354 0.29527559,
  1.8622047 -1.5472441 0.29527559,1.7694388 -0.96713418 0.29527559,
  1.5003931 -0.44488189 0,1.1556099 -0.087932473 0,
  0.7287199 0.16515516 0,0.25010576 0.29636831 0,
  -0.24616875 0.29636831 0,-0.72478289 0.16515516 0,
  -1.1516729 -0.087932473 0] }
 coordIndex [
  20,9,8,-1,20,8,19,-1,21,10,9,-1,21,9,20,-1,26,39,25,-1,26,41,39,-1,22,11,10,-1,22,10,21,-1,
  27,42,41,-1,27,41,26,-1,23,12,11,-1,23,11,22,-1,14,7,13,-1,28,43,42,-1,24,13,12,-1,28,42,27,-1,
  24,12,23,-1,24,14,13,-1,15,14,24,-1,45,44,40,-1,29,40,43,-1,29,43,28,-1,30,40,29,-1,31,46,45,-1,
  31,45,40,-1,31,40,30,-1,32,47,46,-1,32,46,31,-1,33,48,47,-1,33,47,32,-1,34,49,48,-1,34,48,33,-1,
  35,50,49,-1,35,49,34,-1,1,0,50,-1,36,1,50,-1,36,50,35,-1,37,3,1,-1,37,1,36,-1,38,4,3,-1,
  38,3,37,-1,16,4,38,-1,17,5,4,-1,17,4,16,-1,8,6,2,-1,18,2,5,-1,18,5,17,-1,19,8,2,-1,
  19,2,18,-1]
  normalPerVertex TRUE
  normal DEF NORM_11 Normal { vector [
  0.71925801 -0.69474305 0,0.78762756 -0.61601245 0.013095198,
  0.78280664 0.62218536 0.0099571247,0.94139121 -0.33667685 0.02076736,
  0.99988509 0.0020645234 0.015018264,0.93985886 0.3411178 0.017434671,
  0.71925801 0.69474305 0,-0.71925801 0.69474305 0,
  0.61485703 0.78862742 0.0041974823,0.36382268 0.93146007 0.0038974323,
  0.10083255 0.99489873 0.0030520419,-0.16953811 0.98552139 0.0021027742,
  -0.42750063 0.90401444 0.0010495885,-0.63844685 0.7696659 -0.00013382159,
  -0.71730256 0.69675888 -0.0020229363,-0.71542149 0.69869313 0,
  0.99999013 0.0044431178 0,0.97255144 0.23267728 0.0022332525,
  0.86408054 0.50334556 -0.0028388954,0.67329536 0.73931423 -0.0093712024,
  0.46366433 0.88598389 -0.006923679,0.20566028 0.9786048 -0.006040464,
  -0.067802566 0.99768602 -0.0050416467,-0.33617386 0.94179176 -0.0039271857,
  -0.6026962 0.79796749 -0.0022773963,-0.87785987 0.47891758 0,
  -0.91873834 0.39485275 0.0033415204,-0.99297766 0.11828868 -0.0017777359,
  -0.98578113 -0.16798391 -0.0041184399,-0.89775343 -0.44048294 -0.0036827612,
  -0.75549856 -0.65497624 0.015101299,-0.57836425 -0.81577855 -0.0003803533,
  -0.29609013 -0.95513201 -0.0073126009,-0.03160339 -0.99947304 -0.0074067849,
  0.23515599 -0.97192873 -0.0074968371,0.48500183 -0.87448026 -0.0075827577,
  0.687073 -0.72652639 -0.0094921387,0.86994282 -0.4931494 -0.0017777359,
  0.9740327 -0.22638272 0.0033415204,-0.88380542 0.4675716 0.016272024,
  -0.76585246 -0.64299581 0.0051386329,-0.95780503 0.28666747 0.02076736,
  -0.9995751 -0.0120409 0.02654495,-0.95045576 -0.30959444 0.028020089,
  -0.71925801 -0.69474305 0,-0.63600376 -0.7716533 -0.0070997557,
  -0.40631668 -0.91370754 0.0067293353,-0.14956792 -0.98872791 0.0068235837,
  0.11788229 -0.99300351 0.0069137862,0.37689758 -0.92622849 0.006999943,
  0.62202467 -0.78297079 0.0064841199] }
}
}
DEF SHAPE_12 Shape {
 appearance USE APP_2
 geometry DEF FACE_12 IndexedFaceSet {
  coord DEF COORD_12 Coordinate { point [
  2.0577361 -0.44488189 0,1.5003931 -0.44488189 0,
  2.0577361 -0.44488189 0.29527559,1.5003931 -0.44488189 0.29527559] }
 coordIndex [
  3,1,0,-1,3,0,2,-1]
  normalPerVertex TRUE
  normal DEF NORM_12 Normal { vector [
  0 -1 0,0 -1 0,
  0 -1 0,0 -1 0] }
}
}
DEF SHAPE_13 Shape {
 appearance USE APP_2
 geometry DEF FACE_13 IndexedFaceSet {
  coord DEF COORD_13 Coordinate { point [
  1.5003931 -2.6496063 0,2.0577361 -2.6496063 0,
  1.5003931 -2.6496063 0.29527559,2.0577361 -2.6496063 0.29527559] }
 coordIndex [
  3,1,0,-1,3,0,2,-1]
  normalPerVertex TRUE
  normal DEF NORM_13 Normal { vector [
  0 1 0,0 1 0,
  0 1 0,0 1 0] }
}
}
DEF SHAPE_14 Shape {
 appearance USE APP_2
 geometry DEF FACE_14 IndexedFaceSet {
  coord DEF COORD_14 Coordinate { point [
  1.5003931 -2.6496063 0.29527559,1.5003931 -0.44488189 0.29527559,
  1.7694388 -2.127354 0.29527559,1.8622047 -1.5472441 0.29527559,
  1.7694388 -0.96713418 0.29527559,2.0577361 -0.44488189 0.29527559,
  2.0577361 -2.6496063 0.29527559,2.3033195 -1.9282509 0.29527559,
  2.3033195 -1.1662373 0.29527559] }
 coordIndex [
  2,6,0,-1,7,2,3,-1,7,6,2,-1,8,3,4,-1,8,7,3,-1,5,4,1,-1,5,8,4,-1]
  normalPerVertex TRUE
  normal DEF NORM_14 Normal { vector [
  0 0 -1,0 0 -1,
  0 0 -1,0 0 -1,
  0 0 -1,0 0 -1,
  0 0 -1,0 0 -1,
  0 0 -1] }
}
}
DEF SHAPE_15 Shape {
 appearance USE APP_2
 geometry DEF FACE_15 IndexedFaceSet {
  coord DEF COORD_15 Coordinate { point [
  -1.4964561 -0.44488189 0,-2.0537991 -0.44488189 0,
  0.0019685039 0.78543307 0,-1.6858546 0.062922356 0,
  -1.1959312 0.45436 0,-0.61943579 0.70114187 0,
  2.0577361 -0.44488189 0,0.6233728 0.70114187 0,
  1.1998683 0.45436 0,1.6897916 0.062922356 0,
  1.5003931 -0.44488189 0,1.1556099 -0.087932473 0,
  0.7287199 0.16515516 0,0.25010576 0.29636831 0,
  -0.24616875 0.29636831 0,-0.72478289 0.16515516 0,
  -1.1516729 -0.087932473 0] }
 coordIndex [
  9,6,10,-1,11,9,10,-1,8,9,11,-1,12,8,11,-1,7,12,13,-1,7,8,12,-1,2,13,14,-1,2,7,13,-1,
  5,14,15,-1,5,2,14,-1,4,15,16,-1,4,5,15,-1,3,0,1,-1,3,16,0,-1,3,4,16,-1]
  normalPerVertex TRUE
  normal DEF NORM_15 Normal { vector [
  0 0 -1,0 0 -1,
  0 0 -1,0 0 -1,
  0 0 -1,0 0 -1,
  0 0 -1,0 0 -1,
  0 0 -1,0 0 -1,
  0 0 -1,0 0 -1,
  0 0 -1,0 0 -1,
  0 0 -1,0 0 -1,
  0 0 -1] }
}
}
DEF SHAPE_16 Shape {
 appearance USE APP_2
 geometry DEF FACE_16 IndexedFaceSet {
  coord DEF COORD_16 Coordinate { point [
  -2.0537991 -2.6496063 0,-1.4964561 -2.6496063 0,
  1.5003931 -2.6496063 0,-1.1516729 -3.0065557 0,
  -0.72478289 -3.2596433 0,-0.24616875 -3.3908565 0,
  0.25010576 -3.3908565 0,0.7287199 -3.2596433 0,
  1.1556099 -3.0065557 0,2.0577361 -2.6496063 0,
  1.6897916 -3.1574105 0,1.1998683 -3.5488482 0,
  0.6233728 -3.7956301 0,0.0019685039 -3.8799213 0,
  -0.61943579 -3.7956301 0,-1.1959312 -3.5488482 0,
  -1.6858546 -3.1574105 0] }
 coordIndex [
  8,10,11,-1,2,9,10,-1,2,10,8,-1,7,11,12,-1,7,8,11,-1,6,12,13,-1,6,7,12,-1,5,13,14,-1,
  5,6,13,-1,4,5,14,-1,15,4,14,-1,3,4,15,-1,16,3,15,-1,1,3,16,-1,0,1,16,-1]
  normalPerVertex TRUE
  normal DEF NORM_16 Normal { vector [
  0 0 -1,0 0 -1,
  0 0 -1,0 0 -1,
  0 0 -1,0 0 -1,
  0 0 -1,0 0 -1,
  0 0 -1,0 0 -1,
  0 0 -1,0 0 -1,
  0 0 -1,0 0 -1,
  0 0 -1,0 0 -1,
  0 0 -1] }
}
}
DEF SHAPE_17 Shape {
 appearance DEF APP_3 Appearance {
  material Material {
   ambientIntensity 0.36956522
   diffuseColor 0.27058825 0.27058825 0.27058825
   emissiveColor 0 0 0
   shininess 0.1
   specularColor 0.12 0.12 0.12
   transparency 0
} }
 geometry DEF FACE_17 IndexedFaceSet {
  coord DEF COORD_17 Coordinate { point [
  0.4798009 0.06872185 3.2480315,0.073317909 0.06872185 3.2480315,
  0.073317909 0.47520484 3.2480315,-0.056017587 0.47520484 3.2480315,
  -0.056017587 0.06872185 3.2480315,-0.46250057 0.06872185 3.2480315,
  -0.46250057 -0.065475883 3.2480315,-0.056017587 -0.065475883 3.2480315,
  -0.056017587 -0.47195887 3.2480315,0.073317909 -0.47195887 3.2480315,
  0.073317909 -0.065475883 3.2480315,0.4798009 -0.065475883 3.2480315] }
 coordIndex [
  10,8,9,-1,7,8,10,-1,1,10,11,-1,1,11,0,-1,4,10,1,-1,4,7,10,-1,6,7,4,-1,5,6,4,-1,
  3,1,2,-1,3,4,1,-1]
  normalPerVertex TRUE
  normal DEF NORM_17 Normal { vector [
  0 0 1,0 0 1,
  0 0 1,0 0 1,
  0 0 1,0 0 1,
  0 0 1,0 0 1,
  0 0 1,0 0 1,
  0 0 1,0 0 1] }
}
}
DEF SHAPE_18 Shape {
 appearance USE APP_2
 geometry DEF FACE_18 IndexedFaceSet {
  coord DEF COORD_18 Coordinate { point [
  -0.46250057 0.06872185 3.2480315,-0.46250057 -0.065475883 3.2480315,
  -0.46250057 0.06872185 3.2283465,-0.46250057 -0.065475883 3.2283465] }
 coordIndex [
  2,3,1,-1,0,2,1,-1]
  normalPerVertex TRUE
  normal DEF NORM_18 Normal { vector [
  -1 0 0,-1 0 0,
  -1 0 0,-1 0 0] }
}
}
DEF SHAPE_19 Shape {
 appearance USE APP_2
 geometry DEF FACE_19 IndexedFaceSet {
  coord DEF COORD_19 Coordinate { point [
  -0.056017587 0.06872185 3.2480315,-0.46250057 0.06872185 3.2480315,
  -0.056017587 0.06872185 3.2283465,-0.46250057 0.06872185 3.2283465] }
 coordIndex [
  1,0,2,-1,3,1,2,-1]
  normalPerVertex TRUE
  normal DEF NORM_19 Normal { vector [
  0 1 0,0 1 0,
  0 1 0,0 1 0] }
}
}
DEF SHAPE_20 Shape {
 appearance USE APP_2
 geometry DEF FACE_20 IndexedFaceSet {
  coord DEF COORD_20 Coordinate { point [
  -0.056017587 0.47520484 3.2480315,-0.056017587 0.06872185 3.2480315,
  -0.056017587 0.47520484 3.2283465,-0.056017587 0.06872185 3.2283465] }
 coordIndex [
  0,2,3,-1,0,3,1,-1]
  normalPerVertex TRUE
  normal DEF NORM_20 Normal { vector [
  -1 0 0,-1 0 0,
  -1 0 0,-1 0 0] }
}
}
DEF SHAPE_21 Shape {
 appearance USE APP_2
 geometry DEF FACE_21 IndexedFaceSet {
  coord DEF COORD_21 Coordinate { point [
  0.073317909 0.47520484 3.2480315,-0.056017587 0.47520484 3.2480315,
  0.073317909 0.47520484 3.2283465,-0.056017587 0.47520484 3.2283465] }
 coordIndex [
  3,1,0,-1,3,0,2,-1]
  normalPerVertex TRUE
  normal DEF NORM_21 Normal { vector [
  0 1 0,0 1 0,
  0 1 0,0 1 0] }
}
}
DEF SHAPE_22 Shape {
 appearance USE APP_2
 geometry DEF FACE_22 IndexedFaceSet {
  coord DEF COORD_22 Coordinate { point [
  0.073317909 0.06872185 3.2480315,0.073317909 0.47520484 3.2480315,
  0.073317909 0.06872185 3.2283465,0.073317909 0.47520484 3.2283465] }
 coordIndex [
  3,1,0,-1,3,0,2,-1]
  normalPerVertex TRUE
  normal DEF NORM_22 Normal { vector [
  1 0 0,1 0 0,
  1 0 0,1 0 0] }
}
}
DEF SHAPE_23 Shape {
 appearance USE APP_2
 geometry DEF FACE_23 IndexedFaceSet {
  coord DEF COORD_23 Coordinate { point [
  0.4798009 0.06872185 3.2480315,0.073317909 0.06872185 3.2480315,
  0.4798009 0.06872185 3.2283465,0.073317909 0.06872185 3.2283465] }
 coordIndex [
  1,0,2,-1,3,1,2,-1]
  normalPerVertex TRUE
  normal DEF NORM_23 Normal { vector [
  0 1 0,0 1 0,
  0 1 0,0 1 0] }
}
}
DEF SHAPE_24 Shape {
 appearance USE APP_2
 geometry DEF FACE_24 IndexedFaceSet {
  coord DEF COORD_24 Coordinate { point [
  0.4798009 -0.065475883 3.2480315,0.4798009 0.06872185 3.2480315,
  0.4798009 -0.065475883 3.2283465,0.4798009 0.06872185 3.2283465] }
 coordIndex [
  1,0,2,-1,3,1,2,-1]
  normalPerVertex TRUE
  normal DEF NORM_24 Normal { vector [
  1 0 0,1 0 0,
  1 0 0,1 0 0] }
}
}
DEF SHAPE_25 Shape {
 appearance USE APP_2
 geometry DEF FACE_25 IndexedFaceSet {
  coord DEF COORD_25 Coordinate { point [
  0.073317909 -0.065475883 3.2480315,0.4798009 -0.065475883 3.2480315,
  0.073317909 -0.065475883 3.2283465,0.4798009 -0.065475883 3.2283465] }
 coordIndex [
  2,3,1,-1,0,2,1,-1]
  normalPerVertex TRUE
  normal DEF NORM_25 Normal { vector [
  0 -1 0,0 -1 0,
  0 -1 0,0 -1 0] }
}
}
DEF SHAPE_26 Shape {
 appearance USE APP_2
 geometry DEF FACE_26 IndexedFaceSet {
  coord DEF COORD_26 Coordinate { point [
  0.073317909 -0.47195887 3.2480315,0.073317909 -0.065475883 3.2480315,
  0.073317909 -0.47195887 3.2283465,0.073317909 -0.065475883 3.2283465] }
 coordIndex [
  3,1,0,-1,3,0,2,-1]
  normalPerVertex TRUE
  normal DEF NORM_26 Normal { vector [
  1 0 0,1 0 0,
  1 0 0,1 0 0] }
}
}
DEF SHAPE_27 Shape {
 appearance USE APP_2
 geometry DEF FACE_27 IndexedFaceSet {
  coord DEF COORD_27 Coordinate { point [
  -0.056017587 -0.47195887 3.2480315,0.073317909 -0.47195887 3.2480315,
  -0.056017587 -0.47195887 3.2283465,0.073317909 -0.47195887 3.2283465] }
 coordIndex [
  0,2,3,-1,0,3,1,-1]
  normalPerVertex TRUE
  normal DEF NORM_27 Normal { vector [
  0 -1 0,0 -1 0,
  0 -1 0,0 -1 0] }
}
}
DEF SHAPE_28 Shape {
 appearance USE APP_2
 geometry DEF FACE_28 IndexedFaceSet {
  coord DEF COORD_28 Coordinate { point [
  -0.056017587 -0.065475883 3.2480315,-0.056017587 -0.47195887 3.2480315,
  -0.056017587 -0.065475883 3.2283465,-0.056017587 -0.47195887 3.2283465] }
 coordIndex [
  0,2,3,-1,0,3,1,-1]
  normalPerVertex TRUE
  normal DEF NORM_28 Normal { vector [
  -1 0 0,-1 0 0,
  -1 0 0,-1 0 0] }
}
}
DEF SHAPE_29 Shape {
 appearance USE APP_2
 geometry DEF FACE_29 IndexedFaceSet {
  coord DEF COORD_29 Coordinate { point [
  -0.46250057 -0.065475883 3.2480315,-0.056017587 -0.065475883 3.2480315,
  -0.46250057 -0.065475883 3.2283465,-0.056017587 -0.065475883 3.2283465] }
 coordIndex [
  2,3,1,-1,0,2,1,-1]
  normalPerVertex TRUE
  normal DEF NORM_29 Normal { vector [
  0 -1 0,0 -1 0,
  0 -1 0,0 -1 0] }
}
}
DEF SHAPE_30 Shape {
 appearance USE APP_2
 geometry DEF FACE_30 IndexedFaceSet {
  coord DEF COORD_30 Coordinate { point [
  0.0019685039 0.58858268 3.2480315,0.0019685039 0.58858268 3.2283465,
  0.0019685039 0.58858268 3.2283465,0.16129731 0.56668344 3.2283465,
  0.30880942 0.50260988 3.2283465,0.43356455 0.40111406 3.2283465,
  0.52631017 0.26972345 3.2283465,0.58016777 0.11818268 3.2283465,
  0.59114297 -0.042269142 3.2283465,0.5584218 -0.19973205 3.2283465,
  0.48443104 -0.34252775 3.2283465,0.37465823 -0.46006572 3.2283465,
  0.23724474 -0.54362872 3.2283465,0.082381879 -0.58701926 3.2283465,
  -0.078444872 -0.58701926 3.2283465,-0.23330773 -0.54362872 3.2283465,
  -0.37072123 -0.46006572 3.2283465,-0.48049403 -0.34252775 3.2283465,
  -0.5544848 -0.19973205 3.2283465,-0.58720597 -0.042269142 3.2283465,
  -0.57623076 0.11818268 3.2283465,-0.52237316 0.26972345 3.2283465,
  -0.42962754 0.40111406 3.2283465,-0.30487241 0.50260988 3.2283465,
  -0.1573603 0.56668344 3.2283465,0.0019685039 0.58858268 3.2480315,
  0.16129731 0.56668344 3.2480315,0.30880942 0.50260988 3.2480315,
  0.43356455 0.40111406 3.2480315,0.52631017 0.26972345 3.2480315,
  0.58016777 0.11818268 3.2480315,0.59114297 -0.042269142 3.2480315,
  0.5584218 -0.19973205 3.2480315,0.48443104 -0.34252775 3.2480315,
  0.37465823 -0.46006572 3.2480315,0.23724474 -0.54362872 3.2480315,
  0.082381879 -0.58701926 3.2480315,-0.078444872 -0.58701926 3.2480315,
  -0.23330773 -0.54362872 3.2480315,-0.37072123 -0.46006572 3.2480315,
  -0.48049403 -0.34252775 3.2480315,-0.5544848 -0.19973205 3.2480315,
  -0.58720597 -0.042269142 3.2480315,-0.57623076 0.11818268 3.2480315,
  -0.52237316 0.26972345 3.2480315,-0.42962754 0.40111406 3.2480315,
  -0.30487241 0.50260988 3.2480315,-0.1573603 0.56668344 3.2480315] }
 coordIndex [
  22,44,21,-1,22,45,44,-1,23,45,22,-1,23,46,45,-1,23,47,46,-1,24,47,23,-1,3,25,2,-1,24,0,47,-1,
  3,26,25,-1,1,0,24,-1,4,27,26,-1,4,28,27,-1,4,26,3,-1,5,29,28,-1,5,28,4,-1,6,30,29,-1,
  6,29,5,-1,7,31,30,-1,7,30,6,-1,8,31,7,-1,9,32,31,-1,9,31,8,-1,10,33,32,-1,10,32,9,-1,
  11,34,33,-1,11,33,10,-1,12,35,34,-1,12,34,11,-1,13,36,35,-1,13,37,36,-1,13,35,12,-1,14,38,37,-1,
  14,37,13,-1,15,38,14,-1,16,38,15,-1,16,39,38,-1,16,40,39,-1,17,40,16,-1,18,40,17,-1,18,41,40,-1,
  19,41,18,-1,19,42,41,-1,19,43,42,-1,20,43,19,-1,21,43,20,-1,21,44,43,-1]
  normalPerVertex TRUE
  normal DEF NORM_30 Normal { vector [
  0.13616665 -0.99068595 0,0.13616665 -0.99068595 0,
  -0.13616665 -0.99068595 0,-0.22544364 -0.97425621 0,
  -0.51958395 -0.8544194 0,-0.76130895 -0.6483893 0,
  -0.90801089 -0.41894656 0,-0.98736981 -0.15843248 0,
  -0.99766877 0.068242413 0,-0.95660018 0.29140367 0,
  -0.84250708 0.53868527 0,-0.66592908 0.74601505 0,
  -0.43996217 0.89801631 0,-0.13616665 0.99068595 0,
  0.18136528 0.9834158 0,0.39840109 0.9172113 0,
  0.63108794 0.77571129 0,0.81696989 0.57668032 0,
  0.9259469 0.37765372 0,0.99766877 0.068242413 0,
  0.97908409 -0.20345601 0,0.90801089 -0.41894656 0,
  0.76130895 -0.6483893 0,0.51958395 -0.8544194 0,
  0.22544364 -0.97425621 0,-0.13616665 -0.99068595 0,
  -0.31358447 -0.94956031 0,-0.51958395 -0.8544194 0,
  -0.69883131 -0.71528652 0,-0.86589874 -0.50021932 0,
  -0.96874643 -0.24805315 0,-0.99766877 0.068242413 0,
  -0.9259469 0.37765372 0,-0.78972053 0.61346678 0,
  -0.59492419 0.80378182 0,-0.35600505 0.93448403 0,
  -0.13616665 0.99068595 0,0.090682641 0.99587984 0,
  0.39840109 0.9172113 0,0.63108794 0.77571129 0,
  0.81696989 0.57668032 0,0.95660018 0.29140367 0,
  0.99766877 0.068242413 0,0.97908409 -0.20345601 0,
  0.86589874 -0.50021932 0,0.69883131 -0.71528652 0,
  0.51958395 -0.8544194 0,0.31358447 -0.94956031 0] }
}
}
DEF SHAPE_31 Shape {
 appearance USE APP_2
 geometry DEF FACE_31 IndexedFaceSet {
  coord DEF COORD_31 Coordinate { point [
  0.0019685039 0.58858268 3.2283465,0.16129731 0.56668344 3.2283465,
  0.30880942 0.50260988 3.2283465,0.43356455 0.40111406 3.2283465,
  0.52631017 0.26972345 3.2283465,0.58016777 0.11818268 3.2283465,
  0.59114297 -0.042269142 3.2283465,0.5584218 -0.19973205 3.2283465,
  0.48443104 -0.34252775 3.2283465,0.37465823 -0.46006572 3.2283465,
  0.23724474 -0.54362872 3.2283465,0.082381879 -0.58701926 3.2283465,
  -0.078444872 -0.58701926 3.2283465,-0.23330773 -0.54362872 3.2283465,
  -0.37072123 -0.46006572 3.2283465,-0.48049403 -0.34252775 3.2283465,
  -0.5544848 -0.19973205 3.2283465,-0.58720597 -0.042269142 3.2283465,
  -0.57623076 0.11818268 3.2283465,-0.52237316 0.26972345 3.2283465,
  -0.42962754 0.40111406 3.2283465,-0.30487241 0.50260988 3.2283465,
  -0.1573603 0.56668344 3.2283465,-0.46250057 -0.065475883 3.2283465,
  -0.46250057 0.06872185 3.2283465,-0.056017587 0.06872185 3.2283465,
  -0.056017587 0.47520484 3.2283465,0.073317909 0.47520484 3.2283465,
  0.073317909 0.06872185 3.2283465,0.4798009 0.06872185 3.2283465,
  0.4798009 -0.065475883 3.2283465,0.073317909 -0.065475883 3.2283465,
  0.073317909 -0.47195887 3.2283465,-0.056017587 -0.47195887 3.2283465,
  -0.056017587 -0.065475883 3.2283465] }
 coordIndex [
  32,10,9,-1,32,11,10,-1,30,7,6,-1,30,8,7,-1,33,12,11,-1,33,11,32,-1,29,6,5,-1,29,30,6,-1,
  13,12,33,-1,4,29,5,-1,31,9,8,-1,31,32,9,-1,31,8,30,-1,14,13,33,-1,3,29,4,-1,34,14,33,-1,
  28,29,3,-1,15,14,34,-1,2,28,3,-1,23,16,15,-1,23,15,34,-1,27,28,2,-1,1,27,2,-1,17,23,24,-1,
  17,16,23,-1,0,26,27,-1,0,27,1,-1,18,17,24,-1,22,26,0,-1,19,18,24,-1,21,26,22,-1,21,25,26,-1,
  20,19,24,-1,20,24,25,-1,20,25,21,-1]
  normalPerVertex TRUE
  normal DEF NORM_31 Normal { vector [
  0 0 1,0 0 1,
  0 0 1,0 0 1,
  0 0 1,0 0 1,
  0 0 1,0 0 1,
  0 0 1,0 0 1,
  0 0 1,0 0 1,
  0 0 1,0 0 1,
  0 0 1,0 0 1,
  0 0 1,0 0 1,
  0 0 1,0 0 1,
  0 0 1,0 0 1,
  0 0 1,0 0 1,
  0 0 1,0 0 1,
  0 0 1,0 0 1,
  0 0 1,0 0 1,
  0 0 1,0 0 1,
  0 0 1,0 0 1,
  0 0 1] }
}
}
DEF SHAPE_32 Shape {
 appearance USE APP_2
 geometry DEF FACE_32 IndexedFaceSet {
  coord DEF COORD_32 Coordinate { point [
  0.0019685039 0.70669291 3.2480315,0.0019685039 -3.8011811 3.2480315,
  0.63697594 0.61539263 3.2480315,1.2205389 0.34888838 3.2480315,
  1.7053804 -0.071229251 3.2480315,2.0522217 -0.61092482 3.2480315,
  2.2329637 -1.2264754 3.2480315,2.2329637 -1.8680128 3.2480315,
  2.0522217 -2.4835634 3.2480315,1.7053804 -3.0232589 3.2480315,
  1.2205389 -3.4433766 3.2480315,0.63697594 -3.7098808 3.2480315,
  0.0019685039 -3.8799213 3.1692913,0.0019685039 -3.8255131 3.2441777,
  0.0019685039 -3.8474634 3.2329935,0.0019685039 -3.8648832 3.2155736,
  0.0019685039 -3.8760674 3.1936234,0.0019685039 0.78543307 3.1692913,
  0.65915961 -3.7854314 3.1692913,1.263109 -3.509617 3.1692913,
  1.7648883 -3.0748228 3.1692913,2.1238463 -2.5162732 3.1692913,
  2.3109024 -1.8792187 3.1692913,2.3109024 -1.2152695 3.1692913,
  2.1238463 -0.57821498 3.1692913,1.7648883 -0.019665414 3.1692913,
  1.263109 0.41512881 3.1692913,0.65915961 0.69094326 3.1692913,
  0.0019685039 -3.8799213 3.1692913,-0.6552226 0.69094326 3.1692913,
  -1.259172 0.41512881 3.1692913,-1.7609513 -0.019665414 3.1692913,
  -2.1199093 -0.57821498 3.1692913,-2.3069654 -1.2152695 3.1692913,
  -2.3069654 -1.8792187 3.1692913,-2.1199093 -2.5162732 3.1692913,
  -1.7609513 -3.0748228 3.1692913,-1.259172 -3.509617 3.1692913,
  -0.6552226 -3.7854314 3.1692913,0.0019685039 -3.8011811 3.2480315,
  0.0019685039 -3.8255131 3.2441777,0.0019685039 -3.8474634 3.2329935,
  0.0019685039 -3.8648832 3.2155736,0.0019685039 -3.8760674 3.1936234,
  -0.63303893 -3.7098808 3.2480315,-1.2166018 -3.4433766 3.2480315,
  -1.7014434 -3.0232589 3.2480315,-2.0482847 -2.4835634 3.2480315,
  -2.2290267 -1.8680128 3.2480315,-2.2290267 -1.2264754 3.2480315,
  -2.0482847 -0.61092482 3.2480315,-1.7014434 -0.071229251 3.2480315,
  -1.2166018 0.34888838 3.2480315,-0.63303893 0.61539263 3.2480315,
  0.65807386 -3.7817337 3.1936234,0.6549229 -3.7710026 3.2155736,
  0.65001517 -3.7542884 3.2329935,0.64383107 -3.7332272 3.2441777,
  1.2610255 -3.506375 3.1936234,1.2549788 -3.4969662 3.2155736,
  1.245561 -3.4823117 3.2329935,1.2336937 -3.463846 3.2441777,
  1.7619758 -3.0722991 3.1936234,1.7535233 -3.064975 3.2155736,
  1.7403583 -3.0535674 3.2329935,1.7237694 -3.039193 3.2441777,
  2.1203407 -2.5146723 3.1936234,2.1101672 -2.5100262 3.2155736,
  2.0943216 -2.5027897 3.2329935,2.0743549 -2.4936713 3.2441777,
  2.3070878 -1.8786702 3.1936234,2.2960174 -1.8770785 3.2155736,
  2.2787749 -1.8745994 3.2329935,2.2570481 -1.8714756 3.2441777,
  2.3070878 -1.215818 3.1936234,2.2960174 -1.2174097 3.2155736,
  2.2787749 -1.2198888 3.2329935,2.2570481 -1.2230126 3.2441777,
  2.1203407 -0.57981591 3.1936234,2.1101672 -0.584462 3.2155736,
  2.0943216 -0.59169846 3.2329935,2.0743549 -0.60081693 3.2441777,
  1.7619758 -0.022189128 3.1936234,1.7535233 -0.029513231 3.2155736,
  1.7403583 -0.040920788 3.2329935,1.7237694 -0.055295149 3.2441777,
  1.2610255 0.41188677 3.1936234,1.2549788 0.40247801 3.2155736,
  1.245561 0.38782353 3.2329935,1.2336937 0.3693578 3.2441777,
  0.65807386 0.68724554 3.1936234,0.6549229 0.67651437 3.2155736,
  0.65001517 0.65980017 3.2329935,0.64383107 0.63873906 3.2441777,
  0.0019685039 0.78157925 3.1936234,0.0019685039 0.77039504 3.2155736,
  0.0019685039 0.75297522 3.2329935,0.0019685039 0.73102496 3.2441777,
  -0.65413685 0.68724554 3.1936234,-0.65098589 0.67651437 3.2155736,
  -0.64607816 0.65980017 3.2329935,-0.63989406 0.63873906 3.2441777,
  -1.2570885 0.41188677 3.1936234,-1.2510418 0.40247801 3.2155736,
  -1.2416239 0.38782353 3.2329935,-1.2297567 0.3693578 3.2441777,
  -1.7580387 -0.022189128 3.1936234,-1.7495863 -0.029513231 3.2155736,
  -1.7364213 -0.040920788 3.2329935,-1.7198324 -0.055295149 3.2441777,
  -2.1164037 -0.57981591 3.1936234,-2.1062302 -0.584462 3.2155736,
  -2.0903846 -0.59169846 3.2329935,-2.0704179 -0.60081693 3.2441777,
  -2.3031508 -1.215818 3.1936234,-2.2920804 -1.2174097 3.2155736,
  -2.2748379 -1.2198888 3.2329935,-2.2531111 -1.2230126 3.2441777,
  -2.3031508 -1.8786702 3.1936234,-2.2920804 -1.8770785 3.2155736,
  -2.2748379 -1.8745994 3.2329935,-2.2531111 -1.8714756 3.2441777,
  -2.1164037 -2.5146723 3.1936234,-2.1062302 -2.5100262 3.2155736,
  -2.0903846 -2.5027897 3.2329935,-2.0704179 -2.4936713 3.2441777,
  -1.7580387 -3.0722991 3.1936234,-1.7495863 -3.064975 3.2155736,
  -1.7364213 -3.0535674 3.2329935,-1.7198324 -3.039193 3.2441777,
  -1.2570885 -3.506375 3.1936234,-1.2510418 -3.4969662 3.2155736,
  -1.2416239 -3.4823117 3.2329935,-1.2297567 -3.463846 3.2441777,
  -0.65413685 -3.7817337 3.1936234,-0.65098589 -3.7710026 3.2155736,
  -0.64607816 -3.7542884 3.2329935,-0.63989406 -3.7332272 3.2441777] }
 coordIndex [
  18,16,12,-1,43,38,28,-1,39,44,40,-1,54,15,16,-1,54,16,18,-1,55,15,54,-1,56,13,14,-1,56,14,15,-1,
  56,15,55,-1,57,11,1,-1,57,1,13,-1,57,13,56,-1,58,18,19,-1,58,19,20,-1,58,54,18,-1,59,54,58,-1,
  59,55,54,-1,60,57,56,-1,60,55,59,-1,60,56,55,-1,61,10,11,-1,61,57,60,-1,61,11,57,-1,62,58,20,-1,
  63,60,59,-1,63,59,58,-1,63,58,62,-1,64,60,63,-1,65,9,10,-1,65,10,61,-1,65,61,60,-1,65,60,64,-1,
  66,20,21,-1,66,21,22,-1,66,62,20,-1,67,62,66,-1,67,63,62,-1,68,63,67,-1,68,64,63,-1,69,64,68,-1,
  69,8,9,-1,69,65,64,-1,69,9,65,-1,70,67,66,-1,70,66,22,-1,71,67,70,-1,71,68,67,-1,72,69,68,-1,
  72,68,71,-1,73,7,8,-1,73,69,72,-1,73,8,69,-1,74,22,23,-1,74,23,24,-1,74,70,22,-1,75,71,70,-1,
  75,70,74,-1,76,71,75,-1,76,72,71,-1,77,6,7,-1,77,72,76,-1,77,73,72,-1,77,7,73,-1,78,24,25,-1,
  78,75,74,-1,78,74,24,-1,79,75,78,-1,79,76,75,-1,80,77,76,-1,80,76,79,-1,81,5,6,-1,81,6,77,-1,
  81,77,80,-1,82,78,25,-1,82,79,78,-1,83,80,79,-1,83,79,82,-1,84,81,80,-1,84,80,83,-1,85,4,5,-1,
  85,5,81,-1,85,81,84,-1,86,82,25,-1,86,25,26,-1,87,83,82,-1,87,82,86,-1,88,83,87,-1,88,84,83,-1,
  89,3,4,-1,89,84,88,-1,89,4,85,-1,89,85,84,-1,90,86,26,-1,90,87,86,-1,90,26,27,-1,91,88,87,-1,
  91,87,90,-1,92,88,91,-1,92,89,88,-1,93,2,3,-1,93,3,89,-1,93,89,92,-1,94,90,27,-1,94,27,17,-1,
  94,17,29,-1,95,90,94,-1,95,91,90,-1,95,92,91,-1,96,92,95,-1,97,0,2,-1,97,2,93,-1,97,93,92,-1,
  97,92,96,-1,98,95,94,-1,98,94,29,-1,99,95,98,-1,99,96,95,-1,100,97,96,-1,100,96,99,-1,101,0,97,-1,
  101,97,100,-1,101,53,0,-1,102,98,29,-1,102,29,30,-1,102,30,31,-1,103,99,98,-1,103,98,102,-1,104,99,103,-1,
  104,100,99,-1,105,101,100,-1,105,53,101,-1,105,52,53,-1,105,100,104,-1,106,102,31,-1,107,102,106,-1,107,103,102,-1,
  107,104,103,-1,108,104,107,-1,109,51,52,-1,109,105,104,-1,109,52,105,-1,109,104,108,-1,110,31,32,-1,110,106,31,-1,
  111,107,106,-1,111,106,110,-1,112,108,107,-1,112,107,111,-1,113,51,109,-1,113,50,51,-1,113,109,108,-1,113,108,112,-1,
  114,32,33,-1,114,33,34,-1,114,110,32,-1,115,111,110,-1,115,110,114,-1,116,112,111,-1,116,111,115,-1,117,49,50,-1,
  117,113,112,-1,117,50,113,-1,117,112,116,-1,118,114,34,-1,118,34,35,-1,119,114,118,-1,119,115,114,-1,119,116,115,-1,
  120,116,119,-1,121,48,49,-1,121,49,117,-1,121,117,116,-1,121,116,120,-1,122,35,36,-1,122,119,118,-1,122,118,35,-1,
  123,119,122,-1,123,120,119,-1,124,121,120,-1,124,120,123,-1,125,121,124,-1,125,48,121,-1,125,47,48,-1,126,122,36,-1,
  127,123,122,-1,127,122,126,-1,127,124,123,-1,128,124,127,-1,129,47,125,-1,129,124,128,-1,129,46,47,-1,129,125,124,-1,
  130,126,36,-1,130,36,37,-1,131,126,130,-1,131,127,126,-1,132,128,127,-1,132,127,131,-1,133,129,128,-1,133,46,129,-1,
  133,128,132,-1,133,45,46,-1,134,130,37,-1,134,37,38,-1,134,43,42,-1,134,38,43,-1,135,131,130,-1,135,130,134,-1,
  135,132,131,-1,135,134,42,-1,136,132,135,-1,136,41,40,-1,136,42,41,-1,136,135,42,-1,137,133,132,-1,137,45,133,-1,
  137,44,45,-1,137,132,136,-1,137,136,40,-1,137,40,44,-1]
  normalPerVertex TRUE
  normal DEF NORM_32 Normal { vector [
  -0.0075508421 0.15643001 0.98766018,0.022486194 -0.15639491 0.98743861,
  0.036826445 0.15222081 0.98766018,0.078220273 0.13567959 0.98766018,
  0.11327716 0.10814641 0.98766018,0.139157 0.07185186 0.98766018,
  0.15376318 0.029736296 0.98766018,0.15591237 -0.014788326 0.98766018,
  0.14543047 -0.058114885 0.98766018,0.12316666 -0.096733322 0.98766018,
  0.090924619 -0.127515 0.98766018,0.051316405 -0.14796617 0.98766018,
  0.14059755 -0.97787746 0.15488057,0.051553925 -0.35856542 0.93207995,
  0.084210577 -0.58569743 0.80614335,0.11558056 -0.80388047 0.58345294,
  0.13757497 -0.95685492 0.25593319,0 0.98768834 0.15643447,
  0.27826396 -0.94768002 0.15643447,0.53398463 -0.83089631 0.15643447,
  0.74644504 -0.64679831 0.15643447,0.89843292 -0.41030056 0.15643447,
  0.9776351 -0.14056271 0.15643447,0.9776351 0.14056271 0.15643447,
  0.91705077 0.36687973 0.15625988,0.74644504 0.64679831 0.15643447,
  0.49365536 0.85550408 0.15625988,0.23263549 0.95992894 0.15625988,
  -0.14059755 -0.97787746 0.15488057,-0.27826396 0.94768002 0.15643447,
  -0.53398463 0.83089631 0.15643447,-0.74644504 0.64679831 0.15643447,
  -0.91705077 0.36687973 0.15625988,-0.9776351 0.14056271 0.15643447,
  -0.98326573 -0.093655467 0.15625988,-0.91705077 -0.36687973 0.15625988,
  -0.74644504 -0.64679831 0.15643447,-0.49365536 -0.85550408 0.15625988,
  -0.23263549 -0.95992894 0.15625988,-0.022486194 -0.15639491 0.98743861,
  -0.044495829 -0.30947529 0.94986587,-0.084210577 -0.58569743 0.80614335,
  -0.11558056 -0.80388047 0.58345294,-0.13757497 -0.95685492 0.25593319,
  -0.036826445 -0.15222081 0.98766018,-0.078220273 -0.13567959 0.98766018,
  -0.11327716 -0.10814641 0.98766018,-0.139157 -0.07185186 0.98766018,
  -0.15376318 -0.029736296 0.98766018,-0.15591237 0.014788326 0.98766018,
  -0.14543047 0.058114885 0.98766018,-0.12316666 0.096733322 0.98766018,
  -0.090924619 0.127515 0.98766018,-0.051316405 0.14796617 0.98766018,
  0.26299807 -0.89568918 0.35857065,0.24217561 -0.75219352 0.61282614,
  0.13858428 -0.57204519 0.80842977,0.094270036 -0.29490545 0.95086483,
  0.53327831 -0.79569661 0.2871953,0.42522672 -0.70979179 0.56158513,
  0.3180772 -0.49493778 0.80861826,0.1470464 -0.2371565 0.96027816,
  0.72770851 -0.59639875 0.33874602,0.58909039 -0.53511127 0.60549851,
  0.43333703 -0.35814321 0.82701419,0.22415701 -0.21391759 0.95078541,
  0.87874148 -0.40130779 0.25839013,0.76315646 -0.34852188 0.54417343,
  0.57291012 -0.26163928 0.77673605,0.29980949 -0.14045127 0.94360358,
  0.92400088 -0.13285127 0.35857065,0.76916005 -0.11058852 0.6294148,
  0.53905392 -0.077504254 0.83869777,0.27552584 -0.044174226 0.96027816,
  0.95620775 0.13748192 0.25839013,0.83043322 0.11939827 0.54417343,
  0.62341553 0.089633622 0.77673605,0.32814948 0.043934124 0.94360358,
  0.86412211 0.3973692 0.30885383,0.73412263 0.34042625 0.58751505,
  0.5323404 0.25012339 0.80873481,0.27848772 0.13527992 0.95086483,
  0.70549419 0.61131419 0.35857065,0.58726994 0.5088723 0.6294148,
  0.41157906 0.35663528 0.83869777,0.21381571 0.17930057 0.96027816,
  0.54320375 0.79203185 0.2785951,0.45358291 0.70578879 0.54417343,
  0.34050978 0.52984356 0.77673605,0.18168902 0.27676957 0.94360358,
  0.28562431 0.89967206 0.33016501,0.24217561 0.75219352 0.61282614,
  0.14627916 0.5508387 0.82169285,0.082936012 0.26643474 0.96027816,
  0 0.96604065 0.25839013,0.014584456 0.82223554 0.56896047,
  -0.020696372 0.61312473 0.78971496,0.0032136025 0.33106187 0.94360358,
  -0.26299807 0.89568918 0.35857065,-0.21892578 0.74559272 0.6294148,
  -0.15343074 0.52253713 0.83869777,-0.074275281 0.26897776 0.96027816,
  -0.53327831 0.79569661 0.2871953,-0.42522672 0.70979179 0.56158513,
  -0.33566896 0.50503419 0.79515207,-0.15480952 0.26840476 0.95078541,
  -0.72770851 0.59639875 0.33874602,-0.58909039 0.53511127 0.60549851,
  -0.43333703 0.35814321 0.82701419,-0.22415701 0.21391759 0.95078541,
  -0.86412211 0.3973692 0.30885383,-0.73412263 0.34042625 0.58751505,
  -0.5323404 0.25012339 0.80873481,-0.27534462 0.1421001 0.95078541,
  -0.95057041 0.11804561 0.2871953,-0.81488912 0.14344986 0.56158513,
  -0.6014958 0.077045385 0.79515207,-0.30422546 0.058770505 0.95078541,
  -0.94611251 -0.16509359 0.2785951,-0.81594195 -0.10258031 0.56896047,
  -0.60393861 -0.10774246 0.78971496,-0.32814948 -0.043934124 0.94360358,
  -0.84986612 -0.41075375 0.33016501,-0.72706123 -0.30955789 0.61282614,
  -0.51208859 -0.25017222 0.82169285,-0.25566948 -0.11179879 0.96027816,
  -0.69389199 -0.63542509 0.33874602,-0.61350091 -0.50694002 0.60549851,
  -0.41616811 -0.37795719 0.82701419,-0.24364109 -0.19143176 0.95078541,
  -0.51630196 -0.79877506 0.30885383,-0.46900376 -0.68165799 0.56158513,
  -0.31995333 -0.51513401 0.79515207,-0.17983935 -0.25231906 0.95078541,
  -0.27034716 -0.91187813 0.30885383,-0.26497686 -0.76493377 0.58708057,
  -0.13858428 -0.57204519 0.80842977,-0.1014681 -0.29276496 0.95078541] }
}
}
DEF SHAPE_33 Shape {
 appearance USE APP_2
 geometry DEF FACE_33 IndexedFaceSet {
  coord DEF COORD_33 Coordinate { point [
  0.0019685039 0.78543307 3.1692913,0.0019685039 -3.8799213 3.1692913,
  -0.6552226 0.69094326 3.1692913,-1.259172 0.41512881 3.1692913,
  -1.7609513 -0.019665414 3.1692913,-2.1199093 -0.57821498 3.1692913,
  -2.3069654 -1.2152695 3.1692913,-2.3069654 -1.8792187 3.1692913,
  -2.1199093 -2.5162732 3.1692913,-1.7609513 -3.0748228 3.1692913,
  -1.259172 -3.509617 3.1692913,-0.6552226 -3.7854314 3.1692913,
  0.0019685039 0.78543307 1.3385827,0.0019685039 0.78543307 1.3385827,
  0.63131727 0.69893107 1.3385827,1.2139901 0.44584054 1.3385827,
  1.7067729 0.044932037 1.3385827,2.0731181 -0.47406089 1.3385827,
  2.2858556 -1.0726469 1.3385827,2.3292077 -1.7064316 1.3385827,
  2.199959 -2.3284101 1.3385827,1.9076955 -2.8924531 1.3385827,
  1.4740929 -3.3567281 1.3385827,0.93130963 -3.686802 1.3385827,
  0.31960134 -3.8581946 1.3385827,-0.31566433 -3.8581946 1.3385827,
  -0.92737262 -3.686802 1.3385827,-1.4701559 -3.3567281 1.3385827,
  -1.9037585 -2.8924531 1.3385827,-2.196022 -2.3284101 1.3385827,
  -2.3252707 -1.7064316 1.3385827,-2.2819186 -1.0726469 1.3385827,
  -2.0691811 -0.47406089 1.3385827,-1.7028359 0.044932037 1.3385827,
  -1.2100531 0.44584054 1.3385827,-0.62738026 0.69893107 1.3385827,
  0.0019685039 0.78543307 3.1692913,0.65915961 -3.7854314 3.1692913,
  1.263109 -3.509617 3.1692913,1.7648883 -3.0748228 3.1692913,
  2.1238463 -2.5162732 3.1692913,2.3109024 -1.8792187 3.1692913,
  2.3109024 -1.2152695 3.1692913,2.1238463 -0.57821498 3.1692913,
  1.7648883 -0.019665414 3.1692913,1.263109 0.41512881 3.1692913,
  0.65915961 0.69094326 3.1692913] }
 coordIndex [
  45,16,15,-1,45,44,16,-1,0,12,35,-1,46,15,14,-1,46,45,15,-1,36,14,13,-1,2,35,34,-1,36,46,14,-1,
  2,0,35,-1,3,34,33,-1,3,2,34,-1,4,33,32,-1,4,3,33,-1,5,32,31,-1,5,4,32,-1,6,31,30,-1,
  6,5,31,-1,7,30,29,-1,7,6,30,-1,8,29,28,-1,8,7,29,-1,9,28,27,-1,9,8,28,-1,10,27,26,-1,
  10,9,27,-1,11,26,25,-1,11,10,26,-1,1,25,24,-1,1,11,25,-1,37,1,24,-1,37,24,23,-1,38,37,23,-1,
  38,23,22,-1,39,38,22,-1,39,22,21,-1,40,39,21,-1,40,21,20,-1,41,40,20,-1,41,20,19,-1,42,41,19,-1,
  42,19,18,-1,43,18,17,-1,43,42,18,-1,44,17,16,-1,44,43,17,-1]
  normalPerVertex TRUE
  normal DEF NORM_33 Normal { vector [
  -0.1393092 0.99024832 0.0011010027,0 -0.99998775 0.0049496687,
  -0.32028922 0.94731867 0.0014669386,-0.57089332 0.82102149 0.0021288837,
  -0.77653591 0.63006712 0.0027210611,-0.92102297 0.38949477 0.0032435001,
  -0.9929769 0.11825064 0.0036962268,-0.98673234 -0.1623042 0.004079264,
  -0.90278201 -0.43007598 0.0043926312,-0.74773775 -0.66397798 0.0046363446,
  -0.53380971 -0.84559095 0.0048104165,-0.2778448 -0.9606134 0.0049148561,
  -0.13616665 0.99068595 0,0.13616665 0.99068595 0,
  0.22620782 0.97407906 6.4434044e-05,0.48437277 0.87486154 -0.00055478805,
  0.70548708 0.7087219 -0.0011119904,0.87263608 0.4883684 -0.0016072035,
  0.97303306 0.23065666 -0.0020404545,0.99899756 -0.04469964 -0.0024117675,
  0.94854293 -0.31663687 -0.0027211631,0.8255284 -0.56435277 -0.0029686587,
  0.63936389 -0.76889783 -0.0031542682,0.4042902 -0.91462489 -0.003278002,
  0.13828964 -0.9903862 -0.0033398672,-0.13828964 -0.9903862 -0.0033398672,
  -0.4042902 -0.91462489 -0.003278002,-0.63936389 -0.76889783 -0.0031542682,
  -0.8255284 -0.56435277 -0.0029686587,-0.94854293 -0.31663687 -0.0027211631,
  -0.99899756 -0.04469964 -0.0024117675,-0.97303306 0.23065666 -0.0020404545,
  -0.87263608 0.4883684 -0.0016072035,-0.70548708 0.7087219 -0.0011119904,
  -0.48437277 0.87486154 -0.00055478805,-0.22620782 0.97407906 6.4434044e-05,
  0.1393092 0.99024832 0.0011010027,0.2778448 -0.9606134 0.0049148561,
  0.53380971 -0.84559095 0.0048104165,0.74773775 -0.66397798 0.0046363446,
  0.90278201 -0.43007598 0.0043926312,0.98673234 -0.1623042 0.004079264,
  0.9929769 0.11825064 0.0036962268,0.92102297 0.38949477 0.0032435001,
  0.77653591 0.63006712 0.0027210611,0.57089332 0.82102149 0.0021288837,
  0.32028922 0.94731867 0.0014669386] }
}
}
DEF SHAPE_34 Shape {
 appearance USE APP_2
 geometry DEF FACE_34 IndexedFaceSet {
  coord DEF COORD_34 Coordinate { point [
  0.0019685039 0.70669291 3.2480315,0.0019685039 -3.8011811 3.2480315,
  0.63697594 0.61539263 3.2480315,1.2205389 0.34888838 3.2480315,
  1.7053804 -0.071229251 3.2480315,2.0522217 -0.61092482 3.2480315,
  2.2329637 -1.2264754 3.2480315,2.2329637 -1.8680128 3.2480315,
  2.0522217 -2.4835634 3.2480315,1.7053804 -3.0232589 3.2480315,
  1.2205389 -3.4433766 3.2480315,0.63697594 -3.7098808 3.2480315,
  -0.63303893 -3.7098808 3.2480315,-1.2166018 -3.4433766 3.2480315,
  -1.7014434 -3.0232589 3.2480315,-2.0482847 -2.4835634 3.2480315,
  -2.2290267 -1.8680128 3.2480315,-2.2290267 -1.2264754 3.2480315,
  -2.0482847 -0.61092482 3.2480315,-1.7014434 -0.071229251 3.2480315,
  -1.2166018 0.34888838 3.2480315,-0.63303893 0.61539263 3.2480315,
  0.0019685039 0.58858268 3.2480315,0.16129731 0.56668344 3.2480315,
  0.30880942 0.50260988 3.2480315,0.43356455 0.40111406 3.2480315,
  0.52631017 0.26972345 3.2480315,0.58016777 0.11818268 3.2480315,
  0.59114297 -0.042269142 3.2480315,0.5584218 -0.19973205 3.2480315,
  0.48443104 -0.34252775 3.2480315,0.37465823 -0.46006572 3.2480315,
  0.23724474 -0.54362872 3.2480315,0.082381879 -0.58701926 3.2480315,
  -0.078444872 -0.58701926 3.2480315,-0.23330773 -0.54362872 3.2480315,
  -0.37072123 -0.46006572 3.2480315,-0.48049403 -0.34252775 3.2480315,
  -0.5544848 -0.19973205 3.2480315,-0.58720597 -0.042269142 3.2480315,
  -0.57623076 0.11818268 3.2480315,-0.52237316 0.26972345 3.2480315,
  -0.42962754 0.40111406 3.2480315,-0.30487241 0.50260988 3.2480315,
  -0.1573603 0.56668344 3.2480315,0.0019685039 -1.1043307 3.2480315,
  0.12146511 -1.1207551 3.2480315,0.23209919 -1.1688103 3.2480315,
  0.32566554 -1.2449322 3.2480315,0.39522475 -1.3434751 3.2480315,
  0.43561795 -1.4571307 3.2480315,0.44384936 -1.5774696 3.2480315,
  0.41930848 -1.6955668 3.2480315,0.36381541 -1.8026635 3.2480315,
  0.2814858 -1.890817 3.2480315,0.17842568 -1.9534893 3.2480315,
  0.062278536 -1.9860322 3.2480315,-0.058341528 -1.9860322 3.2480315,
  -0.17448867 -1.9534893 3.2480315,-0.27754879 -1.890817 3.2480315,
  -0.3598784 -1.8026635 3.2480315,-0.41537147 -1.6955668 3.2480315,
  -0.43991235 -1.5774696 3.2480315,-0.43168094 -1.4571307 3.2480315,
  -0.39128774 -1.3434751 3.2480315,-0.32172853 -1.2449322 3.2480315,
  -0.22816218 -1.1688103 3.2480315,-0.1175281 -1.1207551 3.2480315] }
 coordIndex [
  21,43,44,-1,21,44,0,-1,18,64,37,-1,18,63,64,-1,18,17,63,-1,31,47,48,-1,31,48,49,-1,20,39,40,-1,
  20,40,41,-1,30,5,4,-1,30,49,5,-1,20,41,21,-1,19,18,37,-1,30,31,49,-1,32,47,31,-1,19,37,38,-1,
  19,38,39,-1,19,39,20,-1,32,46,47,-1,29,30,4,-1,33,45,46,-1,33,46,32,-1,28,4,3,-1,28,29,4,-1,
  54,10,9,-1,34,45,33,-1,34,67,45,-1,53,9,8,-1,53,54,9,-1,27,28,3,-1,55,11,10,-1,15,14,60,-1,
  55,10,54,-1,15,60,61,-1,52,8,7,-1,52,53,8,-1,35,67,34,-1,35,66,67,-1,56,1,11,-1,26,27,3,-1,
  56,11,55,-1,51,7,6,-1,51,52,7,-1,36,66,35,-1,36,64,65,-1,57,12,1,-1,36,65,66,-1,57,1,56,-1,
  2,25,26,-1,50,6,5,-1,2,26,3,-1,50,51,6,-1,58,12,57,-1,58,13,12,-1,37,64,36,-1,49,50,5,-1,
  24,25,2,-1,59,13,58,-1,16,15,61,-1,16,61,62,-1,23,24,2,-1,14,13,59,-1,14,59,60,-1,0,22,23,-1,
  0,23,2,-1,44,22,0,-1,17,62,63,-1,17,16,62,-1,21,41,42,-1,21,42,43,-1]
  normalPerVertex TRUE
  normal DEF NORM_34 Normal { vector [
  0 0 1,0 0 1,
  0 0 1,0 0 1,
  0 0 1,0 0 1,
  0 0 1,0 0 1,
  0 0 1,0 0 1,
  0 0 1,0 0 1,
  0 0 1,0 0 1,
  0 0 1,0 0 1,
  0 0 1,0 0 1,
  0 0 1,0 0 1,
  0 0 1,0 0 1,
  0 0 1,0 0 1,
  0 0 1,0 0 1,
  0 0 1,0 0 1,
  0 0 1,0 0 1,
  0 0 1,0 0 1,
  0 0 1,0 0 1,
  0 0 1,0 0 1,
  0 0 1,0 0 1,
  0 0 1,0 0 1,
  0 0 1,0 0 1,
  0 0 1,0 0 1,
  0 0 1,0 0 1,
  0 0 1,0 0 1,
  0 0 1,0 0 1,
  0 0 1,0 0 1,
  0 0 1,0 0 1,
  0 0 1,0 0 1,
  0 0 1,0 0 1,
  0 0 1,0 0 1,
  0 0 1,0 0 1,
  0 0 1,0 0 1,
  0 0 1,0 0 1,
  0 0 1,0 0 1] }
}
}
DEF SHAPE_35 Shape {
 appearance USE APP_2
 geometry DEF FACE_35 IndexedFaceSet {
  coord DEF COORD_35 Coordinate { point [
  0.0019685039 0.78543307 1.3385827,0.63131727 0.69893107 1.3385827,
  1.2139901 0.44584054 1.3385827,1.7067729 0.044932037 1.3385827,
  2.0731181 -0.47406089 1.3385827,2.2858556 -1.0726469 1.3385827,
  2.3292077 -1.7064316 1.3385827,2.199959 -2.3284101 1.3385827,
  1.9076955 -2.8924531 1.3385827,1.4740929 -3.3567281 1.3385827,
  0.93130963 -3.686802 1.3385827,0.31960134 -3.8581946 1.3385827,
  -0.31566433 -3.8581946 1.3385827,-0.92737262 -3.686802 1.3385827,
  -1.4701559 -3.3567281 1.3385827,-1.9037585 -2.8924531 1.3385827,
  -2.196022 -2.3284101 1.3385827,-2.3252707 -1.7064316 1.3385827,
  -2.2819186 -1.0726469 1.3385827,-2.0691811 -0.47406089 1.3385827,
  -1.7028359 0.044932037 1.3385827,-1.2100531 0.44584054 1.3385827,
  -0.62738026 0.69893107 1.3385827,0.0019685039 -3.8405512 1.3385827,
  0.62069535 -3.7555091 1.3385827,1.1935341 -3.5066902 1.3385827,
  1.6779998 -3.1125481 1.3385827,2.038162 -2.6023145 1.3385827,
  2.247309 -2.0138312 1.3385827,2.2899294 -1.3907433 1.3385827,
  2.1628622 -0.77926231 1.3385827,1.8755313 -0.22473903 1.3385827,
  1.449247 0.23170011 1.3385827,0.91562455 0.55620308 1.3385827,
  0.31424045 0.72470301 1.3385827,-0.31030344 0.72470301 1.3385827,
  -0.91168754 0.55620308 1.3385827,-1.44531 0.23170011 1.3385827,
  -1.8715943 -0.22473903 1.3385827,-2.1589251 -0.77926231 1.3385827,
  -2.2859924 -1.3907433 1.3385827,-2.243372 -2.0138312 1.3385827,
  -2.034225 -2.6023145 1.3385827,-1.6740628 -3.1125481 1.3385827,
  -1.1895971 -3.5066902 1.3385827,-0.61675834 -3.7555091 1.3385827] }
 coordIndex [
  41,17,40,-1,45,23,12,-1,2,3,32,-1,31,32,3,-1,13,45,12,-1,4,31,3,-1,33,2,32,-1,42,16,41,-1,
  30,31,4,-1,44,45,13,-1,1,2,33,-1,5,30,4,-1,14,44,13,-1,14,43,44,-1,14,15,43,-1,43,15,42,-1,
  42,15,16,-1,34,1,33,-1,16,17,41,-1,17,18,40,-1,18,19,39,-1,29,30,5,-1,0,1,34,-1,6,29,5,-1,
  35,0,34,-1,28,29,6,-1,22,0,35,-1,7,28,6,-1,36,22,35,-1,27,28,7,-1,21,22,36,-1,8,27,7,-1,
  37,21,36,-1,26,27,8,-1,20,21,37,-1,9,26,8,-1,38,20,37,-1,25,26,9,-1,19,20,38,-1,10,25,9,-1,
  39,19,38,-1,24,25,10,-1,11,24,10,-1,40,18,39,-1,23,24,11,-1,12,23,11,-1]
  normalPerVertex TRUE
  normal DEF NORM_35 Normal { vector [
  0 0 -1,0 0 -1,
  0 0 -1,0 0 -1,
  0 0 -1,0 0 -1,
  0 0 -1,0 0 -1,
  0 0 -1,0 0 -1,
  0 0 -1,0 0 -1,
  0 0 -1,0 0 -1,
  0 0 -1,0 0 -1,
  0 0 -1,0 0 -1,
  0 0 -1,0 0 -1,
  0 0 -1,0 0 -1,
  0 0 -1,0 0 -1,
  0 0 -1,0 0 -1,
  0 0 -1,0 0 -1,
  0 0 -1,0 0 -1,
  0 0 -1,0 0 -1,
  0 0 -1,0 0 -1,
  0 0 -1,0 0 -1,
  0 0 -1,0 0 -1,
  0 0 -1,0 0 -1,
  0 0 -1,0 0 -1,
  0 0 -1,0 0 -1,
  0 0 -1,0 0 -1] }
}
}
DEF SHAPE_36 Shape {
 appearance USE APP_2
 geometry DEF FACE_36 IndexedFaceSet {
  coord DEF COORD_36 Coordinate { point [
  0.0019685039 -1.1043307 3.2480315,0.0019685039 -1.1043307 2.0669291,
  0.0019685039 -1.1043307 2.0669291,0.12146511 -1.1207551 2.0669291,
  0.23209919 -1.1688103 2.0669291,0.32566554 -1.2449322 2.0669291,
  0.39522475 -1.3434751 2.0669291,0.43561795 -1.4571307 2.0669291,
  0.44384936 -1.5774696 2.0669291,0.41930848 -1.6955668 2.0669291,
  0.36381541 -1.8026635 2.0669291,0.2814858 -1.890817 2.0669291,
  0.17842568 -1.9534893 2.0669291,0.062278536 -1.9860322 2.0669291,
  -0.058341528 -1.9860322 2.0669291,-0.17448867 -1.9534893 2.0669291,
  -0.27754879 -1.890817 2.0669291,-0.3598784 -1.8026635 2.0669291,
  -0.41537147 -1.6955668 2.0669291,-0.43991235 -1.5774696 2.0669291,
  -0.43168094 -1.4571307 2.0669291,-0.39128774 -1.3434751 2.0669291,
  -0.32172853 -1.2449322 2.0669291,-0.22816218 -1.1688103 2.0669291,
  -0.1175281 -1.1207551 2.0669291,0.0019685039 -1.1043307 3.2480315,
  0.12146511 -1.1207551 3.2480315,0.23209919 -1.1688103 3.2480315,
  0.32566554 -1.2449322 3.2480315,0.39522475 -1.3434751 3.2480315,
  0.43561795 -1.4571307 3.2480315,0.44384936 -1.5774696 3.2480315,
  0.41930848 -1.6955668 3.2480315,0.36381541 -1.8026635 3.2480315,
  0.2814858 -1.890817 3.2480315,0.17842568 -1.9534893 3.2480315,
  0.062278536 -1.9860322 3.2480315,-0.058341528 -1.9860322 3.2480315,
  -0.17448867 -1.9534893 3.2480315,-0.27754879 -1.890817 3.2480315,
  -0.3598784 -1.8026635 3.2480315,-0.41537147 -1.6955668 3.2480315,
  -0.43991235 -1.5774696 3.2480315,-0.43168094 -1.4571307 3.2480315,
  -0.39128774 -1.3434751 3.2480315,-0.32172853 -1.2449322 3.2480315,
  -0.22816218 -1.1688103 3.2480315,-0.1175281 -1.1207551 3.2480315] }
 coordIndex [
  22,45,44,-1,22,46,45,-1,23,46,22,-1,23,47,46,-1,24,47,23,-1,24,0,47,-1,3,25,2,-1,3,26,25,-1,
  1,0,24,-1,4,27,26,-1,4,28,27,-1,4,26,3,-1,5,28,4,-1,6,29,28,-1,6,30,29,-1,6,28,5,-1,
  7,31,30,-1,7,30,6,-1,8,32,31,-1,8,31,7,-1,9,33,32,-1,9,32,8,-1,10,33,9,-1,11,34,33,-1,
  11,35,34,-1,11,33,10,-1,12,35,11,-1,13,36,35,-1,13,35,12,-1,14,37,36,-1,14,36,13,-1,15,37,14,-1,
  15,38,37,-1,15,39,38,-1,16,39,15,-1,17,39,16,-1,17,40,39,-1,17,41,40,-1,18,41,17,-1,19,41,18,-1,
  19,42,41,-1,20,42,19,-1,20,43,42,-1,20,44,43,-1,21,44,20,-1,22,44,21,-1]
  normalPerVertex TRUE
  normal DEF NORM_36 Normal { vector [
  0.13616665 -0.99068595 0,0.13616665 -0.99068595 0,
  -0.13616665 -0.99068595 0,-0.22544364 -0.97425621 0,
  -0.51958395 -0.8544194 0,-0.73083596 -0.68255314 0,
  -0.88788522 -0.46006504 0,-0.98736981 -0.15843248 0,
  -0.99350003 0.11383181 0,-0.9259469 0.37765372 0,
  -0.81696989 0.57668032 0,-0.63108794 0.77571129 0,
  -0.39840109 0.9172113 0,-0.18136528 0.9834158 0,
  0.090682641 0.99587984 0,0.39840109 0.9172113 0,
  0.63108794 0.77571129 0,0.81696989 0.57668032 0,
  0.94226092 0.33487961 0,0.99350003 0.11383181 0,
  0.97908409 -0.20345601 0,0.88788522 -0.46006504 0,
  0.73083596 -0.68255314 0,0.47993476 -0.87730418 0,
  0.22544364 -0.97425621 0,-0.13616665 -0.99068595 0,
  -0.31358447 -0.94956031 0,-0.51958395 -0.8544194 0,
  -0.73083596 -0.68255314 0,-0.88788522 -0.46006504 0,
  -0.96874643 -0.24805315 0,-0.99974662 0.022509995 0,
  -0.95660018 0.29140367 0,-0.81696989 0.57668032 0,
  -0.63108794 0.77571129 0,-0.39840109 0.9172113 0,
  -0.090682641 0.99587984 0,0.18136528 0.9834158 0,
  0.39840109 0.9172113 0,0.63108794 0.77571129 0,
  0.81696989 0.57668032 0,0.94226092 0.33487961 0,
  0.99974662 0.022509995 0,0.97908409 -0.20345601 0,
  0.88788522 -0.46006504 0,0.73083596 -0.68255314 0,
  0.55814421 -0.82974396 0,0.31358447 -0.94956031 0] }
}
}
DEF SHAPE_37 Shape {
 appearance DEF APP_4 Appearance {
  material Material {
   ambientIntensity 0.1045082
   diffuseColor 0.95686275 0.95686275 0.95686275
   emissiveColor 0 0 0
   shininess 0.1
   specularColor 0.12 0.12 0.12
   transparency 0
} }
 geometry DEF FACE_37 IndexedFaceSet {
  coord DEF COORD_37 Coordinate { point [
  0.0019685039 -1.1043307 2.0669291,0.12146511 -1.1207551 2.0669291,
  0.23209919 -1.1688103 2.0669291,0.32566554 -1.2449322 2.0669291,
  0.39522475 -1.3434751 2.0669291,0.43561795 -1.4571307 2.0669291,
  0.44384936 -1.5774696 2.0669291,0.41930848 -1.6955668 2.0669291,
  0.36381541 -1.8026635 2.0669291,0.2814858 -1.890817 2.0669291,
  0.17842568 -1.9534893 2.0669291,0.062278536 -1.9860322 2.0669291,
  -0.058341528 -1.9860322 2.0669291,-0.17448867 -1.9534893 2.0669291,
  -0.27754879 -1.890817 2.0669291,-0.3598784 -1.8026635 2.0669291,
  -0.41537147 -1.6955668 2.0669291,-0.43991235 -1.5774696 2.0669291,
  -0.43168094 -1.4571307 2.0669291,-0.39128774 -1.3434751 2.0669291,
  -0.32172853 -1.2449322 2.0669291,-0.22816218 -1.1688103 2.0669291,
  -0.1175281 -1.1207551 2.0669291] }
 coordIndex [
  11,8,7,-1,11,9,8,-1,11,10,9,-1,5,7,6,-1,13,12,11,-1,13,11,7,-1,15,14,13,-1,15,13,7,-1,
  16,15,7,-1,1,3,2,-1,1,4,3,-1,17,16,7,-1,18,5,4,-1,18,7,5,-1,18,17,7,-1,22,1,0,-1,
  22,4,1,-1,22,18,4,-1,21,18,22,-1,20,19,18,-1,20,18,21,-1]
  normalPerVertex TRUE
  normal DEF NORM_37 Normal { vector [
  0 0 1,0 0 1,
  0 0 1,0 0 1,
  0 0 1,0 0 1,
  0 0 1,0 0 1,
  0 0 1,0 0 1,
  0 0 1,0 0 1,
  0 0 1,0 0 1,
  0 0 1,0 0 1,
  0 0 1,0 0 1,
  0 0 1,0 0 1,
  0 0 1,0 0 1,
  0 0 1] }
}
}
DEF SHAPE_38 Shape {
 appearance USE APP_2
 geometry DEF FACE_38 IndexedFaceSet {
  coord DEF COORD_38 Coordinate { point [
  0.0019685039 -3.8405512 1.3385827,0.0019685039 -3.8405512 1.3385827,
  0.62069535 -3.7555091 1.3385827,1.1935341 -3.5066902 1.3385827,
  1.6779998 -3.1125481 1.3385827,2.038162 -2.6023145 1.3385827,
  2.247309 -2.0138312 1.3385827,2.2899294 -1.3907433 1.3385827,
  2.1628622 -0.77926231 1.3385827,1.8755313 -0.22473903 1.3385827,
  1.449247 0.23170011 1.3385827,0.91562455 0.55620308 1.3385827,
  0.31424045 0.72470301 1.3385827,-0.31030344 0.72470301 1.3385827,
  -0.91168754 0.55620308 1.3385827,-1.44531 0.23170011 1.3385827,
  -1.8715943 -0.22473903 1.3385827,-2.1589251 -0.77926231 1.3385827,
  -2.2859924 -1.3907433 1.3385827,-2.243372 -2.0138312 1.3385827,
  -2.034225 -2.6023145 1.3385827,-1.6740628 -3.1125481 1.3385827,
  -1.1895971 -3.5066902 1.3385827,-0.61675834 -3.7555091 1.3385827,
  0.0019685039 -3.8405512 0.94488189,0.0019685039 -3.8405512 0.94488189,
  -0.61675834 -3.7555091 0.94488189,-1.1895971 -3.5066902 0.94488189,
  -1.6740628 -3.1125481 0.94488189,-2.034225 -2.6023145 0.94488189,
  -2.243372 -2.0138312 0.94488189,-2.2859924 -1.3907433 0.94488189,
  -2.1589251 -0.77926231 0.94488189,-1.8715943 -0.22473903 0.94488189,
  -1.44531 0.23170011 0.94488189,-0.91168754 0.55620308 0.94488189,
  -0.31030344 0.72470301 0.94488189,0.31424045 0.72470301 0.94488189,
  0.91562455 0.55620308 0.94488189,1.449247 0.23170011 0.94488189,
  1.8755313 -0.22473903 0.94488189,2.1628622 -0.77926231 0.94488189,
  2.2899294 -1.3907433 0.94488189,2.247309 -2.0138312 0.94488189,
  2.038162 -2.6023145 0.94488189,1.6779998 -3.1125481 0.94488189,
  1.1935341 -3.5066902 0.94488189,0.62069535 -3.7555091 0.94488189] }
 coordIndex [
  20,30,29,-1,20,19,30,-1,21,29,28,-1,21,20,29,-1,0,24,47,-1,22,27,26,-1,22,28,27,-1,22,21,28,-1,
  2,0,47,-1,23,26,25,-1,23,22,26,-1,3,47,46,-1,3,2,47,-1,1,23,25,-1,4,46,45,-1,4,3,46,-1,
  5,45,44,-1,5,4,45,-1,6,44,43,-1,6,5,44,-1,7,43,42,-1,7,6,43,-1,8,42,41,-1,8,7,42,-1,
  9,41,40,-1,9,8,41,-1,10,40,39,-1,10,9,40,-1,11,39,38,-1,11,10,39,-1,12,38,37,-1,12,11,38,-1,
  13,37,36,-1,13,12,37,-1,14,13,36,-1,14,36,35,-1,15,14,35,-1,15,35,34,-1,16,15,34,-1,16,34,33,-1,
  17,16,33,-1,17,33,32,-1,18,17,32,-1,18,32,31,-1,19,18,31,-1,19,31,30,-1]
  normalPerVertex TRUE
  normal DEF NORM_38 Normal { vector [
  0.13616665 -0.99068595 0,-0.13616665 -0.99068595 0,
  0.26979677 -0.96291729 0,0.47993476 -0.87730418 0,
  0.69883131 -0.71528652 0,0.86589874 -0.50021932 0,
  0.96874643 -0.24805315 0,0.99974662 0.022509995 0,
  0.95660018 0.29140367 0,0.84250708 0.53868527 0,
  0.66592908 0.74601505 0,0.43996217 0.89801631 0,
  0.18136528 0.9834158 0,-0.090682641 0.99587984 0,
  -0.35600505 0.93448403 0,-0.59492419 0.80378182 0,
  -0.78972053 0.61346678 0,-0.9259469 0.37765372 0,
  -0.99350003 0.11383181 0,-0.98736981 -0.15843248 0,
  -0.90801089 -0.41894656 0,-0.76130895 -0.6483893 0,
  -0.51958395 -0.8544194 0,-0.22544364 -0.97425621 0,
  0.13616665 -0.99068595 0,-0.13616665 -0.99068595 0,
  -0.31358447 -0.94956031 0,-0.51958395 -0.8544194 0,
  -0.69883131 -0.71528652 0,-0.86589874 -0.50021932 0,
  -0.96874643 -0.24805315 0,-0.99974662 0.022509995 0,
  -0.95660018 0.29140367 0,-0.84250708 0.53868527 0,
  -0.66592908 0.74601505 0,-0.43996217 0.89801631 0,
  -0.18136528 0.9834158 0,0.090682641 0.99587984 0,
  0.35600505 0.93448403 0,0.59492419 0.80378182 0,
  0.78972053 0.61346678 0,0.9259469 0.37765372 0,
  0.99350003 0.11383181 0,0.98736981 -0.15843248 0,
  0.90801089 -0.41894656 0,0.76130895 -0.6483893 0,
  0.55814421 -0.82974396 0,0.26979677 -0.96291729 0] }
}
}
DEF SHAPE_39 Shape {
 appearance USE APP_2
 geometry DEF FACE_39 IndexedFaceSet {
  coord DEF COORD_39 Coordinate { point [
  0.0019685039 0.78543307 0.94488189,-0.62738026 0.69893107 0.94488189,
  -1.2100531 0.44584054 0.94488189,-1.7028359 0.044932037 0.94488189,
  -2.0691811 -0.47406089 0.94488189,-2.2819186 -1.0726469 0.94488189,
  -2.3252707 -1.7064316 0.94488189,-2.196022 -2.3284101 0.94488189,
  -1.9037585 -2.8924531 0.94488189,-1.4701559 -3.3567281 0.94488189,
  -0.92737262 -3.686802 0.94488189,-0.31566433 -3.8581946 0.94488189,
  0.31960134 -3.8581946 0.94488189,0.93130963 -3.686802 0.94488189,
  1.4740929 -3.3567281 0.94488189,1.9076955 -2.8924531 0.94488189,
  2.199959 -2.3284101 0.94488189,2.3292077 -1.7064316 0.94488189,
  2.2858556 -1.0726469 0.94488189,2.0731181 -0.47406089 0.94488189,
  1.7067729 0.044932037 0.94488189,1.2139901 0.44584054 0.94488189,
  0.63131727 0.69893107 0.94488189,0.0019685039 -3.8405512 0.94488189,
  -0.61675834 -3.7555091 0.94488189,-1.1895971 -3.5066902 0.94488189,
  -1.6740628 -3.1125481 0.94488189,-2.034225 -2.6023145 0.94488189,
  -2.243372 -2.0138312 0.94488189,-2.2859924 -1.3907433 0.94488189,
  -2.1589251 -0.77926231 0.94488189,-1.8715943 -0.22473903 0.94488189,
  -1.44531 0.23170011 0.94488189,-0.91168754 0.55620308 0.94488189,
  -0.31030344 0.72470301 0.94488189,0.31424045 0.72470301 0.94488189,
  0.91562455 0.55620308 0.94488189,1.449247 0.23170011 0.94488189,
  1.8755313 -0.22473903 0.94488189,2.1628622 -0.77926231 0.94488189,
  2.2899294 -1.3907433 0.94488189,2.247309 -2.0138312 0.94488189,
  2.038162 -2.6023145 0.94488189,1.6779998 -3.1125481 0.94488189,
  1.1935341 -3.5066902 0.94488189,0.62069535 -3.7555091 0.94488189] }
 coordIndex [
  30,5,29,-1,33,34,1,-1,13,14,44,-1,31,4,30,-1,2,33,1,-1,16,42,15,-1,32,33,2,-1,2,3,32,-1,
  32,3,31,-1,31,3,4,-1,4,5,30,-1,45,13,44,-1,5,6,29,-1,6,7,28,-1,42,43,15,-1,15,43,14,-1,
  14,43,44,-1,41,42,16,-1,12,13,45,-1,17,41,16,-1,23,12,45,-1,40,41,17,-1,11,12,23,-1,18,40,17,-1,
  24,11,23,-1,39,40,18,-1,10,11,24,-1,19,39,18,-1,25,10,24,-1,38,39,19,-1,9,10,25,-1,20,38,19,-1,
  26,9,25,-1,37,38,20,-1,8,9,26,-1,21,37,20,-1,27,8,26,-1,36,37,21,-1,7,8,27,-1,22,36,21,-1,
  28,7,27,-1,35,36,22,-1,0,35,22,-1,29,6,28,-1,34,35,0,-1,1,34,0,-1]
  normalPerVertex TRUE
  normal DEF NORM_39 Normal { vector [
  0 0 1,0 0 1,
  0 0 1,0 0 1,
  0 0 1,0 0 1,
  0 0 1,0 0 1,
  0 0 1,0 0 1,
  0 0 1,0 0 1,
  0 0 1,0 0 1,
  0 0 1,0 0 1,
  0 0 1,0 0 1,
  0 0 1,0 0 1,
  0 0 1,0 0 1,
  0 0 1,0 0 1,
  0 0 1,0 0 1,
  0 0 1,0 0 1,
  0 0 1,0 0 1,
  0 0 1,0 0 1,
  0 0 1,0 0 1,
  0 0 1,0 0 1,
  0 0 1,0 0 1,
  0 0 1,0 0 1,
  0 0 1,0 0 1,
  0 0 1,0 0 1,
  0 0 1,0 0 1] }
}
}
DEF SHAPE_40 Shape {
 appearance USE APP_2
 geometry DEF FACE_40 IndexedFaceSet {
  coord DEF COORD_40 Coordinate { point [
  0.0019685039 0.78543307 0.94488189,0.0019685039 0.78543307 0.94488189,
  -0.62738026 0.69893107 0.94488189,-1.2100531 0.44584054 0.94488189,
  -1.7028359 0.044932037 0.94488189,-2.0691811 -0.47406089 0.94488189,
  -2.2819186 -1.0726469 0.94488189,-2.3252707 -1.7064316 0.94488189,
  -2.196022 -2.3284101 0.94488189,-1.9037585 -2.8924531 0.94488189,
  -1.4701559 -3.3567281 0.94488189,-0.92737262 -3.686802 0.94488189,
  -0.31566433 -3.8581946 0.94488189,0.31960134 -3.8581946 0.94488189,
  0.93130963 -3.686802 0.94488189,1.4740929 -3.3567281 0.94488189,
  1.9076955 -2.8924531 0.94488189,2.199959 -2.3284101 0.94488189,
  2.3292077 -1.7064316 0.94488189,2.2858556 -1.0726469 0.94488189,
  2.0731181 -0.47406089 0.94488189,1.7067729 0.044932037 0.94488189,
  1.2139901 0.44584054 0.94488189,0.63131727 0.69893107 0.94488189,
  0.0019685039 0.78543307 0,-2.0537991 -0.44488189 0,
  -1.6858546 0.062922356 0,-1.1959312 0.45436 0,
  -0.61943579 0.70114187 0,-2.0537991 -0.44488189 0.29527559,
  -2.0537991 -2.6496063 0.29527559,-2.2993825 -1.1662373 0.29527559,
  -2.2993825 -1.9282509 0.29527559,-2.0537991 -2.6496063 0,
  2.0577361 -2.6496063 0,1.6897916 -3.1574105 0,
  1.1998683 -3.5488482 0,0.6233728 -3.7956301 0,
  0.0019685039 -3.8799213 0,-0.61943579 -3.7956301 0,
  -1.1959312 -3.5488482 0,-1.6858546 -3.1574105 0,
  2.0577361 -2.6496063 0.29527559,2.0577361 -0.44488189 0.29527559,
  2.3033195 -1.9282509 0.29527559,2.3033195 -1.1662373 0.29527559,
  2.0577361 -0.44488189 0,0.0019685039 0.78543307 0,
  0.6233728 0.70114187 0,1.1998683 0.45436 0,
  1.6897916 0.062922356 0] }
 coordIndex [
  19,18,45,-1,19,45,43,-1,50,43,46,-1,0,24,28,-1,20,19,43,-1,2,28,27,-1,2,0,28,-1,21,43,50,-1,
  21,20,43,-1,3,27,26,-1,22,21,50,-1,3,2,27,-1,22,50,49,-1,29,26,25,-1,23,49,48,-1,23,22,49,-1,
  4,3,26,-1,1,48,47,-1,4,26,29,-1,1,23,48,-1,5,4,29,-1,6,29,31,-1,6,5,29,-1,7,31,32,-1,
  7,6,31,-1,41,30,33,-1,8,32,30,-1,8,7,32,-1,9,30,41,-1,9,8,30,-1,10,41,40,-1,10,9,41,-1,
  11,40,39,-1,11,10,40,-1,12,39,38,-1,12,11,39,-1,13,12,38,-1,13,38,37,-1,14,13,37,-1,14,37,36,-1,
  15,14,36,-1,15,36,35,-1,42,35,34,-1,16,15,35,-1,16,35,42,-1,17,16,42,-1,17,42,44,-1,18,17,44,-1,
  18,44,45,-1]
  normalPerVertex TRUE
  normal DEF NORM_40 Normal { vector [
  -0.13529669 0.99080495 0.00059034383,0.13529669 0.99080495 0.00059034383,
  -0.31153875 0.95023312 0.00079173777,-0.55538029 0.83159566 0.0011769626,
  -0.75113435 0.66014707 0.0017415157,-0.88788516 0.46006501 -0.00035900614,
  -0.96856675 0.24870621 -0.0048655162,-0.99909513 -0.042531378 -0.00011287667,
  -0.94393165 -0.33013541 0.0019115741,-0.80700912 -0.5904625 0.0095035236,
  -0.62878533 -0.77753772 0.0080062599,-0.39677033 -0.91788282 0.0080272672,
  -0.13557994 -0.99073381 0.0080377708,0.13557994 -0.99073381 0.0080377708,
  0.39677033 -0.91788282 0.0080272672,0.62878533 -0.77753772 0.0080062599,
  0.80700912 -0.5904625 0.0095035236,0.94393165 -0.33013541 0.0019115741,
  0.99909513 -0.042531378 -0.00011287667,0.96856675 0.24870621 -0.0048655162,
  0.88788516 0.46006501 -0.00035900614,0.75113435 0.66014707 0.0017415157,
  0.55538029 0.83159566 0.0011769626,0.31153875 0.95023312 0.00079173777,
  -0.13441533 0.99092508 0,-0.80977227 0.5867443 0,
  -0.70537911 0.70882992 -0.00066797094,-0.4754795 0.87972672 -0.00036699814,
  -0.22278336 0.97486798 1.0228545e-05,-0.87893198 0.47690775 -0.0061286625,
  -0.88176075 -0.47146568 -0.014767835,-0.99067837 0.13520141 -0.016641449,
  -0.98427528 -0.1752385 -0.02221809,-0.80977227 -0.5867443 0,
  0.80977227 -0.5867443 0,0.73232821 -0.6809177 -0.0068177319,
  0.51556745 -0.85681908 -0.0071604538,0.26753653 -0.963521 -0.0071756738,
  0 -0.99997422 -0.0071807472,-0.26753653 -0.963521 -0.0071756738,
  -0.51556745 -0.85681908 -0.0071604538,-0.73232821 -0.6809177 -0.0068177319,
  0.88176075 -0.47146568 -0.014767835,0.87893198 0.47690775 -0.0061286625,
  0.98427528 -0.1752385 -0.02221809,0.99067837 0.13520141 -0.016641449,
  0.80977227 0.5867443 0,0.13441533 0.99092508 0,
  0.22278336 0.97486798 1.0228545e-05,0.4754795 0.87972672 -0.00036699814,
  0.70537911 0.70882992 -0.00066797094] }
}
}
] }
DEF TXFM_6 Transform {
  center 0 0 0
  rotation 0 0 1 0
  scale 1 1 1
  scaleOrientation 0 0 1 0
  translation 0 0 0
 children [
DEF SHAPE_41 Shape {
 appearance DEF APP_5 Appearance {
  material Material {
   ambientIntensity 0.21985972
   diffuseColor 0.050980393 0.6156863 0.050980393
   emissiveColor 0 0 0
   shininess 0.1
   specularColor 0.12 0.12 0.12
   transparency 0
} }
 geometry DEF FACE_41 IndexedFaceSet {
  coord DEF COORD_41 Coordinate { point [
  1.1830709 -0.11006769 0.68897638,1.1830709 -1.1840551 0.68897638,
  1.1830709 -1.1840551 0.29527559,1.1830709 -0.11006769 0.29527559] }
 coordIndex [
  2,0,1,-1,2,3,0,-1]
  normalPerVertex TRUE
  normal DEF NORM_41 Normal { vector [
  1 0 0,1 0 0,
  1 0 0,1 0 0] }
}
}
DEF SHAPE_42 Shape {
 appearance USE APP_5
 geometry DEF FACE_42 IndexedFaceSet {
  coord DEF COORD_42 Coordinate { point [
  -1.1791339 -0.11006769 0.68897638,1.1830709 -0.11006769 0.68897638,
  -0.74421674 0.15677656 0.68897638,-0.2531583 0.29541407 0.68897638,
  0.25709531 0.29541407 0.68897638,0.74815375 0.15677656 0.68897638,
  1.1830709 -0.11006769 0.29527559,-1.1791339 -0.11006769 0.29527559,
  -0.74421674 0.15677656 0.29527559,-0.2531583 0.29541407 0.29527559,
  0.25709531 0.29541407 0.29527559,0.74815375 0.15677656 0.29527559] }
 coordIndex [
  7,0,2,-1,8,7,2,-1,9,2,3,-1,9,8,2,-1,10,3,4,-1,10,4,5,-1,10,9,3,-1,11,10,5,-1,
  6,5,1,-1,6,11,5,-1]
  normalPerVertex TRUE
  normal DEF NORM_42 Normal { vector [
  -0.52296396 0.8523548 0,0.52296396 0.8523548 0,
  -0.40112392 0.9160238 0,-0.091334469 0.99582027 0,
  0.13714753 0.99055063 0,0.40112392 0.9160238 0,
  0.52296396 0.8523548 0,-0.52296396 0.8523548 0,
  -0.40112392 0.9160238 0,-0.18266894 0.98317448 0,
  0.13714753 0.99055063 0,0.40112392 0.9160238 0] }
}
}
DEF SHAPE_43 Shape {
 appearance USE APP_5
 geometry DEF FACE_43 IndexedFaceSet {
  coord DEF COORD_43 Coordinate { point [
  -1.1791339 -1.1839908 0.68897638,-1.1791339 -0.11006769 0.68897638,
  -1.1791339 -0.11006769 0.29527559,-1.1791339 -1.1839908 0.29527559] }
 coordIndex [
  1,3,0,-1,2,3,1,-1]
  normalPerVertex TRUE
  normal DEF NORM_43 Normal { vector [
  -1 0 0,-1 0 0,
  -1 0 0,-1 0 0] }
}
}
DEF SHAPE_44 Shape {
 appearance USE APP_5
 geometry DEF FACE_44 IndexedFaceSet {
  coord DEF COORD_44 Coordinate { point [
  -1.1791339 -1.9104974 0.68897638,-1.1791339 -1.9104974 0.29527559,
  -1.1791339 -1.1839908 0.29527559,-1.0767936 -1.895783 0.29527559,
  -0.98274432 -1.8528322 0.29527559,-0.90460536 -1.7851244 0.29527559,
  -0.84870707 -1.698145 0.29527559,-0.81957799 -1.5989404 0.29527559,
  -0.81957799 -1.4955478 0.29527559,-0.84870707 -1.3963432 0.29527559,
  -0.90460536 -1.3093638 0.29527559,-0.98274432 -1.241656 0.29527559,
  -1.0767936 -1.1987051 0.29527559,-1.1791339 -1.1839908 0.68897638,
  -1.0767936 -1.895783 0.68897638,-0.98274432 -1.8528322 0.68897638,
  -0.90460536 -1.7851244 0.68897638,-0.84870707 -1.698145 0.68897638,
  -0.81957799 -1.5989404 0.68897638,-0.81957799 -1.4955478 0.68897638,
  -0.84870707 -1.3963432 0.68897638,-0.90460536 -1.3093638 0.68897638,
  -0.98274432 -1.241656 0.68897638,-1.0767936 -1.1987051 0.68897638] }
 coordIndex [
  12,13,2,-1,12,23,13,-1,11,22,23,-1,11,23,12,-1,10,20,21,-1,10,21,22,-1,10,22,11,-1,9,20,10,-1,
  8,19,20,-1,8,20,9,-1,7,17,18,-1,7,18,19,-1,7,19,8,-1,6,17,7,-1,5,16,17,-1,5,17,6,-1,
  4,15,16,-1,4,16,5,-1,3,14,15,-1,3,15,4,-1,1,0,14,-1,1,14,3,-1]
  normalPerVertex TRUE
  normal DEF NORM_44 Normal { vector [
  -0.14231484 0.98982144 0,-0.14231484 0.98982144 0,
  -0.14231484 -0.98982144 0,-0.32734159 0.94490607 0,
  -0.58029276 0.81440795 0,-0.78623206 0.61793135 0,
  -0.909632 0.41541501 0,-0.98982144 0.14231484 0,
  -0.98187386 -0.18953557 0,-0.909632 -0.41541501 0,
  -0.75574957 -0.65486073 0,-0.49974921 -0.86617015 0,
  -0.23547752 -0.9718798 0,-0.14231484 -0.98982144 0,
  -0.23547752 0.9718798 0,-0.49974921 0.86617015 0,
  -0.72353418 0.69028855 0,-0.909632 0.41541501 0,
  -0.98982144 0.14231484 0,-0.99549941 -0.094767785 0,
  -0.909632 -0.41541501 0,-0.75574957 -0.65486073 0,
  -0.58029276 -0.81440795 0,-0.32734159 -0.94490607 0] }
}
}
DEF SHAPE_45 Shape {
 appearance USE APP_5
 geometry DEF FACE_45 IndexedFaceSet {
  coord DEF COORD_45 Coordinate { point [
  -1.1791339 -2.9844205 0.68897638,-1.1791339 -1.9104974 0.68897638,
  -1.1791339 -1.9104974 0.29527559,-1.1791339 -2.9844205 0.29527559] }
 coordIndex [
  2,0,1,-1,2,3,0,-1]
  normalPerVertex TRUE
  normal DEF NORM_45 Normal { vector [
  -1 0 0,-1 0 0,
  -1 0 0,-1 0 0] }
}
}
DEF SHAPE_46 Shape {
 appearance USE APP_5
 geometry DEF FACE_46 IndexedFaceSet {
  coord DEF COORD_46 Coordinate { point [
  1.1830709 -2.9844205 0.68897638,-1.1791339 -2.9844205 0.68897638,
  0.74815375 -3.2512647 0.68897638,0.25709531 -3.3899023 0.68897638,
  -0.2531583 -3.3899023 0.68897638,-0.74421674 -3.2512647 0.68897638,
  -1.1791339 -2.9844205 0.29527559,1.1830709 -2.9844205 0.29527559,
  0.74815375 -3.2512647 0.29527559,0.25709531 -3.3899023 0.29527559,
  -0.2531583 -3.3899023 0.29527559,-0.74421674 -3.2512647 0.29527559] }
 coordIndex [
  8,0,2,-1,8,7,0,-1,9,2,3,-1,9,8,2,-1,10,3,4,-1,10,4,5,-1,10,9,3,-1,11,10,5,-1,
  6,5,1,-1,6,11,5,-1]
  normalPerVertex TRUE
  normal DEF NORM_46 Normal { vector [
  0.52296396 -0.8523548 0,-0.52296396 -0.8523548 0,
  0.35846607 -0.93354276 0,0.091334469 -0.99582027 0,
  -0.13714753 -0.99055063 0,-0.40112392 -0.9160238 0,
  -0.52296396 -0.8523548 0,0.52296396 -0.8523548 0,
  0.44292874 -0.89655682 0,0.18266894 -0.98317448 0,
  -0.13714753 -0.99055063 0,-0.40112392 -0.9160238 0] }
}
}
DEF SHAPE_47 Shape {
 appearance USE APP_5
 geometry DEF FACE_47 IndexedFaceSet {
  coord DEF COORD_47 Coordinate { point [
  1.1830709 -1.9104331 0.68897638,1.1830709 -2.9844205 0.68897638,
  1.1830709 -2.9844205 0.29527559,1.1830709 -1.9104331 0.29527559] }
 coordIndex [
  2,0,1,-1,2,3,0,-1]
  normalPerVertex TRUE
  normal DEF NORM_47 Normal { vector [
  1 0 0,1 0 0,
  1 0 0,1 0 0] }
}
}
DEF SHAPE_48 Shape {
 appearance USE APP_5
 geometry DEF FACE_48 IndexedFaceSet {
  coord DEF COORD_48 Coordinate { point [
  1.1830709 -1.1840551 0.68897638,1.1830709 -1.1840551 0.29527559,
  1.1830709 -1.9104331 0.29527559,1.0807487 -1.1987668 0.29527559,
  0.98671608 -1.2417101 0.29527559,0.90859095 -1.3094059 0.29527559,
  0.85270255 -1.3963699 0.29527559,0.82357863 -1.4955569 0.29527559,
  0.82357863 -1.5989313 0.29527559,0.85270255 -1.6981182 0.29527559,
  0.90859095 -1.7850823 0.29527559,0.98671608 -1.8527781 0.29527559,
  1.0807487 -1.8957214 0.29527559,1.1830709 -1.9104331 0.68897638,
  1.0807487 -1.1987668 0.68897638,0.98671608 -1.2417101 0.68897638,
  0.90859095 -1.3094059 0.68897638,0.85270255 -1.3963699 0.68897638,
  0.82357863 -1.4955569 0.68897638,0.82357863 -1.5989313 0.68897638,
  0.85270255 -1.6981182 0.68897638,0.90859095 -1.7850823 0.68897638,
  0.98671608 -1.8527781 0.68897638,1.0807487 -1.8957214 0.68897638] }
 coordIndex [
  12,13,2,-1,12,23,13,-1,11,22,23,-1,11,23,12,-1,10,20,21,-1,10,21,22,-1,10,22,11,-1,9,20,10,-1,
  8,19,20,-1,8,20,9,-1,7,18,19,-1,7,19,8,-1,6,16,17,-1,6,17,18,-1,6,18,7,-1,5,16,6,-1,
  4,15,16,-1,4,16,5,-1,3,14,15,-1,3,15,4,-1,1,0,14,-1,1,14,3,-1]
  normalPerVertex TRUE
  normal DEF NORM_48 Normal { vector [
  0.14231484 -0.98982144 0,0.14231484 -0.98982144 0,
  0.14231484 0.98982144 0,0.32734159 -0.94490607 0,
  0.58029276 -0.81440795 0,0.75574957 -0.65486073 0,
  0.909632 -0.41541501 0,0.99549941 -0.094767785 0,
  0.98187386 0.18953557 0,0.909632 0.41541501 0,
  0.75574957 0.65486073 0,0.49974921 0.86617015 0,
  0.23547752 0.9718798 0,0.14231484 0.98982144 0,
  0.23547752 -0.9718798 0,0.49974921 -0.86617015 0,
  0.75574957 -0.65486073 0,0.909632 -0.41541501 0,
  0.98187386 -0.18953557 0,0.99549941 0.094767785 0,
  0.909632 0.41541501 0,0.75574957 0.65486073 0,
  0.58029276 0.81440795 0,0.32734159 0.94490607 0] }
}
}
DEF SHAPE_49 Shape {
 appearance USE APP_5
 geometry DEF FACE_49 IndexedFaceSet {
  coord DEF COORD_49 Coordinate { point [
  1.1830709 -1.1840551 0.29527559,1.1830709 -1.9104331 0.29527559,
  1.0807487 -1.1987668 0.29527559,0.98671608 -1.2417101 0.29527559,
  0.90859095 -1.3094059 0.29527559,0.85270255 -1.3963699 0.29527559,
  0.82357863 -1.4955569 0.29527559,0.82357863 -1.5989313 0.29527559,
  0.85270255 -1.6981182 0.29527559,0.90859095 -1.7850823 0.29527559,
  0.98671608 -1.8527781 0.29527559,1.0807487 -1.8957214 0.29527559,
  1.1830709 -2.9844205 0.29527559,-1.1791339 -2.9844205 0.29527559,
  0.74815375 -3.2512647 0.29527559,0.25709531 -3.3899023 0.29527559,
  -0.2531583 -3.3899023 0.29527559,-0.74421674 -3.2512647 0.29527559,
  -1.1791339 -1.9104974 0.29527559,-1.1791339 -1.1839908 0.29527559,
  -1.0767936 -1.895783 0.29527559,-0.98274432 -1.8528322 0.29527559,
  -0.90460536 -1.7851244 0.29527559,-0.84870707 -1.698145 0.29527559,
  -0.81957799 -1.5989404 0.29527559,-0.81957799 -1.4955478 0.29527559,
  -0.84870707 -1.3963432 0.29527559,-0.90460536 -1.3093638 0.29527559,
  -0.98274432 -1.241656 0.29527559,-1.0767936 -1.1987051 0.29527559,
  -1.1791339 -0.11006769 0.29527559,1.1830709 -0.11006769 0.29527559,
  -0.74421674 0.15677656 0.29527559,-0.2531583 0.29541407 0.29527559,
  0.25709531 0.29541407 0.29527559,0.74815375 0.15677656 0.29527559] }
 coordIndex [
  34,27,33,-1,34,4,27,-1,35,3,4,-1,35,4,34,-1,31,0,2,-1,31,2,3,-1,31,3,35,-1,20,13,18,-1,
  21,17,13,-1,21,13,20,-1,22,15,16,-1,22,16,17,-1,22,17,21,-1,30,28,29,-1,30,29,19,-1,9,14,15,-1,
  9,22,23,-1,9,15,22,-1,10,12,14,-1,10,14,9,-1,8,23,24,-1,8,9,23,-1,11,12,10,-1,7,8,24,-1,
  1,12,11,-1,6,24,25,-1,6,7,24,-1,32,27,28,-1,32,28,30,-1,5,25,26,-1,5,6,25,-1,4,26,27,-1,
  4,5,26,-1,33,27,32,-1]
  normalPerVertex TRUE
  normal DEF NORM_49 Normal { vector [
  0 0 -1,0 0 -1,
  0 0 -1,0 0 -1,
  0 0 -1,0 0 -1,
  0 0 -1,0 0 -1,
  0 0 -1,0 0 -1,
  0 0 -1,0 0 -1,
  0 0 -1,0 0 -1,
  0 0 -1,0 0 -1,
  0 0 -1,0 0 -1,
  0 0 -1,0 0 -1,
  0 0 -1,0 0 -1,
  0 0 -1,0 0 -1,
  0 0 -1,0 0 -1,
  0 0 -1,0 0 -1,
  0 0 -1,0 0 -1,
  0 0 -1,0 0 -1,
  0 0 -1,0 0 -1,
  0 0 -1,0 0 -1] }
}
}
DEF SHAPE_50 Shape {
 appearance USE APP_5
 geometry DEF FACE_50 IndexedFaceSet {
  coord DEF COORD_50 Coordinate { point [
  1.1830709 -1.1840551 0.68897638,1.1830709 -1.9104331 0.68897638,
  1.0807487 -1.1987668 0.68897638,0.98671608 -1.2417101 0.68897638,
  0.90859095 -1.3094059 0.68897638,0.85270255 -1.3963699 0.68897638,
  0.82357863 -1.4955569 0.68897638,0.82357863 -1.5989313 0.68897638,
  0.85270255 -1.6981182 0.68897638,0.90859095 -1.7850823 0.68897638,
  0.98671608 -1.8527781 0.68897638,1.0807487 -1.8957214 0.68897638,
  1.1830709 -0.11006769 0.68897638,-1.1791339 -0.11006769 0.68897638,
  -0.74421674 0.15677656 0.68897638,-0.2531583 0.29541407 0.68897638,
  0.25709531 0.29541407 0.68897638,0.74815375 0.15677656 0.68897638,
  -1.1791339 -1.1839908 0.68897638,-1.1791339 -1.9104974 0.68897638,
  -1.0767936 -1.895783 0.68897638,-0.98274432 -1.8528322 0.68897638,
  -0.90460536 -1.7851244 0.68897638,-0.84870707 -1.698145 0.68897638,
  -0.81957799 -1.5989404 0.68897638,-0.81957799 -1.4955478 0.68897638,
  -0.84870707 -1.3963432 0.68897638,-0.90460536 -1.3093638 0.68897638,
  -0.98274432 -1.241656 0.68897638,-1.0767936 -1.1987051 0.68897638,
  -1.1791339 -2.9844205 0.68897638,1.1830709 -2.9844205 0.68897638,
  0.74815375 -3.2512647 0.68897638,0.25709531 -3.3899023 0.68897638,
  -0.2531583 -3.3899023 0.68897638,-0.74421674 -3.2512647 0.68897638] }
 coordIndex [
  16,15,27,-1,16,27,4,-1,17,4,3,-1,17,16,4,-1,12,2,0,-1,12,3,2,-1,12,17,3,-1,20,19,30,-1,
  21,30,35,-1,21,20,30,-1,22,34,33,-1,22,35,34,-1,22,21,35,-1,13,29,28,-1,13,18,29,-1,9,23,22,-1,
  9,33,32,-1,9,22,33,-1,10,32,31,-1,10,9,32,-1,8,24,23,-1,8,23,9,-1,11,10,31,-1,7,24,8,-1,
  1,11,31,-1,6,25,24,-1,6,24,7,-1,14,28,27,-1,14,13,28,-1,5,26,25,-1,5,25,6,-1,4,27,26,-1,
  4,26,5,-1,15,14,27,-1]
  normalPerVertex TRUE
  normal DEF NORM_50 Normal { vector [
  0 0 1,0 0 1,
  0 0 1,0 0 1,
  0 0 1,0 0 1,
  0 0 1,0 0 1,
  0 0 1,0 0 1,
  0 0 1,0 0 1,
  0 0 1,0 0 1,
  0 0 1,0 0 1,
  0 0 1,0 0 1,
  0 0 1,0 0 1,
  0 0 1,0 0 1,
  0 0 1,0 0 1,
  0 0 1,0 0 1,
  0 0 1,0 0 1,
  0 0 1,0 0 1,
  0 0 1,0 0 1,
  0 0 1,0 0 1,
  0 0 1,0 0 1] }
}
}
] }
] }
] }
