(module 803562 (layer F.Cu) (tedit 5BE1D57C)
  (fp_text reference REF** (at 0.16 15.73) (layer F.SilkS)
    (effects (font (size 1 1) (thickness 0.15)))
  )
  (fp_text value 803562 (at -0.03 -12.85) (layer F.Fab)
    (effects (font (size 1 1) (thickness 0.15)))
  )
  (fp_line (start -31 -17.5) (end 31 -17.5) (layer F.SilkS) (width 0.15))
  (fp_line (start 31 -17.5) (end 31 17.5) (layer F.SilkS) (width 0.15))
  (fp_line (start -31 17.5) (end -31 -17.5) (layer F.SilkS) (width 0.15))
  (fp_line (start -31 17.5) (end 31 17.5) (layer F.SilkS) (width 0.15))
)
