G04 #@! TF.GenerationSoftware,KiCad,Pcbnew,5.0.2+dfsg1-1~bpo9+1*
G04 #@! TF.CreationDate,2019-06-17T00:41:48+02:00*
G04 #@! TF.ProjectId,3Phase,33506861-7365-42e6-9b69-6361645f7063,rev?*
G04 #@! TF.SameCoordinates,Original*
G04 #@! TF.FileFunction,Legend,Top*
G04 #@! TF.FilePolarity,Positive*
%FSLAX46Y46*%
G04 Gerber Fmt 4.6, Leading zero omitted, Abs format (unit mm)*
G04 Created by KiCad (PCBNEW 5.0.2+dfsg1-1~bpo9+1) date lun 17 jun 2019 00:41:48 CEST*
%MOMM*%
%LPD*%
G01*
G04 APERTURE LIST*
%ADD10C,0.200000*%
%ADD11C,0.300000*%
%ADD12C,0.120000*%
%ADD13C,0.150000*%
G04 APERTURE END LIST*
D10*
X207340200Y-24257000D02*
X207340200Y-24587200D01*
D11*
X160371885Y-26611971D02*
X160371885Y-25111971D01*
X160943314Y-25111971D01*
X161086171Y-25183400D01*
X161157600Y-25254828D01*
X161229028Y-25397685D01*
X161229028Y-25611971D01*
X161157600Y-25754828D01*
X161086171Y-25826257D01*
X160943314Y-25897685D01*
X160371885Y-25897685D01*
X162157600Y-25111971D02*
X162443314Y-25111971D01*
X162586171Y-25183400D01*
X162729028Y-25326257D01*
X162800457Y-25611971D01*
X162800457Y-26111971D01*
X162729028Y-26397685D01*
X162586171Y-26540542D01*
X162443314Y-26611971D01*
X162157600Y-26611971D01*
X162014742Y-26540542D01*
X161871885Y-26397685D01*
X161800457Y-26111971D01*
X161800457Y-25611971D01*
X161871885Y-25326257D01*
X162014742Y-25183400D01*
X162157600Y-25111971D01*
X163300457Y-25111971D02*
X163657600Y-26611971D01*
X163943314Y-25540542D01*
X164229028Y-26611971D01*
X164586171Y-25111971D01*
X188905628Y-73347971D02*
X188405628Y-72633685D01*
X188048485Y-73347971D02*
X188048485Y-71847971D01*
X188619914Y-71847971D01*
X188762771Y-71919400D01*
X188834200Y-71990828D01*
X188905628Y-72133685D01*
X188905628Y-72347971D01*
X188834200Y-72490828D01*
X188762771Y-72562257D01*
X188619914Y-72633685D01*
X188048485Y-72633685D01*
X189548485Y-72562257D02*
X190048485Y-72562257D01*
X190262771Y-73347971D02*
X189548485Y-73347971D01*
X189548485Y-71847971D01*
X190262771Y-71847971D01*
X190834200Y-73276542D02*
X191048485Y-73347971D01*
X191405628Y-73347971D01*
X191548485Y-73276542D01*
X191619914Y-73205114D01*
X191691342Y-73062257D01*
X191691342Y-72919400D01*
X191619914Y-72776542D01*
X191548485Y-72705114D01*
X191405628Y-72633685D01*
X191119914Y-72562257D01*
X190977057Y-72490828D01*
X190905628Y-72419400D01*
X190834200Y-72276542D01*
X190834200Y-72133685D01*
X190905628Y-71990828D01*
X190977057Y-71919400D01*
X191119914Y-71847971D01*
X191477057Y-71847971D01*
X191691342Y-71919400D01*
X192334200Y-72562257D02*
X192834200Y-72562257D01*
X193048485Y-73347971D02*
X192334200Y-73347971D01*
X192334200Y-71847971D01*
X193048485Y-71847971D01*
X193477057Y-71847971D02*
X194334200Y-71847971D01*
X193905628Y-73347971D02*
X193905628Y-71847971D01*
X174925314Y-26565942D02*
X175139600Y-26637371D01*
X175496742Y-26637371D01*
X175639600Y-26565942D01*
X175711028Y-26494514D01*
X175782457Y-26351657D01*
X175782457Y-26208800D01*
X175711028Y-26065942D01*
X175639600Y-25994514D01*
X175496742Y-25923085D01*
X175211028Y-25851657D01*
X175068171Y-25780228D01*
X174996742Y-25708800D01*
X174925314Y-25565942D01*
X174925314Y-25423085D01*
X174996742Y-25280228D01*
X175068171Y-25208800D01*
X175211028Y-25137371D01*
X175568171Y-25137371D01*
X175782457Y-25208800D01*
X176211028Y-25137371D02*
X177068171Y-25137371D01*
X176639600Y-26637371D02*
X176639600Y-25137371D01*
X177496742Y-26208800D02*
X178211028Y-26208800D01*
X177353885Y-26637371D02*
X177853885Y-25137371D01*
X178353885Y-26637371D01*
X178639600Y-25137371D02*
X179496742Y-25137371D01*
X179068171Y-26637371D02*
X179068171Y-25137371D01*
X190125600Y-25111971D02*
X190482742Y-26611971D01*
X190768457Y-25540542D01*
X191054171Y-26611971D01*
X191411314Y-25111971D01*
X191982742Y-26611971D02*
X191982742Y-25111971D01*
X193197028Y-25826257D02*
X192697028Y-25826257D01*
X192697028Y-26611971D02*
X192697028Y-25111971D01*
X193411314Y-25111971D01*
X193982742Y-26611971D02*
X193982742Y-25111971D01*
X206774314Y-25826257D02*
X206988600Y-25897685D01*
X207060028Y-25969114D01*
X207131457Y-26111971D01*
X207131457Y-26326257D01*
X207060028Y-26469114D01*
X206988600Y-26540542D01*
X206845742Y-26611971D01*
X206274314Y-26611971D01*
X206274314Y-25111971D01*
X206774314Y-25111971D01*
X206917171Y-25183400D01*
X206988600Y-25254828D01*
X207060028Y-25397685D01*
X207060028Y-25540542D01*
X206988600Y-25683400D01*
X206917171Y-25754828D01*
X206774314Y-25826257D01*
X206274314Y-25826257D01*
X207560028Y-25111971D02*
X208417171Y-25111971D01*
X207988600Y-26611971D02*
X207988600Y-25111971D01*
D10*
X192354200Y-24257000D02*
X192354200Y-24587200D01*
X192354200Y-24866600D02*
X192354200Y-24561800D01*
X177342800Y-24866600D02*
X177342800Y-24561800D01*
X177342800Y-24257000D02*
X177342800Y-24587200D01*
X208661000Y-28829000D02*
X159791400Y-28829000D01*
X162331400Y-24866600D02*
X162331400Y-24561800D01*
X162331400Y-24257000D02*
X162331400Y-24587200D01*
D12*
G04 #@! TO.C,R20*
X221904779Y-68993796D02*
X221579221Y-68993796D01*
X221904779Y-70013796D02*
X221579221Y-70013796D01*
D13*
G04 #@! TO.C,U11*
X177680800Y-67584400D02*
X177680800Y-67609400D01*
X181830800Y-67584400D02*
X181830800Y-67699400D01*
X181830800Y-76484400D02*
X181830800Y-76369400D01*
X177680800Y-76484400D02*
X177680800Y-76369400D01*
X177680800Y-67584400D02*
X181830800Y-67584400D01*
X177680800Y-76484400D02*
X181830800Y-76484400D01*
X177680800Y-67609400D02*
X176305800Y-67609400D01*
D12*
G04 #@! TO.C,R9*
X208980821Y-75109800D02*
X209306379Y-75109800D01*
X208980821Y-74089800D02*
X209306379Y-74089800D01*
G04 #@! TO.C,R36*
X142060200Y-41247279D02*
X142060200Y-40921721D01*
X143080200Y-41247279D02*
X143080200Y-40921721D01*
G04 #@! TO.C,U7*
X155941200Y-30788500D02*
X155941200Y-29028500D01*
X152871200Y-29028500D02*
X152871200Y-31458500D01*
D13*
G04 #@! TO.C,U3*
X228850259Y-76493796D02*
X228850259Y-76468796D01*
X224700259Y-76493796D02*
X224700259Y-76378796D01*
X224700259Y-67593796D02*
X224700259Y-67708796D01*
X228850259Y-67593796D02*
X228850259Y-67708796D01*
X228850259Y-76493796D02*
X224700259Y-76493796D01*
X228850259Y-67593796D02*
X224700259Y-67593796D01*
X228850259Y-76468796D02*
X230225259Y-76468796D01*
G04 #@! TO.C,U13*
X220809400Y-53652000D02*
X220809400Y-53877000D01*
X228059400Y-53652000D02*
X228059400Y-53952000D01*
X228059400Y-60902000D02*
X228059400Y-60602000D01*
X220809400Y-60902000D02*
X220809400Y-60602000D01*
X220809400Y-53652000D02*
X221109400Y-53652000D01*
X220809400Y-60902000D02*
X221109400Y-60902000D01*
X228059400Y-60902000D02*
X227759400Y-60902000D01*
X228059400Y-53652000D02*
X227759400Y-53652000D01*
X220809400Y-53877000D02*
X219584400Y-53877000D01*
D12*
G04 #@! TO.C,P1*
X156959000Y-86604000D02*
X156959000Y-95964000D01*
X156959000Y-95964000D02*
X173749000Y-95964000D01*
X173749000Y-95964000D02*
X173749000Y-86604000D01*
X156959000Y-86604000D02*
X158589000Y-86604000D01*
X173749000Y-86604000D02*
X172119000Y-86604000D01*
X160689000Y-86604000D02*
X162399000Y-86604000D01*
X164499000Y-86604000D02*
X166209000Y-86604000D01*
X168309000Y-86604000D02*
X170019000Y-86604000D01*
X156959000Y-92684000D02*
X173749000Y-92684000D01*
X159939000Y-85284000D02*
X159639000Y-85884000D01*
X159639000Y-85884000D02*
X159339000Y-85284000D01*
X159339000Y-85284000D02*
X159939000Y-85284000D01*
G04 #@! TO.C,D4*
X177087800Y-77854600D02*
X173787800Y-77854600D01*
X173787800Y-77854600D02*
X173787800Y-83254600D01*
X177087800Y-77854600D02*
X177087800Y-83254600D01*
G04 #@! TO.C,D5*
X171449000Y-77854600D02*
X171449000Y-83254600D01*
X168149000Y-77854600D02*
X168149000Y-83254600D01*
X171449000Y-77854600D02*
X168149000Y-77854600D01*
G04 #@! TO.C,D6*
X165835600Y-77854600D02*
X162535600Y-77854600D01*
X162535600Y-77854600D02*
X162535600Y-83254600D01*
X165835600Y-77854600D02*
X165835600Y-83254600D01*
G04 #@! TO.C,C9*
X146511000Y-72072500D02*
G75*
G03X146511000Y-72072500I-5120000J0D01*
G01*
X141391000Y-77152500D02*
X141391000Y-66992500D01*
X141351000Y-77152500D02*
X141351000Y-66992500D01*
X141311000Y-77152500D02*
X141311000Y-66992500D01*
X141271000Y-77151500D02*
X141271000Y-66993500D01*
X141231000Y-77150500D02*
X141231000Y-66994500D01*
X141191000Y-77149500D02*
X141191000Y-66995500D01*
X141151000Y-77147500D02*
X141151000Y-66997500D01*
X141111000Y-77145500D02*
X141111000Y-66999500D01*
X141071000Y-77142500D02*
X141071000Y-67002500D01*
X141031000Y-77140500D02*
X141031000Y-67004500D01*
X140991000Y-77137500D02*
X140991000Y-67007500D01*
X140951000Y-77134500D02*
X140951000Y-67010500D01*
X140911000Y-77130500D02*
X140911000Y-67014500D01*
X140871000Y-77126500D02*
X140871000Y-67018500D01*
X140831000Y-77122500D02*
X140831000Y-67022500D01*
X140791000Y-77117500D02*
X140791000Y-67027500D01*
X140751000Y-77112500D02*
X140751000Y-67032500D01*
X140711000Y-77107500D02*
X140711000Y-67037500D01*
X140670000Y-77102500D02*
X140670000Y-67042500D01*
X140630000Y-77096500D02*
X140630000Y-67048500D01*
X140590000Y-77090500D02*
X140590000Y-67054500D01*
X140550000Y-77083500D02*
X140550000Y-67061500D01*
X140510000Y-77076500D02*
X140510000Y-67068500D01*
X140470000Y-77069500D02*
X140470000Y-67075500D01*
X140430000Y-77062500D02*
X140430000Y-67082500D01*
X140390000Y-77054500D02*
X140390000Y-67090500D01*
X140350000Y-77046500D02*
X140350000Y-67098500D01*
X140310000Y-77037500D02*
X140310000Y-67107500D01*
X140270000Y-77028500D02*
X140270000Y-67116500D01*
X140230000Y-77019500D02*
X140230000Y-67125500D01*
X140190000Y-77010500D02*
X140190000Y-67134500D01*
X140150000Y-77000500D02*
X140150000Y-67144500D01*
X140110000Y-76990500D02*
X140110000Y-73313500D01*
X140110000Y-70831500D02*
X140110000Y-67154500D01*
X140070000Y-76979500D02*
X140070000Y-73313500D01*
X140070000Y-70831500D02*
X140070000Y-67165500D01*
X140030000Y-76969500D02*
X140030000Y-73313500D01*
X140030000Y-70831500D02*
X140030000Y-67175500D01*
X139990000Y-76957500D02*
X139990000Y-73313500D01*
X139990000Y-70831500D02*
X139990000Y-67187500D01*
X139950000Y-76946500D02*
X139950000Y-73313500D01*
X139950000Y-70831500D02*
X139950000Y-67198500D01*
X139910000Y-76934500D02*
X139910000Y-73313500D01*
X139910000Y-70831500D02*
X139910000Y-67210500D01*
X139870000Y-76922500D02*
X139870000Y-73313500D01*
X139870000Y-70831500D02*
X139870000Y-67222500D01*
X139830000Y-76909500D02*
X139830000Y-73313500D01*
X139830000Y-70831500D02*
X139830000Y-67235500D01*
X139790000Y-76896500D02*
X139790000Y-73313500D01*
X139790000Y-70831500D02*
X139790000Y-67248500D01*
X139750000Y-76883500D02*
X139750000Y-73313500D01*
X139750000Y-70831500D02*
X139750000Y-67261500D01*
X139710000Y-76869500D02*
X139710000Y-73313500D01*
X139710000Y-70831500D02*
X139710000Y-67275500D01*
X139670000Y-76855500D02*
X139670000Y-73313500D01*
X139670000Y-70831500D02*
X139670000Y-67289500D01*
X139630000Y-76840500D02*
X139630000Y-73313500D01*
X139630000Y-70831500D02*
X139630000Y-67304500D01*
X139590000Y-76826500D02*
X139590000Y-73313500D01*
X139590000Y-70831500D02*
X139590000Y-67318500D01*
X139550000Y-76810500D02*
X139550000Y-73313500D01*
X139550000Y-70831500D02*
X139550000Y-67334500D01*
X139510000Y-76795500D02*
X139510000Y-73313500D01*
X139510000Y-70831500D02*
X139510000Y-67349500D01*
X139470000Y-76779500D02*
X139470000Y-73313500D01*
X139470000Y-70831500D02*
X139470000Y-67365500D01*
X139430000Y-76762500D02*
X139430000Y-73313500D01*
X139430000Y-70831500D02*
X139430000Y-67382500D01*
X139390000Y-76746500D02*
X139390000Y-73313500D01*
X139390000Y-70831500D02*
X139390000Y-67398500D01*
X139350000Y-76729500D02*
X139350000Y-73313500D01*
X139350000Y-70831500D02*
X139350000Y-67415500D01*
X139310000Y-76711500D02*
X139310000Y-73313500D01*
X139310000Y-70831500D02*
X139310000Y-67433500D01*
X139270000Y-76693500D02*
X139270000Y-73313500D01*
X139270000Y-70831500D02*
X139270000Y-67451500D01*
X139230000Y-76675500D02*
X139230000Y-73313500D01*
X139230000Y-70831500D02*
X139230000Y-67469500D01*
X139190000Y-76656500D02*
X139190000Y-73313500D01*
X139190000Y-70831500D02*
X139190000Y-67488500D01*
X139150000Y-76636500D02*
X139150000Y-73313500D01*
X139150000Y-70831500D02*
X139150000Y-67508500D01*
X139110000Y-76617500D02*
X139110000Y-73313500D01*
X139110000Y-70831500D02*
X139110000Y-67527500D01*
X139070000Y-76597500D02*
X139070000Y-73313500D01*
X139070000Y-70831500D02*
X139070000Y-67547500D01*
X139030000Y-76576500D02*
X139030000Y-73313500D01*
X139030000Y-70831500D02*
X139030000Y-67568500D01*
X138990000Y-76555500D02*
X138990000Y-73313500D01*
X138990000Y-70831500D02*
X138990000Y-67589500D01*
X138950000Y-76534500D02*
X138950000Y-73313500D01*
X138950000Y-70831500D02*
X138950000Y-67610500D01*
X138910000Y-76512500D02*
X138910000Y-73313500D01*
X138910000Y-70831500D02*
X138910000Y-67632500D01*
X138870000Y-76489500D02*
X138870000Y-73313500D01*
X138870000Y-70831500D02*
X138870000Y-67655500D01*
X138830000Y-76467500D02*
X138830000Y-73313500D01*
X138830000Y-70831500D02*
X138830000Y-67677500D01*
X138790000Y-76443500D02*
X138790000Y-73313500D01*
X138790000Y-70831500D02*
X138790000Y-67701500D01*
X138750000Y-76419500D02*
X138750000Y-73313500D01*
X138750000Y-70831500D02*
X138750000Y-67725500D01*
X138710000Y-76395500D02*
X138710000Y-73313500D01*
X138710000Y-70831500D02*
X138710000Y-67749500D01*
X138670000Y-76370500D02*
X138670000Y-73313500D01*
X138670000Y-70831500D02*
X138670000Y-67774500D01*
X138630000Y-76345500D02*
X138630000Y-73313500D01*
X138630000Y-70831500D02*
X138630000Y-67799500D01*
X138590000Y-76319500D02*
X138590000Y-73313500D01*
X138590000Y-70831500D02*
X138590000Y-67825500D01*
X138550000Y-76293500D02*
X138550000Y-73313500D01*
X138550000Y-70831500D02*
X138550000Y-67851500D01*
X138510000Y-76266500D02*
X138510000Y-73313500D01*
X138510000Y-70831500D02*
X138510000Y-67878500D01*
X138470000Y-76238500D02*
X138470000Y-73313500D01*
X138470000Y-70831500D02*
X138470000Y-67906500D01*
X138430000Y-76210500D02*
X138430000Y-73313500D01*
X138430000Y-70831500D02*
X138430000Y-67934500D01*
X138390000Y-76182500D02*
X138390000Y-73313500D01*
X138390000Y-70831500D02*
X138390000Y-67962500D01*
X138350000Y-76152500D02*
X138350000Y-73313500D01*
X138350000Y-70831500D02*
X138350000Y-67992500D01*
X138310000Y-76122500D02*
X138310000Y-73313500D01*
X138310000Y-70831500D02*
X138310000Y-68022500D01*
X138270000Y-76092500D02*
X138270000Y-73313500D01*
X138270000Y-70831500D02*
X138270000Y-68052500D01*
X138230000Y-76061500D02*
X138230000Y-73313500D01*
X138230000Y-70831500D02*
X138230000Y-68083500D01*
X138190000Y-76029500D02*
X138190000Y-73313500D01*
X138190000Y-70831500D02*
X138190000Y-68115500D01*
X138150000Y-75997500D02*
X138150000Y-73313500D01*
X138150000Y-70831500D02*
X138150000Y-68147500D01*
X138110000Y-75964500D02*
X138110000Y-73313500D01*
X138110000Y-70831500D02*
X138110000Y-68180500D01*
X138070000Y-75930500D02*
X138070000Y-73313500D01*
X138070000Y-70831500D02*
X138070000Y-68214500D01*
X138030000Y-75896500D02*
X138030000Y-73313500D01*
X138030000Y-70831500D02*
X138030000Y-68248500D01*
X137990000Y-75861500D02*
X137990000Y-73313500D01*
X137990000Y-70831500D02*
X137990000Y-68283500D01*
X137950000Y-75825500D02*
X137950000Y-73313500D01*
X137950000Y-70831500D02*
X137950000Y-68319500D01*
X137910000Y-75788500D02*
X137910000Y-73313500D01*
X137910000Y-70831500D02*
X137910000Y-68356500D01*
X137870000Y-75751500D02*
X137870000Y-73313500D01*
X137870000Y-70831500D02*
X137870000Y-68393500D01*
X137830000Y-75712500D02*
X137830000Y-73313500D01*
X137830000Y-70831500D02*
X137830000Y-68432500D01*
X137790000Y-75673500D02*
X137790000Y-73313500D01*
X137790000Y-70831500D02*
X137790000Y-68471500D01*
X137750000Y-75633500D02*
X137750000Y-73313500D01*
X137750000Y-70831500D02*
X137750000Y-68511500D01*
X137710000Y-75592500D02*
X137710000Y-73313500D01*
X137710000Y-70831500D02*
X137710000Y-68552500D01*
X137670000Y-75550500D02*
X137670000Y-73313500D01*
X137670000Y-70831500D02*
X137670000Y-68594500D01*
X137630000Y-75508500D02*
X137630000Y-68636500D01*
X137590000Y-75464500D02*
X137590000Y-68680500D01*
X137550000Y-75419500D02*
X137550000Y-68725500D01*
X137510000Y-75373500D02*
X137510000Y-68771500D01*
X137470000Y-75326500D02*
X137470000Y-68818500D01*
X137430000Y-75278500D02*
X137430000Y-68866500D01*
X137390000Y-75228500D02*
X137390000Y-68916500D01*
X137350000Y-75178500D02*
X137350000Y-68966500D01*
X137310000Y-75126500D02*
X137310000Y-69018500D01*
X137270000Y-75072500D02*
X137270000Y-69072500D01*
X137230000Y-75017500D02*
X137230000Y-69127500D01*
X137190000Y-74961500D02*
X137190000Y-69183500D01*
X137150000Y-74902500D02*
X137150000Y-69242500D01*
X137110000Y-74842500D02*
X137110000Y-69302500D01*
X137070000Y-74781500D02*
X137070000Y-69363500D01*
X137030000Y-74717500D02*
X137030000Y-69427500D01*
X136990000Y-74651500D02*
X136990000Y-69493500D01*
X136950000Y-74582500D02*
X136950000Y-69562500D01*
X136910000Y-74511500D02*
X136910000Y-69633500D01*
X136870000Y-74437500D02*
X136870000Y-69707500D01*
X136830000Y-74361500D02*
X136830000Y-69783500D01*
X136790000Y-74281500D02*
X136790000Y-69863500D01*
X136750000Y-74197500D02*
X136750000Y-69947500D01*
X136710000Y-74109500D02*
X136710000Y-70035500D01*
X136670000Y-74016500D02*
X136670000Y-70128500D01*
X136630000Y-73918500D02*
X136630000Y-70226500D01*
X136590000Y-73814500D02*
X136590000Y-70330500D01*
X136550000Y-73702500D02*
X136550000Y-70442500D01*
X136510000Y-73582500D02*
X136510000Y-70562500D01*
X136470000Y-73450500D02*
X136470000Y-70694500D01*
X136430000Y-73302500D02*
X136430000Y-70842500D01*
X136390000Y-73134500D02*
X136390000Y-71010500D01*
X136350000Y-72934500D02*
X136350000Y-71210500D01*
X136310000Y-72671500D02*
X136310000Y-71473500D01*
X146870646Y-74947500D02*
X145870646Y-74947500D01*
X146370646Y-75447500D02*
X146370646Y-74447500D01*
G04 #@! TO.C,C8*
X156925000Y-72072500D02*
G75*
G03X156925000Y-72072500I-5120000J0D01*
G01*
X151805000Y-77152500D02*
X151805000Y-66992500D01*
X151765000Y-77152500D02*
X151765000Y-66992500D01*
X151725000Y-77152500D02*
X151725000Y-66992500D01*
X151685000Y-77151500D02*
X151685000Y-66993500D01*
X151645000Y-77150500D02*
X151645000Y-66994500D01*
X151605000Y-77149500D02*
X151605000Y-66995500D01*
X151565000Y-77147500D02*
X151565000Y-66997500D01*
X151525000Y-77145500D02*
X151525000Y-66999500D01*
X151485000Y-77142500D02*
X151485000Y-67002500D01*
X151445000Y-77140500D02*
X151445000Y-67004500D01*
X151405000Y-77137500D02*
X151405000Y-67007500D01*
X151365000Y-77134500D02*
X151365000Y-67010500D01*
X151325000Y-77130500D02*
X151325000Y-67014500D01*
X151285000Y-77126500D02*
X151285000Y-67018500D01*
X151245000Y-77122500D02*
X151245000Y-67022500D01*
X151205000Y-77117500D02*
X151205000Y-67027500D01*
X151165000Y-77112500D02*
X151165000Y-67032500D01*
X151125000Y-77107500D02*
X151125000Y-67037500D01*
X151084000Y-77102500D02*
X151084000Y-67042500D01*
X151044000Y-77096500D02*
X151044000Y-67048500D01*
X151004000Y-77090500D02*
X151004000Y-67054500D01*
X150964000Y-77083500D02*
X150964000Y-67061500D01*
X150924000Y-77076500D02*
X150924000Y-67068500D01*
X150884000Y-77069500D02*
X150884000Y-67075500D01*
X150844000Y-77062500D02*
X150844000Y-67082500D01*
X150804000Y-77054500D02*
X150804000Y-67090500D01*
X150764000Y-77046500D02*
X150764000Y-67098500D01*
X150724000Y-77037500D02*
X150724000Y-67107500D01*
X150684000Y-77028500D02*
X150684000Y-67116500D01*
X150644000Y-77019500D02*
X150644000Y-67125500D01*
X150604000Y-77010500D02*
X150604000Y-67134500D01*
X150564000Y-77000500D02*
X150564000Y-67144500D01*
X150524000Y-76990500D02*
X150524000Y-73313500D01*
X150524000Y-70831500D02*
X150524000Y-67154500D01*
X150484000Y-76979500D02*
X150484000Y-73313500D01*
X150484000Y-70831500D02*
X150484000Y-67165500D01*
X150444000Y-76969500D02*
X150444000Y-73313500D01*
X150444000Y-70831500D02*
X150444000Y-67175500D01*
X150404000Y-76957500D02*
X150404000Y-73313500D01*
X150404000Y-70831500D02*
X150404000Y-67187500D01*
X150364000Y-76946500D02*
X150364000Y-73313500D01*
X150364000Y-70831500D02*
X150364000Y-67198500D01*
X150324000Y-76934500D02*
X150324000Y-73313500D01*
X150324000Y-70831500D02*
X150324000Y-67210500D01*
X150284000Y-76922500D02*
X150284000Y-73313500D01*
X150284000Y-70831500D02*
X150284000Y-67222500D01*
X150244000Y-76909500D02*
X150244000Y-73313500D01*
X150244000Y-70831500D02*
X150244000Y-67235500D01*
X150204000Y-76896500D02*
X150204000Y-73313500D01*
X150204000Y-70831500D02*
X150204000Y-67248500D01*
X150164000Y-76883500D02*
X150164000Y-73313500D01*
X150164000Y-70831500D02*
X150164000Y-67261500D01*
X150124000Y-76869500D02*
X150124000Y-73313500D01*
X150124000Y-70831500D02*
X150124000Y-67275500D01*
X150084000Y-76855500D02*
X150084000Y-73313500D01*
X150084000Y-70831500D02*
X150084000Y-67289500D01*
X150044000Y-76840500D02*
X150044000Y-73313500D01*
X150044000Y-70831500D02*
X150044000Y-67304500D01*
X150004000Y-76826500D02*
X150004000Y-73313500D01*
X150004000Y-70831500D02*
X150004000Y-67318500D01*
X149964000Y-76810500D02*
X149964000Y-73313500D01*
X149964000Y-70831500D02*
X149964000Y-67334500D01*
X149924000Y-76795500D02*
X149924000Y-73313500D01*
X149924000Y-70831500D02*
X149924000Y-67349500D01*
X149884000Y-76779500D02*
X149884000Y-73313500D01*
X149884000Y-70831500D02*
X149884000Y-67365500D01*
X149844000Y-76762500D02*
X149844000Y-73313500D01*
X149844000Y-70831500D02*
X149844000Y-67382500D01*
X149804000Y-76746500D02*
X149804000Y-73313500D01*
X149804000Y-70831500D02*
X149804000Y-67398500D01*
X149764000Y-76729500D02*
X149764000Y-73313500D01*
X149764000Y-70831500D02*
X149764000Y-67415500D01*
X149724000Y-76711500D02*
X149724000Y-73313500D01*
X149724000Y-70831500D02*
X149724000Y-67433500D01*
X149684000Y-76693500D02*
X149684000Y-73313500D01*
X149684000Y-70831500D02*
X149684000Y-67451500D01*
X149644000Y-76675500D02*
X149644000Y-73313500D01*
X149644000Y-70831500D02*
X149644000Y-67469500D01*
X149604000Y-76656500D02*
X149604000Y-73313500D01*
X149604000Y-70831500D02*
X149604000Y-67488500D01*
X149564000Y-76636500D02*
X149564000Y-73313500D01*
X149564000Y-70831500D02*
X149564000Y-67508500D01*
X149524000Y-76617500D02*
X149524000Y-73313500D01*
X149524000Y-70831500D02*
X149524000Y-67527500D01*
X149484000Y-76597500D02*
X149484000Y-73313500D01*
X149484000Y-70831500D02*
X149484000Y-67547500D01*
X149444000Y-76576500D02*
X149444000Y-73313500D01*
X149444000Y-70831500D02*
X149444000Y-67568500D01*
X149404000Y-76555500D02*
X149404000Y-73313500D01*
X149404000Y-70831500D02*
X149404000Y-67589500D01*
X149364000Y-76534500D02*
X149364000Y-73313500D01*
X149364000Y-70831500D02*
X149364000Y-67610500D01*
X149324000Y-76512500D02*
X149324000Y-73313500D01*
X149324000Y-70831500D02*
X149324000Y-67632500D01*
X149284000Y-76489500D02*
X149284000Y-73313500D01*
X149284000Y-70831500D02*
X149284000Y-67655500D01*
X149244000Y-76467500D02*
X149244000Y-73313500D01*
X149244000Y-70831500D02*
X149244000Y-67677500D01*
X149204000Y-76443500D02*
X149204000Y-73313500D01*
X149204000Y-70831500D02*
X149204000Y-67701500D01*
X149164000Y-76419500D02*
X149164000Y-73313500D01*
X149164000Y-70831500D02*
X149164000Y-67725500D01*
X149124000Y-76395500D02*
X149124000Y-73313500D01*
X149124000Y-70831500D02*
X149124000Y-67749500D01*
X149084000Y-76370500D02*
X149084000Y-73313500D01*
X149084000Y-70831500D02*
X149084000Y-67774500D01*
X149044000Y-76345500D02*
X149044000Y-73313500D01*
X149044000Y-70831500D02*
X149044000Y-67799500D01*
X149004000Y-76319500D02*
X149004000Y-73313500D01*
X149004000Y-70831500D02*
X149004000Y-67825500D01*
X148964000Y-76293500D02*
X148964000Y-73313500D01*
X148964000Y-70831500D02*
X148964000Y-67851500D01*
X148924000Y-76266500D02*
X148924000Y-73313500D01*
X148924000Y-70831500D02*
X148924000Y-67878500D01*
X148884000Y-76238500D02*
X148884000Y-73313500D01*
X148884000Y-70831500D02*
X148884000Y-67906500D01*
X148844000Y-76210500D02*
X148844000Y-73313500D01*
X148844000Y-70831500D02*
X148844000Y-67934500D01*
X148804000Y-76182500D02*
X148804000Y-73313500D01*
X148804000Y-70831500D02*
X148804000Y-67962500D01*
X148764000Y-76152500D02*
X148764000Y-73313500D01*
X148764000Y-70831500D02*
X148764000Y-67992500D01*
X148724000Y-76122500D02*
X148724000Y-73313500D01*
X148724000Y-70831500D02*
X148724000Y-68022500D01*
X148684000Y-76092500D02*
X148684000Y-73313500D01*
X148684000Y-70831500D02*
X148684000Y-68052500D01*
X148644000Y-76061500D02*
X148644000Y-73313500D01*
X148644000Y-70831500D02*
X148644000Y-68083500D01*
X148604000Y-76029500D02*
X148604000Y-73313500D01*
X148604000Y-70831500D02*
X148604000Y-68115500D01*
X148564000Y-75997500D02*
X148564000Y-73313500D01*
X148564000Y-70831500D02*
X148564000Y-68147500D01*
X148524000Y-75964500D02*
X148524000Y-73313500D01*
X148524000Y-70831500D02*
X148524000Y-68180500D01*
X148484000Y-75930500D02*
X148484000Y-73313500D01*
X148484000Y-70831500D02*
X148484000Y-68214500D01*
X148444000Y-75896500D02*
X148444000Y-73313500D01*
X148444000Y-70831500D02*
X148444000Y-68248500D01*
X148404000Y-75861500D02*
X148404000Y-73313500D01*
X148404000Y-70831500D02*
X148404000Y-68283500D01*
X148364000Y-75825500D02*
X148364000Y-73313500D01*
X148364000Y-70831500D02*
X148364000Y-68319500D01*
X148324000Y-75788500D02*
X148324000Y-73313500D01*
X148324000Y-70831500D02*
X148324000Y-68356500D01*
X148284000Y-75751500D02*
X148284000Y-73313500D01*
X148284000Y-70831500D02*
X148284000Y-68393500D01*
X148244000Y-75712500D02*
X148244000Y-73313500D01*
X148244000Y-70831500D02*
X148244000Y-68432500D01*
X148204000Y-75673500D02*
X148204000Y-73313500D01*
X148204000Y-70831500D02*
X148204000Y-68471500D01*
X148164000Y-75633500D02*
X148164000Y-73313500D01*
X148164000Y-70831500D02*
X148164000Y-68511500D01*
X148124000Y-75592500D02*
X148124000Y-73313500D01*
X148124000Y-70831500D02*
X148124000Y-68552500D01*
X148084000Y-75550500D02*
X148084000Y-73313500D01*
X148084000Y-70831500D02*
X148084000Y-68594500D01*
X148044000Y-75508500D02*
X148044000Y-68636500D01*
X148004000Y-75464500D02*
X148004000Y-68680500D01*
X147964000Y-75419500D02*
X147964000Y-68725500D01*
X147924000Y-75373500D02*
X147924000Y-68771500D01*
X147884000Y-75326500D02*
X147884000Y-68818500D01*
X147844000Y-75278500D02*
X147844000Y-68866500D01*
X147804000Y-75228500D02*
X147804000Y-68916500D01*
X147764000Y-75178500D02*
X147764000Y-68966500D01*
X147724000Y-75126500D02*
X147724000Y-69018500D01*
X147684000Y-75072500D02*
X147684000Y-69072500D01*
X147644000Y-75017500D02*
X147644000Y-69127500D01*
X147604000Y-74961500D02*
X147604000Y-69183500D01*
X147564000Y-74902500D02*
X147564000Y-69242500D01*
X147524000Y-74842500D02*
X147524000Y-69302500D01*
X147484000Y-74781500D02*
X147484000Y-69363500D01*
X147444000Y-74717500D02*
X147444000Y-69427500D01*
X147404000Y-74651500D02*
X147404000Y-69493500D01*
X147364000Y-74582500D02*
X147364000Y-69562500D01*
X147324000Y-74511500D02*
X147324000Y-69633500D01*
X147284000Y-74437500D02*
X147284000Y-69707500D01*
X147244000Y-74361500D02*
X147244000Y-69783500D01*
X147204000Y-74281500D02*
X147204000Y-69863500D01*
X147164000Y-74197500D02*
X147164000Y-69947500D01*
X147124000Y-74109500D02*
X147124000Y-70035500D01*
X147084000Y-74016500D02*
X147084000Y-70128500D01*
X147044000Y-73918500D02*
X147044000Y-70226500D01*
X147004000Y-73814500D02*
X147004000Y-70330500D01*
X146964000Y-73702500D02*
X146964000Y-70442500D01*
X146924000Y-73582500D02*
X146924000Y-70562500D01*
X146884000Y-73450500D02*
X146884000Y-70694500D01*
X146844000Y-73302500D02*
X146844000Y-70842500D01*
X146804000Y-73134500D02*
X146804000Y-71010500D01*
X146764000Y-72934500D02*
X146764000Y-71210500D01*
X146724000Y-72671500D02*
X146724000Y-71473500D01*
X157284646Y-74947500D02*
X156284646Y-74947500D01*
X156784646Y-75447500D02*
X156784646Y-74447500D01*
G04 #@! TO.C,D7*
X138555600Y-55195100D02*
X138555600Y-56895100D01*
X138555600Y-56895100D02*
X141105600Y-56895100D01*
X138555600Y-55195100D02*
X141105600Y-55195100D01*
G04 #@! TO.C,U6*
X147761000Y-62912500D02*
G75*
G02X147761000Y-60912500I0J1000000D01*
G01*
X147761000Y-60912500D02*
X147761000Y-59262500D01*
X147761000Y-59262500D02*
X137481000Y-59262500D01*
X137481000Y-59262500D02*
X137481000Y-64562500D01*
X137481000Y-64562500D02*
X147761000Y-64562500D01*
X147761000Y-64562500D02*
X147761000Y-62912500D01*
G04 #@! TO.C,L4*
X151472600Y-45905500D02*
X150482600Y-45905500D01*
X151472600Y-42105500D02*
X150482600Y-42105500D01*
G04 #@! TO.C,D1*
X151611600Y-60011100D02*
X148311600Y-60011100D01*
X148311600Y-60011100D02*
X148311600Y-65411100D01*
X151611600Y-60011100D02*
X151611600Y-65411100D01*
G04 #@! TO.C,D3*
X148311600Y-59477100D02*
X148311600Y-54077100D01*
X151611600Y-59477100D02*
X151611600Y-54077100D01*
X148311600Y-59477100D02*
X151611600Y-59477100D01*
G04 #@! TO.C,D2*
X147753200Y-56895100D02*
X147753200Y-55195100D01*
X147753200Y-55195100D02*
X145203200Y-55195100D01*
X147753200Y-56895100D02*
X145203200Y-56895100D01*
G04 #@! TO.C,C11*
X136704000Y-55846478D02*
X136704000Y-55329322D01*
X138124000Y-55846478D02*
X138124000Y-55329322D01*
G04 #@! TO.C,D11*
X209037935Y-27750392D02*
G75*
G03X205805600Y-27593484I-1672335J-1078608D01*
G01*
X209037935Y-29907608D02*
G75*
G02X205805600Y-30064516I-1672335J1078608D01*
G01*
X208406730Y-27749163D02*
G75*
G03X206324639Y-27749000I-1041130J-1079837D01*
G01*
X208406730Y-29908837D02*
G75*
G02X206324639Y-29909000I-1041130J1079837D01*
G01*
X205805600Y-27593000D02*
X205805600Y-27749000D01*
X205805600Y-29909000D02*
X205805600Y-30065000D01*
G04 #@! TO.C,D8*
X152244000Y-31774400D02*
X146844000Y-31774400D01*
X152244000Y-28474400D02*
X146844000Y-28474400D01*
X152244000Y-31774400D02*
X152244000Y-28474400D01*
G04 #@! TO.C,Q1*
X152278200Y-25529000D02*
X151348200Y-25529000D01*
X149118200Y-25529000D02*
X150048200Y-25529000D01*
X149118200Y-25529000D02*
X149118200Y-27689000D01*
X152278200Y-25529000D02*
X152278200Y-26989000D01*
G04 #@! TO.C,Q2*
X229773600Y-49227200D02*
X229773600Y-50687200D01*
X226613600Y-49227200D02*
X226613600Y-51387200D01*
X226613600Y-49227200D02*
X227543600Y-49227200D01*
X229773600Y-49227200D02*
X228843600Y-49227200D01*
G04 #@! TO.C,J1*
X177368200Y-87074200D02*
X177368200Y-78054200D01*
X177368200Y-96054200D02*
X177368200Y-89274200D01*
X188548200Y-96054200D02*
X177368200Y-96054200D01*
X188548200Y-96054200D02*
X188548200Y-89274200D01*
X188548200Y-78054200D02*
X188548200Y-87074200D01*
X177368200Y-78054200D02*
X188548200Y-78054200D01*
G04 #@! TO.C,J2*
X188671200Y-87074200D02*
X188671200Y-78054200D01*
X188671200Y-96054200D02*
X188671200Y-89274200D01*
X199851200Y-96054200D02*
X188671200Y-96054200D01*
X199851200Y-96054200D02*
X199851200Y-89274200D01*
X199851200Y-78054200D02*
X199851200Y-87074200D01*
X188671200Y-78054200D02*
X199851200Y-78054200D01*
G04 #@! TO.C,J3*
X199974200Y-87074200D02*
X199974200Y-78054200D01*
X199974200Y-96054200D02*
X199974200Y-89274200D01*
X211154200Y-96054200D02*
X199974200Y-96054200D01*
X211154200Y-96054200D02*
X211154200Y-89274200D01*
X211154200Y-78054200D02*
X211154200Y-87074200D01*
X199974200Y-78054200D02*
X211154200Y-78054200D01*
G04 #@! TO.C,J4*
X211277200Y-78054200D02*
X222457200Y-78054200D01*
X222457200Y-78054200D02*
X222457200Y-87074200D01*
X222457200Y-96054200D02*
X222457200Y-89274200D01*
X222457200Y-96054200D02*
X211277200Y-96054200D01*
X211277200Y-96054200D02*
X211277200Y-89274200D01*
X211277200Y-87074200D02*
X211277200Y-78054200D01*
G04 #@! TO.C,SW2*
X147881200Y-85338800D02*
X147881200Y-85688800D01*
X146991200Y-85338800D02*
X147881200Y-85338800D01*
X146991200Y-85638800D02*
X146991200Y-85338800D01*
X146991200Y-88278800D02*
X146991200Y-92128800D01*
X146991200Y-92128800D02*
X154731200Y-92128800D01*
X154731200Y-92128800D02*
X154731200Y-88278800D01*
X153351200Y-87888800D02*
X148371200Y-87888800D01*
X153841200Y-85338800D02*
X154731200Y-85338800D01*
X153841200Y-85338800D02*
X153841200Y-85688800D01*
X154731200Y-85638800D02*
X154731200Y-85338800D01*
G04 #@! TO.C,R14*
X228267800Y-65191421D02*
X228267800Y-65516979D01*
X229287800Y-65191421D02*
X229287800Y-65516979D01*
G04 #@! TO.C,C7*
X230557800Y-65191421D02*
X230557800Y-65516979D01*
X229537800Y-65191421D02*
X229537800Y-65516979D01*
G04 #@! TO.C,R19*
X231667080Y-68743796D02*
X231992638Y-68743796D01*
X231667080Y-67723796D02*
X231992638Y-67723796D01*
G04 #@! TO.C,R22*
X231667080Y-68993796D02*
X231992638Y-68993796D01*
X231667080Y-70013796D02*
X231992638Y-70013796D01*
G04 #@! TO.C,R47*
X221904779Y-71553800D02*
X221579221Y-71553800D01*
X221904779Y-70533800D02*
X221579221Y-70533800D01*
G04 #@! TO.C,R48*
X231667080Y-71283796D02*
X231992638Y-71283796D01*
X231667080Y-70263796D02*
X231992638Y-70263796D01*
G04 #@! TO.C,BT1*
X140480800Y-30406400D02*
X145200800Y-30406400D01*
X145200800Y-30406400D02*
X145200800Y-24286400D01*
X145200800Y-24286400D02*
X140480800Y-24286400D01*
X140480800Y-24286400D02*
X140480800Y-30406400D01*
X140480800Y-28646400D02*
X140280800Y-28646400D01*
X140280800Y-28646400D02*
X140280800Y-28946400D01*
X140280800Y-28946400D02*
X140480800Y-28946400D01*
X140380800Y-28646400D02*
X140380800Y-28946400D01*
X140480800Y-27846400D02*
X141090800Y-27846400D01*
X141090800Y-27846400D02*
X141090800Y-29796400D01*
X141090800Y-29796400D02*
X144590800Y-29796400D01*
X144590800Y-29796400D02*
X144590800Y-24896400D01*
X144590800Y-24896400D02*
X141090800Y-24896400D01*
X141090800Y-24896400D02*
X141090800Y-26846400D01*
X141090800Y-26846400D02*
X140480800Y-26846400D01*
X141790800Y-30406400D02*
X141790800Y-29796400D01*
X143090800Y-30406400D02*
X143090800Y-29796400D01*
X141790800Y-24286400D02*
X141790800Y-24896400D01*
X143090800Y-24286400D02*
X143090800Y-24896400D01*
X144590800Y-27446400D02*
X144090800Y-27446400D01*
X144090800Y-27446400D02*
X144090800Y-27246400D01*
X144090800Y-27246400D02*
X144590800Y-27246400D01*
X144590800Y-27346400D02*
X144090800Y-27346400D01*
X140180800Y-29456400D02*
X140180800Y-30706400D01*
X140180800Y-30706400D02*
X141430800Y-30706400D01*
G04 #@! TO.C,C12*
X137162200Y-42871875D02*
X137662200Y-42871875D01*
X137412200Y-43121875D02*
X137412200Y-42621875D01*
X138603200Y-37716100D02*
X139171200Y-37716100D01*
X138369200Y-37756100D02*
X139405200Y-37756100D01*
X138210200Y-37796100D02*
X139564200Y-37796100D01*
X138082200Y-37836100D02*
X139692200Y-37836100D01*
X137972200Y-37876100D02*
X139802200Y-37876100D01*
X137876200Y-37916100D02*
X139898200Y-37916100D01*
X137789200Y-37956100D02*
X139985200Y-37956100D01*
X137709200Y-37996100D02*
X140065200Y-37996100D01*
X139927200Y-38036100D02*
X140138200Y-38036100D01*
X137636200Y-38036100D02*
X137847200Y-38036100D01*
X139927200Y-38076100D02*
X140206200Y-38076100D01*
X137568200Y-38076100D02*
X137847200Y-38076100D01*
X139927200Y-38116100D02*
X140270200Y-38116100D01*
X137504200Y-38116100D02*
X137847200Y-38116100D01*
X139927200Y-38156100D02*
X140330200Y-38156100D01*
X137444200Y-38156100D02*
X137847200Y-38156100D01*
X139927200Y-38196100D02*
X140387200Y-38196100D01*
X137387200Y-38196100D02*
X137847200Y-38196100D01*
X139927200Y-38236100D02*
X140441200Y-38236100D01*
X137333200Y-38236100D02*
X137847200Y-38236100D01*
X139927200Y-38276100D02*
X140492200Y-38276100D01*
X137282200Y-38276100D02*
X137847200Y-38276100D01*
X139927200Y-38316100D02*
X140540200Y-38316100D01*
X137234200Y-38316100D02*
X137847200Y-38316100D01*
X139927200Y-38356100D02*
X140586200Y-38356100D01*
X137188200Y-38356100D02*
X137847200Y-38356100D01*
X139927200Y-38396100D02*
X140630200Y-38396100D01*
X137144200Y-38396100D02*
X137847200Y-38396100D01*
X139927200Y-38436100D02*
X140672200Y-38436100D01*
X137102200Y-38436100D02*
X137847200Y-38436100D01*
X139927200Y-38476100D02*
X140713200Y-38476100D01*
X137061200Y-38476100D02*
X137847200Y-38476100D01*
X139927200Y-38516100D02*
X140751200Y-38516100D01*
X137023200Y-38516100D02*
X137847200Y-38516100D01*
X139927200Y-38556100D02*
X140788200Y-38556100D01*
X136986200Y-38556100D02*
X137847200Y-38556100D01*
X139927200Y-38596100D02*
X140824200Y-38596100D01*
X136950200Y-38596100D02*
X137847200Y-38596100D01*
X139927200Y-38636100D02*
X140858200Y-38636100D01*
X136916200Y-38636100D02*
X137847200Y-38636100D01*
X139927200Y-38676100D02*
X140891200Y-38676100D01*
X136883200Y-38676100D02*
X137847200Y-38676100D01*
X139927200Y-38716100D02*
X140922200Y-38716100D01*
X136852200Y-38716100D02*
X137847200Y-38716100D01*
X139927200Y-38756100D02*
X140952200Y-38756100D01*
X136822200Y-38756100D02*
X137847200Y-38756100D01*
X139927200Y-38796100D02*
X140982200Y-38796100D01*
X136792200Y-38796100D02*
X137847200Y-38796100D01*
X139927200Y-38836100D02*
X141009200Y-38836100D01*
X136765200Y-38836100D02*
X137847200Y-38836100D01*
X139927200Y-38876100D02*
X141036200Y-38876100D01*
X136738200Y-38876100D02*
X137847200Y-38876100D01*
X139927200Y-38916100D02*
X141062200Y-38916100D01*
X136712200Y-38916100D02*
X137847200Y-38916100D01*
X139927200Y-38956100D02*
X141087200Y-38956100D01*
X136687200Y-38956100D02*
X137847200Y-38956100D01*
X139927200Y-38996100D02*
X141111200Y-38996100D01*
X136663200Y-38996100D02*
X137847200Y-38996100D01*
X139927200Y-39036100D02*
X141134200Y-39036100D01*
X136640200Y-39036100D02*
X137847200Y-39036100D01*
X139927200Y-39076100D02*
X141155200Y-39076100D01*
X136619200Y-39076100D02*
X137847200Y-39076100D01*
X139927200Y-39116100D02*
X141177200Y-39116100D01*
X136597200Y-39116100D02*
X137847200Y-39116100D01*
X139927200Y-39156100D02*
X141197200Y-39156100D01*
X136577200Y-39156100D02*
X137847200Y-39156100D01*
X139927200Y-39196100D02*
X141216200Y-39196100D01*
X136558200Y-39196100D02*
X137847200Y-39196100D01*
X139927200Y-39236100D02*
X141235200Y-39236100D01*
X136539200Y-39236100D02*
X137847200Y-39236100D01*
X139927200Y-39276100D02*
X141252200Y-39276100D01*
X136522200Y-39276100D02*
X137847200Y-39276100D01*
X139927200Y-39316100D02*
X141269200Y-39316100D01*
X136505200Y-39316100D02*
X137847200Y-39316100D01*
X139927200Y-39356100D02*
X141285200Y-39356100D01*
X136489200Y-39356100D02*
X137847200Y-39356100D01*
X139927200Y-39396100D02*
X141301200Y-39396100D01*
X136473200Y-39396100D02*
X137847200Y-39396100D01*
X139927200Y-39436100D02*
X141315200Y-39436100D01*
X136459200Y-39436100D02*
X137847200Y-39436100D01*
X139927200Y-39476100D02*
X141329200Y-39476100D01*
X136445200Y-39476100D02*
X137847200Y-39476100D01*
X139927200Y-39516100D02*
X141342200Y-39516100D01*
X136432200Y-39516100D02*
X137847200Y-39516100D01*
X139927200Y-39556100D02*
X141355200Y-39556100D01*
X136419200Y-39556100D02*
X137847200Y-39556100D01*
X139927200Y-39596100D02*
X141367200Y-39596100D01*
X136407200Y-39596100D02*
X137847200Y-39596100D01*
X139927200Y-39637100D02*
X141378200Y-39637100D01*
X136396200Y-39637100D02*
X137847200Y-39637100D01*
X139927200Y-39677100D02*
X141388200Y-39677100D01*
X136386200Y-39677100D02*
X137847200Y-39677100D01*
X139927200Y-39717100D02*
X141398200Y-39717100D01*
X136376200Y-39717100D02*
X137847200Y-39717100D01*
X139927200Y-39757100D02*
X141407200Y-39757100D01*
X136367200Y-39757100D02*
X137847200Y-39757100D01*
X139927200Y-39797100D02*
X141415200Y-39797100D01*
X136359200Y-39797100D02*
X137847200Y-39797100D01*
X139927200Y-39837100D02*
X141423200Y-39837100D01*
X136351200Y-39837100D02*
X137847200Y-39837100D01*
X139927200Y-39877100D02*
X141430200Y-39877100D01*
X136344200Y-39877100D02*
X137847200Y-39877100D01*
X139927200Y-39917100D02*
X141437200Y-39917100D01*
X136337200Y-39917100D02*
X137847200Y-39917100D01*
X139927200Y-39957100D02*
X141443200Y-39957100D01*
X136331200Y-39957100D02*
X137847200Y-39957100D01*
X139927200Y-39997100D02*
X141448200Y-39997100D01*
X136326200Y-39997100D02*
X137847200Y-39997100D01*
X139927200Y-40037100D02*
X141452200Y-40037100D01*
X136322200Y-40037100D02*
X137847200Y-40037100D01*
X139927200Y-40077100D02*
X141456200Y-40077100D01*
X136318200Y-40077100D02*
X137847200Y-40077100D01*
X136314200Y-40117100D02*
X141460200Y-40117100D01*
X136311200Y-40157100D02*
X141463200Y-40157100D01*
X136309200Y-40197100D02*
X141465200Y-40197100D01*
X136308200Y-40237100D02*
X141466200Y-40237100D01*
X136307200Y-40277100D02*
X141467200Y-40277100D01*
X136307200Y-40317100D02*
X141467200Y-40317100D01*
X141507200Y-40317100D02*
G75*
G03X141507200Y-40317100I-2620000J0D01*
G01*
G04 #@! TO.C,L1*
X152099000Y-82423000D02*
G75*
G03X152099000Y-82423000I-2620000J0D01*
G01*
X148169000Y-80154013D02*
X147689000Y-79322629D01*
D13*
G04 #@! TO.C,RV1*
X156203330Y-84820000D02*
X156203330Y-77820000D01*
X152603330Y-84820000D02*
X152603330Y-77820000D01*
X152603330Y-77820000D02*
X156203330Y-77820000D01*
X152603330Y-84820000D02*
X156203330Y-84820000D01*
G04 #@! TO.C,TH1*
X156489530Y-84820000D02*
X160089530Y-84820000D01*
X156489530Y-77820000D02*
X160089530Y-77820000D01*
X156489530Y-84820000D02*
X156489530Y-77820000D01*
X160089530Y-84820000D02*
X160089530Y-77820000D01*
D12*
G04 #@! TO.C,C10*
X142940821Y-56555100D02*
X143266379Y-56555100D01*
X142940821Y-55535100D02*
X143266379Y-55535100D01*
G04 #@! TO.C,C17*
X151699179Y-52326000D02*
X151373621Y-52326000D01*
X151699179Y-51306000D02*
X151373621Y-51306000D01*
G04 #@! TO.C,C5*
X151140379Y-47309500D02*
X150814821Y-47309500D01*
X151140379Y-46289500D02*
X150814821Y-46289500D01*
G04 #@! TO.C,C18*
X148702700Y-40297100D02*
G75*
G03X148702700Y-40297100I-2620000J0D01*
G01*
X146082700Y-42877100D02*
X146082700Y-37717100D01*
X146042700Y-42877100D02*
X146042700Y-37717100D01*
X146002700Y-42876100D02*
X146002700Y-37718100D01*
X145962700Y-42875100D02*
X145962700Y-37719100D01*
X145922700Y-42873100D02*
X145922700Y-37721100D01*
X145882700Y-42870100D02*
X145882700Y-37724100D01*
X145842700Y-42866100D02*
X145842700Y-41337100D01*
X145842700Y-39257100D02*
X145842700Y-37728100D01*
X145802700Y-42862100D02*
X145802700Y-41337100D01*
X145802700Y-39257100D02*
X145802700Y-37732100D01*
X145762700Y-42858100D02*
X145762700Y-41337100D01*
X145762700Y-39257100D02*
X145762700Y-37736100D01*
X145722700Y-42853100D02*
X145722700Y-41337100D01*
X145722700Y-39257100D02*
X145722700Y-37741100D01*
X145682700Y-42847100D02*
X145682700Y-41337100D01*
X145682700Y-39257100D02*
X145682700Y-37747100D01*
X145642700Y-42840100D02*
X145642700Y-41337100D01*
X145642700Y-39257100D02*
X145642700Y-37754100D01*
X145602700Y-42833100D02*
X145602700Y-41337100D01*
X145602700Y-39257100D02*
X145602700Y-37761100D01*
X145562700Y-42825100D02*
X145562700Y-41337100D01*
X145562700Y-39257100D02*
X145562700Y-37769100D01*
X145522700Y-42817100D02*
X145522700Y-41337100D01*
X145522700Y-39257100D02*
X145522700Y-37777100D01*
X145482700Y-42808100D02*
X145482700Y-41337100D01*
X145482700Y-39257100D02*
X145482700Y-37786100D01*
X145442700Y-42798100D02*
X145442700Y-41337100D01*
X145442700Y-39257100D02*
X145442700Y-37796100D01*
X145402700Y-42788100D02*
X145402700Y-41337100D01*
X145402700Y-39257100D02*
X145402700Y-37806100D01*
X145361700Y-42777100D02*
X145361700Y-41337100D01*
X145361700Y-39257100D02*
X145361700Y-37817100D01*
X145321700Y-42765100D02*
X145321700Y-41337100D01*
X145321700Y-39257100D02*
X145321700Y-37829100D01*
X145281700Y-42752100D02*
X145281700Y-41337100D01*
X145281700Y-39257100D02*
X145281700Y-37842100D01*
X145241700Y-42739100D02*
X145241700Y-41337100D01*
X145241700Y-39257100D02*
X145241700Y-37855100D01*
X145201700Y-42725100D02*
X145201700Y-41337100D01*
X145201700Y-39257100D02*
X145201700Y-37869100D01*
X145161700Y-42711100D02*
X145161700Y-41337100D01*
X145161700Y-39257100D02*
X145161700Y-37883100D01*
X145121700Y-42695100D02*
X145121700Y-41337100D01*
X145121700Y-39257100D02*
X145121700Y-37899100D01*
X145081700Y-42679100D02*
X145081700Y-41337100D01*
X145081700Y-39257100D02*
X145081700Y-37915100D01*
X145041700Y-42662100D02*
X145041700Y-41337100D01*
X145041700Y-39257100D02*
X145041700Y-37932100D01*
X145001700Y-42645100D02*
X145001700Y-41337100D01*
X145001700Y-39257100D02*
X145001700Y-37949100D01*
X144961700Y-42626100D02*
X144961700Y-41337100D01*
X144961700Y-39257100D02*
X144961700Y-37968100D01*
X144921700Y-42607100D02*
X144921700Y-41337100D01*
X144921700Y-39257100D02*
X144921700Y-37987100D01*
X144881700Y-42587100D02*
X144881700Y-41337100D01*
X144881700Y-39257100D02*
X144881700Y-38007100D01*
X144841700Y-42565100D02*
X144841700Y-41337100D01*
X144841700Y-39257100D02*
X144841700Y-38029100D01*
X144801700Y-42544100D02*
X144801700Y-41337100D01*
X144801700Y-39257100D02*
X144801700Y-38050100D01*
X144761700Y-42521100D02*
X144761700Y-41337100D01*
X144761700Y-39257100D02*
X144761700Y-38073100D01*
X144721700Y-42497100D02*
X144721700Y-41337100D01*
X144721700Y-39257100D02*
X144721700Y-38097100D01*
X144681700Y-42472100D02*
X144681700Y-41337100D01*
X144681700Y-39257100D02*
X144681700Y-38122100D01*
X144641700Y-42446100D02*
X144641700Y-41337100D01*
X144641700Y-39257100D02*
X144641700Y-38148100D01*
X144601700Y-42419100D02*
X144601700Y-41337100D01*
X144601700Y-39257100D02*
X144601700Y-38175100D01*
X144561700Y-42392100D02*
X144561700Y-41337100D01*
X144561700Y-39257100D02*
X144561700Y-38202100D01*
X144521700Y-42362100D02*
X144521700Y-41337100D01*
X144521700Y-39257100D02*
X144521700Y-38232100D01*
X144481700Y-42332100D02*
X144481700Y-41337100D01*
X144481700Y-39257100D02*
X144481700Y-38262100D01*
X144441700Y-42301100D02*
X144441700Y-41337100D01*
X144441700Y-39257100D02*
X144441700Y-38293100D01*
X144401700Y-42268100D02*
X144401700Y-41337100D01*
X144401700Y-39257100D02*
X144401700Y-38326100D01*
X144361700Y-42234100D02*
X144361700Y-41337100D01*
X144361700Y-39257100D02*
X144361700Y-38360100D01*
X144321700Y-42198100D02*
X144321700Y-41337100D01*
X144321700Y-39257100D02*
X144321700Y-38396100D01*
X144281700Y-42161100D02*
X144281700Y-41337100D01*
X144281700Y-39257100D02*
X144281700Y-38433100D01*
X144241700Y-42123100D02*
X144241700Y-41337100D01*
X144241700Y-39257100D02*
X144241700Y-38471100D01*
X144201700Y-42082100D02*
X144201700Y-41337100D01*
X144201700Y-39257100D02*
X144201700Y-38512100D01*
X144161700Y-42040100D02*
X144161700Y-41337100D01*
X144161700Y-39257100D02*
X144161700Y-38554100D01*
X144121700Y-41996100D02*
X144121700Y-41337100D01*
X144121700Y-39257100D02*
X144121700Y-38598100D01*
X144081700Y-41950100D02*
X144081700Y-41337100D01*
X144081700Y-39257100D02*
X144081700Y-38644100D01*
X144041700Y-41902100D02*
X144041700Y-41337100D01*
X144041700Y-39257100D02*
X144041700Y-38692100D01*
X144001700Y-41851100D02*
X144001700Y-41337100D01*
X144001700Y-39257100D02*
X144001700Y-38743100D01*
X143961700Y-41797100D02*
X143961700Y-41337100D01*
X143961700Y-39257100D02*
X143961700Y-38797100D01*
X143921700Y-41740100D02*
X143921700Y-41337100D01*
X143921700Y-39257100D02*
X143921700Y-38854100D01*
X143881700Y-41680100D02*
X143881700Y-41337100D01*
X143881700Y-39257100D02*
X143881700Y-38914100D01*
X143841700Y-41616100D02*
X143841700Y-41337100D01*
X143841700Y-39257100D02*
X143841700Y-38978100D01*
X143801700Y-41548100D02*
X143801700Y-41337100D01*
X143801700Y-39257100D02*
X143801700Y-39046100D01*
X143761700Y-41475100D02*
X143761700Y-39119100D01*
X143721700Y-41395100D02*
X143721700Y-39199100D01*
X143681700Y-41308100D02*
X143681700Y-39286100D01*
X143641700Y-41212100D02*
X143641700Y-39382100D01*
X143601700Y-41102100D02*
X143601700Y-39492100D01*
X143561700Y-40974100D02*
X143561700Y-39620100D01*
X143521700Y-40815100D02*
X143521700Y-39779100D01*
X143481700Y-40581100D02*
X143481700Y-40013100D01*
X148887475Y-41772100D02*
X148387475Y-41772100D01*
X148637475Y-42022100D02*
X148637475Y-41522100D01*
G04 #@! TO.C,R33*
X136980200Y-34698721D02*
X136980200Y-35024279D01*
X138000200Y-34698721D02*
X138000200Y-35024279D01*
G04 #@! TO.C,U10*
X150135700Y-50836000D02*
X151895700Y-50836000D01*
X151895700Y-47766000D02*
X149465700Y-47766000D01*
G04 #@! TO.C,R23*
X138491179Y-25910000D02*
X138165621Y-25910000D01*
X138491179Y-24890000D02*
X138165621Y-24890000D01*
G04 #@! TO.C,U12*
X137428400Y-29600800D02*
X139228400Y-29600800D01*
X139228400Y-26380800D02*
X136778400Y-26380800D01*
G04 #@! TO.C,C3*
X138491179Y-30990000D02*
X138165621Y-30990000D01*
X138491179Y-29970000D02*
X138165621Y-29970000D01*
G04 #@! TO.C,R56*
X146725421Y-24763000D02*
X147050979Y-24763000D01*
X146725421Y-25783000D02*
X147050979Y-25783000D01*
G04 #@! TO.C,R57*
X147050979Y-26541000D02*
X146725421Y-26541000D01*
X147050979Y-27561000D02*
X146725421Y-27561000D01*
G04 #@! TO.C,C13*
X152918700Y-26197779D02*
X152918700Y-25872221D01*
X153938700Y-26197779D02*
X153938700Y-25872221D01*
G04 #@! TO.C,C15*
X160374700Y-26432000D02*
G75*
G03X160374700Y-26432000I-2120000J0D01*
G01*
X156174700Y-26432000D02*
X160334700Y-26432000D01*
X156174700Y-26392000D02*
X160334700Y-26392000D01*
X156175700Y-26352000D02*
X160333700Y-26352000D01*
X156177700Y-26312000D02*
X160331700Y-26312000D01*
X156180700Y-26272000D02*
X160328700Y-26272000D01*
X156183700Y-26232000D02*
X157414700Y-26232000D01*
X159094700Y-26232000D02*
X160325700Y-26232000D01*
X156187700Y-26192000D02*
X157414700Y-26192000D01*
X159094700Y-26192000D02*
X160321700Y-26192000D01*
X156192700Y-26152000D02*
X157414700Y-26152000D01*
X159094700Y-26152000D02*
X160316700Y-26152000D01*
X156198700Y-26112000D02*
X157414700Y-26112000D01*
X159094700Y-26112000D02*
X160310700Y-26112000D01*
X156204700Y-26072000D02*
X157414700Y-26072000D01*
X159094700Y-26072000D02*
X160304700Y-26072000D01*
X156212700Y-26032000D02*
X157414700Y-26032000D01*
X159094700Y-26032000D02*
X160296700Y-26032000D01*
X156220700Y-25992000D02*
X157414700Y-25992000D01*
X159094700Y-25992000D02*
X160288700Y-25992000D01*
X156229700Y-25952000D02*
X157414700Y-25952000D01*
X159094700Y-25952000D02*
X160279700Y-25952000D01*
X156238700Y-25912000D02*
X157414700Y-25912000D01*
X159094700Y-25912000D02*
X160270700Y-25912000D01*
X156249700Y-25872000D02*
X157414700Y-25872000D01*
X159094700Y-25872000D02*
X160259700Y-25872000D01*
X156260700Y-25832000D02*
X157414700Y-25832000D01*
X159094700Y-25832000D02*
X160248700Y-25832000D01*
X156272700Y-25792000D02*
X157414700Y-25792000D01*
X159094700Y-25792000D02*
X160236700Y-25792000D01*
X156286700Y-25752000D02*
X157414700Y-25752000D01*
X159094700Y-25752000D02*
X160222700Y-25752000D01*
X156300700Y-25711000D02*
X157414700Y-25711000D01*
X159094700Y-25711000D02*
X160208700Y-25711000D01*
X156314700Y-25671000D02*
X157414700Y-25671000D01*
X159094700Y-25671000D02*
X160194700Y-25671000D01*
X156330700Y-25631000D02*
X157414700Y-25631000D01*
X159094700Y-25631000D02*
X160178700Y-25631000D01*
X156347700Y-25591000D02*
X157414700Y-25591000D01*
X159094700Y-25591000D02*
X160161700Y-25591000D01*
X156365700Y-25551000D02*
X157414700Y-25551000D01*
X159094700Y-25551000D02*
X160143700Y-25551000D01*
X156384700Y-25511000D02*
X157414700Y-25511000D01*
X159094700Y-25511000D02*
X160124700Y-25511000D01*
X156403700Y-25471000D02*
X157414700Y-25471000D01*
X159094700Y-25471000D02*
X160105700Y-25471000D01*
X156424700Y-25431000D02*
X157414700Y-25431000D01*
X159094700Y-25431000D02*
X160084700Y-25431000D01*
X156446700Y-25391000D02*
X157414700Y-25391000D01*
X159094700Y-25391000D02*
X160062700Y-25391000D01*
X156469700Y-25351000D02*
X157414700Y-25351000D01*
X159094700Y-25351000D02*
X160039700Y-25351000D01*
X156494700Y-25311000D02*
X157414700Y-25311000D01*
X159094700Y-25311000D02*
X160014700Y-25311000D01*
X156519700Y-25271000D02*
X157414700Y-25271000D01*
X159094700Y-25271000D02*
X159989700Y-25271000D01*
X156546700Y-25231000D02*
X157414700Y-25231000D01*
X159094700Y-25231000D02*
X159962700Y-25231000D01*
X156574700Y-25191000D02*
X157414700Y-25191000D01*
X159094700Y-25191000D02*
X159934700Y-25191000D01*
X156604700Y-25151000D02*
X157414700Y-25151000D01*
X159094700Y-25151000D02*
X159904700Y-25151000D01*
X156635700Y-25111000D02*
X157414700Y-25111000D01*
X159094700Y-25111000D02*
X159873700Y-25111000D01*
X156667700Y-25071000D02*
X157414700Y-25071000D01*
X159094700Y-25071000D02*
X159841700Y-25071000D01*
X156702700Y-25031000D02*
X157414700Y-25031000D01*
X159094700Y-25031000D02*
X159806700Y-25031000D01*
X156738700Y-24991000D02*
X157414700Y-24991000D01*
X159094700Y-24991000D02*
X159770700Y-24991000D01*
X156776700Y-24951000D02*
X157414700Y-24951000D01*
X159094700Y-24951000D02*
X159732700Y-24951000D01*
X156816700Y-24911000D02*
X157414700Y-24911000D01*
X159094700Y-24911000D02*
X159692700Y-24911000D01*
X156858700Y-24871000D02*
X157414700Y-24871000D01*
X159094700Y-24871000D02*
X159650700Y-24871000D01*
X156903700Y-24831000D02*
X157414700Y-24831000D01*
X159094700Y-24831000D02*
X159605700Y-24831000D01*
X156950700Y-24791000D02*
X157414700Y-24791000D01*
X159094700Y-24791000D02*
X159558700Y-24791000D01*
X157000700Y-24751000D02*
X157414700Y-24751000D01*
X159094700Y-24751000D02*
X159508700Y-24751000D01*
X157054700Y-24711000D02*
X157414700Y-24711000D01*
X159094700Y-24711000D02*
X159454700Y-24711000D01*
X157112700Y-24671000D02*
X157414700Y-24671000D01*
X159094700Y-24671000D02*
X159396700Y-24671000D01*
X157174700Y-24631000D02*
X157414700Y-24631000D01*
X159094700Y-24631000D02*
X159334700Y-24631000D01*
X157241700Y-24591000D02*
X159267700Y-24591000D01*
X157314700Y-24551000D02*
X159194700Y-24551000D01*
X157395700Y-24511000D02*
X159113700Y-24511000D01*
X157486700Y-24471000D02*
X159022700Y-24471000D01*
X157590700Y-24431000D02*
X158918700Y-24431000D01*
X157717700Y-24391000D02*
X158791700Y-24391000D01*
X157884700Y-24351000D02*
X158624700Y-24351000D01*
X157059700Y-28701801D02*
X157059700Y-28301801D01*
X156859700Y-28501801D02*
X157259700Y-28501801D01*
G04 #@! TO.C,L3*
X149822200Y-32042400D02*
X150812200Y-32042400D01*
X149822200Y-36842400D02*
X150812200Y-36842400D01*
G04 #@! TO.C,R49*
X155496800Y-34147979D02*
X155496800Y-33822421D01*
X156516800Y-34147979D02*
X156516800Y-33822421D01*
G04 #@! TO.C,R50*
X154738800Y-34147979D02*
X154738800Y-33822421D01*
X153718800Y-34147979D02*
X153718800Y-33822421D01*
G04 #@! TO.C,C14*
X154684000Y-26197779D02*
X154684000Y-25872221D01*
X155704000Y-26197779D02*
X155704000Y-25872221D01*
G04 #@! TO.C,SW1*
X194195000Y-77502000D02*
X188075000Y-77502000D01*
X188075000Y-77502000D02*
X188075000Y-73882000D01*
X188075000Y-73882000D02*
X194195000Y-73882000D01*
X194195000Y-73882000D02*
X194195000Y-77502000D01*
G04 #@! TO.C,C16*
X174711579Y-71325200D02*
X174386021Y-71325200D01*
X174711579Y-70305200D02*
X174386021Y-70305200D01*
G04 #@! TO.C,R51*
X174711579Y-68785200D02*
X174386021Y-68785200D01*
X174711579Y-67765200D02*
X174386021Y-67765200D01*
G04 #@! TO.C,R52*
X174711579Y-69035200D02*
X174386021Y-69035200D01*
X174711579Y-70055200D02*
X174386021Y-70055200D01*
G04 #@! TO.C,C1*
X171688979Y-68785200D02*
X171363421Y-68785200D01*
X171688979Y-67765200D02*
X171363421Y-67765200D01*
G04 #@! TO.C,R31*
X159196821Y-73531000D02*
X159522379Y-73531000D01*
X159196821Y-74551000D02*
X159522379Y-74551000D01*
G04 #@! TO.C,R32*
X164810221Y-73531000D02*
X165135779Y-73531000D01*
X164810221Y-74551000D02*
X165135779Y-74551000D01*
G04 #@! TO.C,R34*
X169225179Y-73531000D02*
X168899621Y-73531000D01*
X169225179Y-74551000D02*
X168899621Y-74551000D01*
G04 #@! TO.C,R5*
X199247979Y-70029800D02*
X198922421Y-70029800D01*
X199247979Y-69009800D02*
X198922421Y-69009800D01*
G04 #@! TO.C,R41*
X198922421Y-73839800D02*
X199247979Y-73839800D01*
X198922421Y-72819800D02*
X199247979Y-72819800D01*
G04 #@! TO.C,R42*
X209306279Y-73585800D02*
X208980721Y-73585800D01*
X209306279Y-72565800D02*
X208980721Y-72565800D01*
D13*
G04 #@! TO.C,U1*
X202039400Y-67609800D02*
X202039400Y-67634800D01*
X206189400Y-67609800D02*
X206189400Y-67724800D01*
X206189400Y-76509800D02*
X206189400Y-76394800D01*
X202039400Y-76509800D02*
X202039400Y-76394800D01*
X202039400Y-67609800D02*
X206189400Y-67609800D01*
X202039400Y-76509800D02*
X206189400Y-76509800D01*
X202039400Y-67634800D02*
X200664400Y-67634800D01*
D12*
G04 #@! TO.C,R1*
X208980821Y-70029800D02*
X209306379Y-70029800D01*
X208980821Y-69009800D02*
X209306379Y-69009800D01*
G04 #@! TO.C,R2*
X199247979Y-68759800D02*
X198922421Y-68759800D01*
X199247979Y-67739800D02*
X198922421Y-67739800D01*
G04 #@! TO.C,R4*
X209306379Y-68759800D02*
X208980821Y-68759800D01*
X209306379Y-67739800D02*
X208980821Y-67739800D01*
G04 #@! TO.C,R16*
X199247979Y-75109800D02*
X198922421Y-75109800D01*
X199247979Y-74089800D02*
X198922421Y-74089800D01*
G04 #@! TO.C,R6*
X199247979Y-76379800D02*
X198922421Y-76379800D01*
X199247979Y-75359800D02*
X198922421Y-75359800D01*
G04 #@! TO.C,R12*
X209306379Y-76379800D02*
X208980821Y-76379800D01*
X209306379Y-75359800D02*
X208980821Y-75359800D01*
G04 #@! TO.C,R65*
X209306379Y-70533800D02*
X208980821Y-70533800D01*
X209306379Y-71553800D02*
X208980821Y-71553800D01*
G04 #@! TO.C,R66*
X198922421Y-70279800D02*
X199247979Y-70279800D01*
X198922421Y-71299800D02*
X199247979Y-71299800D01*
G04 #@! TO.C,R17*
X231641680Y-75093796D02*
X231967238Y-75093796D01*
X231641680Y-74073796D02*
X231967238Y-74073796D01*
G04 #@! TO.C,R59*
X210665600Y-75397579D02*
X210665600Y-75072021D01*
X211685600Y-75397579D02*
X211685600Y-75072021D01*
G04 #@! TO.C,R11*
X231641680Y-75343796D02*
X231967238Y-75343796D01*
X231641680Y-76363796D02*
X231967238Y-76363796D01*
G04 #@! TO.C,R45*
X231641680Y-72803796D02*
X231967238Y-72803796D01*
X231641680Y-73823796D02*
X231967238Y-73823796D01*
G04 #@! TO.C,R46*
X221908838Y-72549796D02*
X221583280Y-72549796D01*
X221908838Y-73569796D02*
X221583280Y-73569796D01*
G04 #@! TO.C,R10*
X221908838Y-76363796D02*
X221583280Y-76363796D01*
X221908838Y-75343796D02*
X221583280Y-75343796D01*
G04 #@! TO.C,R13*
X221908838Y-74073796D02*
X221583280Y-74073796D01*
X221908838Y-75093796D02*
X221583280Y-75093796D01*
G04 #@! TO.C,R15*
X221583280Y-67723796D02*
X221908838Y-67723796D01*
X221583280Y-68743796D02*
X221908838Y-68743796D01*
G04 #@! TO.C,R60*
X220220000Y-75372179D02*
X220220000Y-75046621D01*
X219200000Y-75372179D02*
X219200000Y-75046621D01*
G04 #@! TO.C,R61*
X220220000Y-68722021D02*
X220220000Y-69047579D01*
X219200000Y-68722021D02*
X219200000Y-69047579D01*
G04 #@! TO.C,C25*
X231992638Y-72553796D02*
X231667080Y-72553796D01*
X231992638Y-71533796D02*
X231667080Y-71533796D01*
G04 #@! TO.C,C26*
X198922421Y-72569800D02*
X199247979Y-72569800D01*
X198922421Y-71549800D02*
X199247979Y-71549800D01*
G04 #@! TO.C,R24*
X160456200Y-82760736D02*
X160456200Y-83964864D01*
X162276200Y-82760736D02*
X162276200Y-83964864D01*
G04 #@! TO.C,R25*
X160456200Y-79748464D02*
X160456200Y-78544336D01*
X162276200Y-79748464D02*
X162276200Y-78544336D01*
G04 #@! TO.C,R29*
X159364136Y-75010600D02*
X160568264Y-75010600D01*
X159364136Y-76830600D02*
X160568264Y-76830600D01*
D13*
G04 #@! TO.C,U2*
X213367800Y-67584400D02*
X213367800Y-67609400D01*
X217517800Y-67584400D02*
X217517800Y-67699400D01*
X217517800Y-76484400D02*
X217517800Y-76369400D01*
X213367800Y-76484400D02*
X213367800Y-76369400D01*
X213367800Y-67584400D02*
X217517800Y-67584400D01*
X213367800Y-76484400D02*
X217517800Y-76484400D01*
X213367800Y-67609400D02*
X211992800Y-67609400D01*
D12*
G04 #@! TO.C,R18*
X166095000Y-82760736D02*
X166095000Y-83964864D01*
X167915000Y-82760736D02*
X167915000Y-83964864D01*
G04 #@! TO.C,R21*
X173528400Y-82760736D02*
X173528400Y-83964864D01*
X171708400Y-82760736D02*
X171708400Y-83964864D01*
G04 #@! TO.C,R26*
X170616336Y-75010600D02*
X171820464Y-75010600D01*
X170616336Y-76830600D02*
X171820464Y-76830600D01*
G04 #@! TO.C,R27*
X166095000Y-78544336D02*
X166095000Y-79748464D01*
X167915000Y-78544336D02*
X167915000Y-79748464D01*
G04 #@! TO.C,R28*
X173528400Y-78544336D02*
X173528400Y-79748464D01*
X171708400Y-78544336D02*
X171708400Y-79748464D01*
G04 #@! TO.C,R30*
X165002936Y-76830600D02*
X166207064Y-76830600D01*
X165002936Y-75010600D02*
X166207064Y-75010600D01*
D13*
G04 #@! TO.C,P2*
X197215800Y-51435000D02*
X197215800Y-71435000D01*
X197215800Y-71435000D02*
X157215800Y-71435000D01*
X157215800Y-71435000D02*
X157215800Y-31435000D01*
X157215800Y-31435000D02*
X197215800Y-31435000D01*
X197215800Y-31435000D02*
X197215800Y-51435000D01*
D12*
G04 #@! TO.C,R58*
X211685600Y-68722021D02*
X211685600Y-69047579D01*
X210665600Y-68722021D02*
X210665600Y-69047579D01*
G04 #@! TO.C,C27*
X216507600Y-65516979D02*
X216507600Y-65191421D01*
X217527600Y-65516979D02*
X217527600Y-65191421D01*
G04 #@! TO.C,C2*
X233097800Y-65191421D02*
X233097800Y-65516979D01*
X232077800Y-65191421D02*
X232077800Y-65516979D01*
G04 #@! TO.C,C4*
X226997800Y-65191421D02*
X226997800Y-65516979D01*
X228017800Y-65191421D02*
X228017800Y-65516979D01*
G04 #@! TO.C,C6*
X225477800Y-65191421D02*
X225477800Y-65516979D01*
X224457800Y-65191421D02*
X224457800Y-65516979D01*
G04 #@! TO.C,C19*
X217942379Y-62562200D02*
X217616821Y-62562200D01*
X217942379Y-61542200D02*
X217616821Y-61542200D01*
G04 #@! TO.C,C20*
X219377800Y-65191421D02*
X219377800Y-65516979D01*
X220397800Y-65191421D02*
X220397800Y-65516979D01*
G04 #@! TO.C,C21*
X221917800Y-65191421D02*
X221917800Y-65516979D01*
X222937800Y-65191421D02*
X222937800Y-65516979D01*
G04 #@! TO.C,R3*
X225727800Y-65191421D02*
X225727800Y-65516979D01*
X226747800Y-65191421D02*
X226747800Y-65516979D01*
G04 #@! TO.C,R7*
X230807800Y-65516979D02*
X230807800Y-65191421D01*
X231827800Y-65516979D02*
X231827800Y-65191421D01*
G04 #@! TO.C,R8*
X223187800Y-65191421D02*
X223187800Y-65516979D01*
X224207800Y-65191421D02*
X224207800Y-65516979D01*
G04 #@! TO.C,R62*
X217942379Y-63832200D02*
X217616821Y-63832200D01*
X217942379Y-62812200D02*
X217616821Y-62812200D01*
G04 #@! TO.C,R63*
X218107800Y-65191421D02*
X218107800Y-65516979D01*
X219127800Y-65191421D02*
X219127800Y-65516979D01*
G04 #@! TO.C,R64*
X221667800Y-65191421D02*
X221667800Y-65516979D01*
X220647800Y-65191421D02*
X220647800Y-65516979D01*
G04 #@! TO.C,R38*
X204277179Y-25372600D02*
X203951621Y-25372600D01*
X204277179Y-26392600D02*
X203951621Y-26392600D01*
G04 #@! TO.C,R55*
X209585779Y-25372600D02*
X209260221Y-25372600D01*
X209585779Y-26392600D02*
X209260221Y-26392600D01*
G04 #@! TO.C,C23*
X230735600Y-60695621D02*
X230735600Y-61021179D01*
X229715600Y-60695621D02*
X229715600Y-61021179D01*
G04 #@! TO.C,C28*
X217616821Y-57732200D02*
X217942379Y-57732200D01*
X217616821Y-58752200D02*
X217942379Y-58752200D01*
G04 #@! TO.C,D13*
X152333800Y-39381800D02*
X152333800Y-37681800D01*
X152333800Y-37681800D02*
X149783800Y-37681800D01*
X152333800Y-39381800D02*
X149783800Y-39381800D01*
G04 #@! TO.C,R44*
X221917800Y-50256221D02*
X221917800Y-50581779D01*
X222937800Y-50256221D02*
X222937800Y-50581779D01*
G04 #@! TO.C,U4*
X218793600Y-53548400D02*
X218793600Y-52618400D01*
X218793600Y-50388400D02*
X218793600Y-51318400D01*
X218793600Y-50388400D02*
X216633600Y-50388400D01*
X218793600Y-53548400D02*
X217333600Y-53548400D01*
G04 #@! TO.C,C22*
X217942379Y-56462200D02*
X217616821Y-56462200D01*
X217942379Y-57482200D02*
X217616821Y-57482200D01*
G04 #@! TO.C,C24*
X220647800Y-50581779D02*
X220647800Y-50256221D01*
X221667800Y-50581779D02*
X221667800Y-50256221D01*
G04 #@! TO.C,D9*
X160684465Y-29907608D02*
G75*
G03X163916800Y-30064516I1672335J1078608D01*
G01*
X160684465Y-27750392D02*
G75*
G02X163916800Y-27593484I1672335J-1078608D01*
G01*
X161315670Y-29908837D02*
G75*
G03X163397761Y-29909000I1041130J1079837D01*
G01*
X161315670Y-27749163D02*
G75*
G02X163397761Y-27749000I1041130J-1079837D01*
G01*
X163916800Y-30065000D02*
X163916800Y-29909000D01*
X163916800Y-27749000D02*
X163916800Y-27593000D01*
G04 #@! TO.C,D10*
X175695865Y-29907608D02*
G75*
G03X178928200Y-30064516I1672335J1078608D01*
G01*
X175695865Y-27750392D02*
G75*
G02X178928200Y-27593484I1672335J-1078608D01*
G01*
X176327070Y-29908837D02*
G75*
G03X178409161Y-29909000I1041130J1079837D01*
G01*
X176327070Y-27749163D02*
G75*
G02X178409161Y-27749000I1041130J-1079837D01*
G01*
X178928200Y-30065000D02*
X178928200Y-29909000D01*
X178928200Y-27749000D02*
X178928200Y-27593000D01*
G04 #@! TO.C,D12*
X193914200Y-27723600D02*
X193914200Y-27567600D01*
X193914200Y-30039600D02*
X193914200Y-29883600D01*
X191313070Y-27723763D02*
G75*
G02X193395161Y-27723600I1041130J-1079837D01*
G01*
X191313070Y-29883437D02*
G75*
G03X193395161Y-29883600I1041130J1079837D01*
G01*
X190681865Y-27724992D02*
G75*
G02X193914200Y-27568084I1672335J-1078608D01*
G01*
X190681865Y-29882208D02*
G75*
G03X193914200Y-30039116I1672335J1078608D01*
G01*
G04 #@! TO.C,J5*
X231174600Y-38446400D02*
X228514600Y-38446400D01*
X231174600Y-43586400D02*
X231174600Y-38446400D01*
X228514600Y-43586400D02*
X228514600Y-38446400D01*
X231174600Y-43586400D02*
X228514600Y-43586400D01*
X231174600Y-44856400D02*
X231174600Y-46186400D01*
X231174600Y-46186400D02*
X229844600Y-46186400D01*
G04 #@! TO.C,R37*
X224563400Y-50256221D02*
X224563400Y-50581779D01*
X223543400Y-50256221D02*
X223543400Y-50581779D01*
G04 #@! TO.C,R39*
X217616821Y-60272200D02*
X217942379Y-60272200D01*
X217616821Y-61292200D02*
X217942379Y-61292200D01*
G04 #@! TO.C,BZ1*
X228213000Y-42697400D02*
G75*
G03X228213000Y-42697400I-6100000J0D01*
G01*
G04 #@! TO.C,R35*
X217942379Y-56212200D02*
X217616821Y-56212200D01*
X217942379Y-55192200D02*
X217616821Y-55192200D01*
G04 #@! TO.C,D14*
X152350600Y-41464600D02*
X152350600Y-39764600D01*
X152350600Y-39764600D02*
X149800600Y-39764600D01*
X152350600Y-41464600D02*
X149800600Y-41464600D01*
G04 #@! TO.C,C29*
X217942379Y-50040000D02*
X217616821Y-50040000D01*
X217942379Y-49020000D02*
X217616821Y-49020000D01*
G04 #@! TO.C,L5*
X217942379Y-54929500D02*
X217616821Y-54929500D01*
X217942379Y-53909500D02*
X217616821Y-53909500D01*
G04 #@! TO.C,C30*
X174386021Y-71575200D02*
X174711579Y-71575200D01*
X174386021Y-72595200D02*
X174711579Y-72595200D01*
G04 #@! TO.C,L2*
X146405200Y-48769900D02*
G75*
G03X146405200Y-48769900I-4470000J0D01*
G01*
G04 #@! TO.C,D15*
X146912200Y-50966000D02*
X146912200Y-52666000D01*
X146912200Y-52666000D02*
X149462200Y-52666000D01*
X146912200Y-50966000D02*
X149462200Y-50966000D01*
G04 #@! TO.C,BZ1*
D13*
X217922047Y-40228828D02*
X218683952Y-40228828D01*
X218303000Y-40609780D02*
X218303000Y-39847876D01*
G04 #@! TO.C,L5*
X217612933Y-56301880D02*
X217136742Y-56301880D01*
X217136742Y-55301880D01*
X218422457Y-55301880D02*
X217946266Y-55301880D01*
X217898647Y-55778071D01*
X217946266Y-55730452D01*
X218041504Y-55682833D01*
X218279600Y-55682833D01*
X218374838Y-55730452D01*
X218422457Y-55778071D01*
X218470076Y-55873309D01*
X218470076Y-56111404D01*
X218422457Y-56206642D01*
X218374838Y-56254261D01*
X218279600Y-56301880D01*
X218041504Y-56301880D01*
X217946266Y-56254261D01*
X217898647Y-56206642D01*
G04 #@! TO.C,C30*
X173905942Y-71012342D02*
X173858323Y-71059961D01*
X173715466Y-71107580D01*
X173620228Y-71107580D01*
X173477371Y-71059961D01*
X173382133Y-70964723D01*
X173334514Y-70869485D01*
X173286895Y-70679009D01*
X173286895Y-70536152D01*
X173334514Y-70345676D01*
X173382133Y-70250438D01*
X173477371Y-70155200D01*
X173620228Y-70107580D01*
X173715466Y-70107580D01*
X173858323Y-70155200D01*
X173905942Y-70202819D01*
X174239276Y-70107580D02*
X174858323Y-70107580D01*
X174524990Y-70488533D01*
X174667847Y-70488533D01*
X174763085Y-70536152D01*
X174810704Y-70583771D01*
X174858323Y-70679009D01*
X174858323Y-70917104D01*
X174810704Y-71012342D01*
X174763085Y-71059961D01*
X174667847Y-71107580D01*
X174382133Y-71107580D01*
X174286895Y-71059961D01*
X174239276Y-71012342D01*
X175477371Y-70107580D02*
X175572609Y-70107580D01*
X175667847Y-70155200D01*
X175715466Y-70202819D01*
X175763085Y-70298057D01*
X175810704Y-70488533D01*
X175810704Y-70726628D01*
X175763085Y-70917104D01*
X175715466Y-71012342D01*
X175667847Y-71059961D01*
X175572609Y-71107580D01*
X175477371Y-71107580D01*
X175382133Y-71059961D01*
X175334514Y-71012342D01*
X175286895Y-70917104D01*
X175239276Y-70726628D01*
X175239276Y-70488533D01*
X175286895Y-70298057D01*
X175334514Y-70202819D01*
X175382133Y-70155200D01*
X175477371Y-70107580D01*
G04 #@! TD*
M02*
