(module 853160 (layer F.Cu) (tedit 5BE75C09)
  (fp_text reference REF** (at 0 13.97) (layer F.SilkS)
    (effects (font (size 1 1) (thickness 0.15)))
  )
  (fp_text value 853160 (at 0 -13.97) (layer F.Fab)
    (effects (font (size 1 1) (thickness 0.1)))
  )
  (fp_line (start -30 -15.5) (end 30 -15.5) (layer F.SilkS) (width 0.15))
  (fp_line (start 30 -15.5) (end 30 15.5) (layer F.SilkS) (width 0.15))
  (fp_line (start -30 15.5) (end -30 -15.5) (layer F.SilkS) (width 0.15))
  (fp_line (start -30 15.5) (end 30 15.5) (layer F.SilkS) (width 0.15))
)
