(module Inductor_THT:L_Axial_L12.0mm_D5.0mm_P5.08mm_Vertical_Fastron_MISC (layer F.Cu) (tedit 5CF453AA)
  (descr "Inductor, Axial series, Axial, Vertical, pin pitch=5.08mm, , length*diameter=12*5mm^2, Fastron, MISC, http://cdn-reichelt.de/documents/datenblatt/B400/DS_MISC.pdf")
  (tags "Inductor Axial series Axial Vertical pin pitch 5.08mm  length 12mm diameter 5mm Fastron MISC")
  (fp_text reference L1 (at 2.54 -3.62) (layer F.SilkS) hide
    (effects (font (size 1 1) (thickness 0.15)))
  )
  (fp_text value "470uH 350mA" (at 2.54 3.62) (layer F.Fab) hide
    (effects (font (size 1 1) (thickness 0.15)))
  )
  (fp_text user %R (at 0.709376 -0.822276) (layer F.Fab)
    (effects (font (size 1 1) (thickness 0.15)))
  )
  (fp_circle (center 0 0) (end 2.5 0) (layer F.Fab) (width 0.1))
  (fp_circle (center 0 0) (end 2.62 0) (layer F.SilkS) (width 0.12))
  (fp_line (start 0 0) (end 5.08 0) (layer F.Fab) (width 0.1))
  (fp_line (start 2.62 0) (end 3.58 0) (layer F.SilkS) (width 0.12))
  (fp_line (start -2.75 -2.75) (end -2.75 2.75) (layer F.CrtYd) (width 0.05))
  (fp_line (start -2.75 2.75) (end 6.53 2.75) (layer F.CrtYd) (width 0.05))
  (fp_line (start 6.53 2.75) (end 6.53 -2.75) (layer F.CrtYd) (width 0.05))
  (fp_line (start 6.53 -2.75) (end -2.75 -2.75) (layer F.CrtYd) (width 0.05))
  (pad 2 thru_hole oval (at 5.08 0) (size 2.4 2.4) (drill 1.2) (layers *.Cu *.Mask))
  (pad 1 thru_hole circle (at 0 0) (size 2.4 2.4) (drill 1.2) (layers *.Cu *.Mask))
  (model ${KISYS3DMOD}/Resistor_THT.3dshapes/R_Axial_DIN0516_L15.5mm_D5.0mm_P5.08mm_Vertical.step
    (at (xyz 0 0 0))
    (scale (xyz 1 1 1))
    (rotate (xyz 0 0 0))
  )
)
