{
  "paths": {
    "/getAPI": {
      "post": {
        "summary": "Get implemented API methods documentation, returned data is in OpenAPI format",
        "tags": [ "System" ],
        "requestBody": { "$ref": "#/components/requestBodies/EmptyObject" },
        "responses": {
          "200": {
            "description": "The method executed without error",
            "content": {
              "application/json": {
                "schema": {
                  "type": "object",
                  "properties": {},
                  "example": {}
                }
              }
            }
          },
          "401": { "$ref": "#/components/responses/401Response" }
        }
      }
    }
  }
}