(module CD43_4.5x4.0 (layer F.Cu) (tedit 5D9B926D)
  (descr "Inductor, CD32 3.5x3.0")
  (tags "inductor Wuerth smd")
  (attr smd)
  (fp_text reference L3 (at 0 -2.85) (layer F.SilkS) hide
    (effects (font (size 1 1) (thickness 0.15)))
  )
  (fp_text value 10uH (at 0 3.35) (layer F.Fab) hide
    (effects (font (size 1 1) (thickness 0.15)))
  )
  (fp_text user %R (at 0 0) (layer F.Fab)
    (effects (font (size 0.8 0.8) (thickness 0.15)))
  )
  (fp_line (start -2.5 -2.25) (end -2.5 2.25) (layer F.Fab) (width 0.1))
  (fp_line (start -2.5 2.25) (end 2.5 2.25) (layer F.Fab) (width 0.1))
  (fp_line (start 2.5 2.25) (end 2.5 -2.25) (layer F.Fab) (width 0.1))
  (fp_line (start 2.5 -2.25) (end -2.5 -2.25) (layer F.Fab) (width 0.1))
  (fp_line (start -1.75 -1.5) (end -1.75 1.5) (layer F.CrtYd) (width 0.05))
  (fp_line (start 1.75 1.5) (end 1.75 -1.5) (layer F.CrtYd) (width 0.05))
  (fp_line (start -0.495 -2.4) (end 0.495 -2.4) (layer F.SilkS) (width 0.12))
  (fp_line (start -0.495 2.4) (end 0.495 2.4) (layer F.SilkS) (width 0.12))
  (pad 1 smd roundrect (at -1.625 0) (size 1.75 4.5) (layers F.Cu F.Paste F.Mask) (roundrect_rratio 0.25))
  (pad 2 smd roundrect (at 1.625 0) (size 1.75 4.5) (layers F.Cu F.Paste F.Mask) (roundrect_rratio 0.25))
  (model ${KISYS3DMOD}/Inductor_SMD.3dshapes/L_Wuerth_MAPI-3020.wrl
    (at (xyz 0 0 0))
    (scale (xyz 1.1 1.1 1.1))
    (rotate (xyz 0 0 0))
  )
)
