(module KF2EDGR_2.54x4 locked (layer F.Cu) (tedit 5E14681C)
  (fp_text reference J1 (at 0 4.445) (layer F.SilkS) hide
    (effects (font (size 1 1) (thickness 0.15)))
  )
  (fp_text value 95001-6P6C (at -0.635 -3.81) (layer F.Fab) hide
    (effects (font (size 1 1) (thickness 0.15)))
  )
  (fp_line (start -5.08 8.9) (end -5.08 -1.2) (layer F.SilkS) (width 0.1))
  (fp_line (start 6 8.9) (end -6 8.9) (layer F.SilkS) (width 0.1))
  (fp_line (start 5.08 -1.2) (end 5.08 8.9) (layer F.SilkS) (width 0.1))
  (fp_line (start -6 -1.2) (end 6 -1.2) (layer F.SilkS) (width 0.1))
  (fp_line (start 6 -1.2) (end 6 8.9) (layer F.SilkS) (width 0.1))
  (fp_line (start -6 8.9) (end -6 -1.2) (layer F.SilkS) (width 0.1))
  (pad 4 thru_hole roundrect (at -3.81 0) (size 1.8 1.8) (drill 1) (layers *.Cu *.Mask) (roundrect_rratio 0.25))
  (pad 3 thru_hole roundrect (at -1.27 0) (size 1.8 1.8) (drill 1) (layers *.Cu *.Mask) (roundrect_rratio 0.25))
  (pad 2 thru_hole roundrect (at 1.27 0) (size 1.8 1.8) (drill 1) (layers *.Cu *.Mask) (roundrect_rratio 0.25))
  (pad 1 thru_hole roundrect (at 3.81 0) (size 1.8 1.8) (drill 1) (layers *.Cu *.Mask) (roundrect_rratio 0.25))
)
