(module Buzzer_9x5.5RM4 (layer F.Cu) (tedit 5D58745D)
  (descr "Generic Buzzer, D12mm height 9.5mm with RM7.6mm")
  (tags buzzer)
  (fp_text reference BZ1 (at 3.8 -7.2) (layer F.SilkS) hide
    (effects (font (size 1 1) (thickness 0.15)))
  )
  (fp_text value HMB1275-05B (at 3.8 7.4) (layer F.Fab) hide
    (effects (font (size 1 1) (thickness 0.15)))
  )
  (fp_text user + (at -0.01 -2.54) (layer F.Fab)
    (effects (font (size 1 1) (thickness 0.15)))
  )
  (fp_text user + (at -4.445 -3.175) (layer F.SilkS)
    (effects (font (size 1 1) (thickness 0.15)))
  )
  (fp_text user %R (at 3.8 -4) (layer F.Fab)
    (effects (font (size 1 1) (thickness 0.15)))
  )
  (fp_circle (center 0 0) (end 0.8 0) (layer F.SilkS) (width 0.1))
  (fp_circle (center 0 0) (end 4.6 0) (layer F.SilkS) (width 0.12))
  (pad 1 thru_hole roundrect (at -2 0) (size 2 2) (drill 1) (layers *.Cu *.Mask) (roundrect_rratio 0.25))
  (pad 2 thru_hole circle (at 2 0) (size 2 2) (drill 1) (layers *.Cu *.Mask))
  (model "${KIPRJMOD}/3DLibs/active-passive-piezo-buzzer-1.snapshot.1 (1)/Buzzer_Passive.stp"
    (at (xyz 0 0 0))
    (scale (xyz 1 1 1))
    (rotate (xyz 0 0 -90))
  )
  (model ${KIPRJMOD}/3DLibs/Buzzer.stp
    (at (xyz 0 0 0))
    (scale (xyz 1 1 1))
    (rotate (xyz 0 0 -90))
  )
)
