(module L_Wuerth_MAPI-4020 (layer F.Cu) (tedit 5BE06FD0)
  (descr "Inductor, CD32 3.5x3.0")
  (tags "inductor Wuerth smd")
  (attr smd)
  (fp_text reference REF** (at 0 -2.85) (layer F.SilkS)
    (effects (font (size 1 1) (thickness 0.15)))
  )
  (fp_text value CD32 (at 0 3.35) (layer F.Fab)
    (effects (font (size 1 1) (thickness 0.15)))
  )
  (fp_text user %R (at 0 0) (layer F.Fab)
    (effects (font (size 0.8 0.8) (thickness 0.15)))
  )
  (fp_line (start -2 -2) (end -2 2) (layer F.Fab) (width 0.1))
  (fp_line (start -2 2) (end 2 2) (layer F.Fab) (width 0.1))
  (fp_line (start 2 2) (end 2 -2) (layer F.Fab) (width 0.1))
  (fp_line (start 2 -2) (end -2 -2) (layer F.Fab) (width 0.1))
  (fp_line (start -1.8 -1.8) (end -1.8 1.8) (layer F.CrtYd) (width 0.05))
  (fp_line (start -1.8 1.8) (end 1.8 1.8) (layer F.CrtYd) (width 0.05))
  (fp_line (start 1.8 1.8) (end 1.8 -1.8) (layer F.CrtYd) (width 0.05))
  (fp_line (start 1.8 -1.8) (end -1.8 -1.8) (layer F.CrtYd) (width 0.05))
  (fp_line (start -0.495 -1.9) (end 0.495 -1.9) (layer F.SilkS) (width 0.12))
  (fp_line (start -0.495 1.9) (end 0.495 1.9) (layer F.SilkS) (width 0.12))
  (pad 1 smd rect (at -1.4 0) (size 1.4 3.5) (layers F.Cu F.Paste F.Mask))
  (pad 2 smd rect (at 1.4 0) (size 1.4 3.5) (layers F.Cu F.Paste F.Mask))
  (model ${KISYS3DMOD}/Inductor_SMD.3dshapes/L_Wuerth_MAPI-4020.wrl
    (at (xyz 0 0 0))
    (scale (xyz 1 1 1))
    (rotate (xyz 0 0 0))
  )
)
